#
#
#Mirror body motions
#
M13dz           0|2                  body    5       actuator        0               -0.001 0.0 0.0 0.0 0.0 0.0 0.0 0.0 0.0
M13dx           0|2                  body    3       actuator        1               0.001 0.0 0.0 0.0 0.0 0.0 0.0 0.0 0.0
M13dy           0|2                  body    4       actuator        2               0.001 0.0 0.0 0.0 0.0 0.0 0.0 0.0 0.0
M13rx           0|2                  body    0       actuator        3              -4.84814e-06 0.0 0.0 0.0 0.0 0.0 0.0 0.0 0.0
M13rx           0|2                  body    1       actuator        3              -4.84814e-06 0.0 0.0 0.0 0.0 0.0 0.0 0.0 0.0
M13rx           0|2                  body    2       actuator        3              -4.84814e-06 0.0 0.0 0.0 0.0 0.0 0.0 0.0 0.0
M13ry           0|2                  body    0       actuator        4              -4.84814e-06 0.0 0.0 0.0 0.0 0.0 0.0 1.5708 0.0
M13ry           0|2                  body    1       actuator        4              -4.84814e-06 0.0 0.0 0.0 0.0 0.0 0.0 -1.5708 0.0
M13ry           0|2                  body    2       actuator        4              -4.84814e-06 0.0 0.0 0.0 0.0 0.0 0.0 0.0 0.0
M2dz            1                    body    5       actuator        5              -0.001 0.0 0.0 0.0 0.0 0.0 0.0 0.0 0.0
M2dx            1                    body    3       actuator        6               0.001 0.0 0.0 0.0 0.0 0.0 0.0 0.0 0.0
M2dy            1                    body    4       actuator        7               0.001 0.0 0.0 0.0 0.0 0.0 0.0 0.0 0.0
M2rx            1                    body    0       actuator        8              -4.84814e-06 0.0 0.0 0.0 0.0 0.0 0.0 0.0 0.0
M2rx            1                    body    1       actuator        8              -4.84814e-06 0.0 0.0 0.0 0.0 0.0 0.0 0.0 0.0
M2rx            1                    body    2       actuator        8              -4.84814e-06 0.0 0.0 0.0 0.0 0.0 0.0 0.0 0.0
M2ry            1                    body    0       actuator        9              -4.84814e-06 0.0 0.0 0.0 0.0 0.0 0.0 1.5708 0.0
M2ry            1                    body    1       actuator        9              -4.84814e-06 0.0 0.0 0.0 0.0 0.0 0.0 -1.5708 0.0
M2ry            1                    body    2       actuator        9              -4.84814e-06 0.0 0.0 0.0 0.0 0.0 0.0 0.0 0.0
#
#
#Camera body motions
#
CAMdz           3|4|5|6|7|8|9|10|11     body    5       actuator        10        -0.001 0.0 0.0 0.0 0.0 0.0 0.0 0.0 0.0
CAMdx           3|4|5|6|7|8|9|10|11     body    3       actuator        11        0.001 0.0 0.0 0.0 0.0 0.0 0.0 0.0 0.0
CAMdy           3|4|5|6|7|8|9|10|11     body    4       actuator        12        0.001 0.0 0.0 0.0 0.0 0.0 0.0 0.0 0.0
CAMrx           3                       body    0       actuator        13       -4.84814e-06 0.0 0.0 0.0 0.0 0.0 0.0 0.0 0.0
CAMrx           3                       body    1       actuator        13       -4.84814e-06 0.0 0.0 0.0 0.0 0.0 0.0 0.0 0.0
CAMrx           3                       body    2       actuator        13       -4.84814e-06 0.0 0.0 0.0 0.0 0.0 0.0 0.0 0.0
CAMrx           3                       body    4       actuator        13        0.0 0.0 -4.84814e-06 0.0 0.0 0.0 0.0 0.0 0.0
CAMrx           3                       body    5       actuator        13        0.0 0.0 -4.84814e-06 -0.0 0.0 0.0 0.0 0.0 0.0
CAMry           3                       body    0       actuator        14       -4.84814e-06 0.0 0.0 0.0 0.0 0.0 0.0 1.5708 0.0
CAMry           3                       body    1       actuator        14       -4.84814e-06 0.0 0.0 0.0 0.0 0.0 0.0 -1.5708 0.0
CAMry           3                       body    2       actuator        14       -4.84814e-06 0.0 0.0 0.0 0.0 0.0 0.0 0.0 0.0
CAMry           3                       body    3       actuator        14        0.0 0.0 -4.84814e-06 0.0 0.0 0.0 0.0 0.0 0.0
CAMry           3                       body    5       actuator        14        0.0 0.0 -4.84814e-06 -0.0 0.0 0.0 0.0 0.0 0.0
CAMrx           4                       body    0       actuator        13       -4.84814e-06 0.0 0.0 0.0 0.0 0.0 0.0 0.0 0.0
CAMrx           4                       body    1       actuator        13       -4.84814e-06 0.0 0.0 0.0 0.0 0.0 0.0 0.0 0.0
CAMrx           4                       body    2       actuator        13       -4.84814e-06 0.0 0.0 0.0 0.0 0.0 0.0 0.0 0.0
CAMrx           4                       body    4       actuator        13        0.0 0.0 -4.84814e-06 0.0 -82.23 0.0 0.0 0.0 0.0
CAMrx           4                       body    5       actuator        13        0.0 82.23 -4.84814e-06 -82.23 0.0 0.0 0.0 0.0 0.0
CAMry           4                       body    0       actuator        14       -4.84814e-06 0.0 0.0 0.0 0.0 0.0 0.0 1.5708 0.0
CAMry           4                       body    1       actuator        14       -4.84814e-06 0.0 0.0 0.0 0.0 0.0 0.0 -1.5708 0.0
CAMry           4                       body    2       actuator        14       -4.84814e-06 0.0 0.0 0.0 0.0 0.0 0.0 0.0 0.0
CAMry           4                       body    3       actuator        14        0.0 0.0 -4.84814e-06 0.0 82.23 0.0 0.0 0.0 0.0
CAMry           4                       body    5       actuator        14        0.0 82.23 -4.84814e-06 -82.23 0.0 0.0 0.0 0.0 0.0
CAMrx           5                       body    0       actuator        13       -4.84814e-06 0.0 0.0 0.0 0.0 0.0 0.0 0.0 0.0
CAMrx           5                       body    1       actuator        13       -4.84814e-06 0.0 0.0 0.0 0.0 0.0 0.0 0.0 0.0
CAMrx           5                       body    2       actuator        13       -4.84814e-06 0.0 0.0 0.0 0.0 0.0 0.0 0.0 0.0
CAMrx           5                       body    4       actuator        13        0.0 0.0 -4.84814e-06 0.0 -494.87203 0.0 0.0 0.0 0.0
CAMrx           5                       body    5       actuator        13        0.0 494.87203 -4.84814e-06 -494.87203 0.0 0.0 0.0 0.0 0.0
CAMry           5                       body    0       actuator        14       -4.84814e-06 0.0 0.0 0.0 0.0 0.0 0.0 1.5708 0.0
CAMry           5                       body    1       actuator        14       -4.84814e-06 0.0 0.0 0.0 0.0 0.0 0.0 -1.5708 0.0
CAMry           5                       body    2       actuator        14       -4.84814e-06 0.0 0.0 0.0 0.0 0.0 0.0 0.0 0.0
CAMry           5                       body    3       actuator        14        0.0 0.0 -4.84814e-06 0.0 494.87203 0.0 0.0 0.0 0.0
CAMry           5                       body    5       actuator        14        0.0 494.87203 -4.84814e-06 -494.87203 0.0 0.0 0.0 0.0 0.0
CAMrx           6                       body    0       actuator        13       -4.84814e-06 0.0 0.0 0.0 0.0 0.0 0.0 0.0 0.0
CAMrx           6                       body    1       actuator        13       -4.84814e-06 0.0 0.0 0.0 0.0 0.0 0.0 0.0 0.0
CAMrx           6                       body    2       actuator        13       -4.84814e-06 0.0 0.0 0.0 0.0 0.0 0.0 0.0 0.0
CAMrx           6                       body    4       actuator        13        0.0 0.0 -4.84814e-06 0.0 -524.87203 0.0 0.0 0.0 0.0
CAMrx           6                       body    5       actuator        13        0.0 524.87203 -4.84814e-06 -524.87203 0.0 0.0 0.0 0.0 0.0
CAMry           6                       body    0       actuator        14       -4.84814e-06 0.0 0.0 0.0 0.0 0.0 0.0 1.5708 0.0
CAMry           6                       body    1       actuator        14       -4.84814e-06 0.0 0.0 0.0 0.0 0.0 0.0 -1.5708 0.0
CAMry           6                       body    2       actuator        14       -4.84814e-06 0.0 0.0 0.0 0.0 0.0 0.0 0.0 0.0
CAMry           6                       body    3       actuator        14        0.0 0.0 -4.84814e-06 0.0 524.87203 0.0 0.0 0.0 0.0
CAMry           6                       body    5       actuator        14        0.0 524.87203 -4.84814e-06 -524.87203 0.0 0.0 0.0 0.0 0.0
CAMrx           7                       body    0       actuator        13       -4.84814e-06 0.0 0.0 0.0 0.0 0.0 0.0 0.0 0.0
CAMrx           7                       body    1       actuator        13       -4.84814e-06 0.0 0.0 0.0 0.0 0.0 0.0 0.0 0.0
CAMrx           7                       body    2       actuator        13       -4.84814e-06 0.0 0.0 0.0 0.0 0.0 0.0 0.0 0.0
CAMrx           7                       body    4       actuator        13        0.0 0.0 -4.84814e-06 0.0 -874.45202 0.0 0.0 0.0 0.0
CAMrx           7                       body    5       actuator        13        0.0 874.45202 -4.84814e-06 -874.45202 0.0 0.0 0.0 0.0 0.0
CAMry           7                       body    0       actuator        14       -4.84814e-06 0.0 0.0 0.0 0.0 0.0 0.0 1.5708 0.0
CAMry           7                       body    1       actuator        14       -4.84814e-06 0.0 0.0 0.0 0.0 0.0 0.0 -1.5708 0.0
CAMry           7                       body    2       actuator        14       -4.84814e-06 0.0 0.0 0.0 0.0 0.0 0.0 0.0 0.0
CAMry           7                       body    3       actuator        14        0.0 0.0 -4.84814e-06 0.0 874.45202 0.0 0.0 0.0 0.0
CAMry           7                       body    5       actuator        14        0.0 874.45202 -4.84814e-06 -874.45202 0.0 0.0 0.0 0.0 0.0
CAMrx           8                       body    0       actuator        13       -4.84814e-06 0.0 0.0 0.0 0.0 0.0 0.0 0.0 0.0
CAMrx           8                       body    1       actuator        13       -4.84814e-06 0.0 0.0 0.0 0.0 0.0 0.0 0.0 0.0
CAMrx           8                       body    2       actuator        13       -4.84814e-06 0.0 0.0 0.0 0.0 0.0 0.0 0.0 0.0
CAMrx           8                       body    4       actuator        13        0.0 0.0 -4.84814e-06 0.0 -895.95202 0.0 0.0 0.0 0.0
CAMrx           8                       body    5       actuator        13        0.0 895.95202 -4.84814e-06 -895.95202 0.0 0.0 0.0 0.0 0.0
CAMry           8                       body    0       actuator        14       -4.84814e-06 0.0 0.0 0.0 0.0 0.0 0.0 1.5708 0.0
CAMry           8                       body    1       actuator        14       -4.84814e-06 0.0 0.0 0.0 0.0 0.0 0.0 -1.5708 0.0
CAMry           8                       body    2       actuator        14       -4.84814e-06 0.0 0.0 0.0 0.0 0.0 0.0 0.0 0.0
CAMry           8                       body    3       actuator        14        0.0 0.0 -4.84814e-06 0.0 895.95202 0.0 0.0 0.0 0.0
CAMry           8                       body    5       actuator        14        0.0 895.95202 -4.84814e-06 -895.95202 0.0 0.0 0.0 0.0 0.0
CAMrx           9                       body    0       actuator        13       -4.84814e-06 0.0 0.0 0.0 0.0 0.0 0.0 0.0 0.0
CAMrx           9                       body    1       actuator        13       -4.84814e-06 0.0 0.0 0.0 0.0 0.0 0.0 0.0 0.0
CAMrx           9                       body    2       actuator        13       -4.84814e-06 0.0 0.0 0.0 0.0 0.0 0.0 0.0 0.0
CAMrx           9                       body    4       actuator        13        0.0 0.0 -4.84814e-06 0.0 -943.45202 0.0 0.0 0.0 0.0
CAMrx           9                       body    5       actuator        13        0.0 943.45202 -4.84814e-06 -943.45202 0.0 0.0 0.0 0.0 0.0
CAMry           9                       body    0       actuator        14       -4.84814e-06 0.0 0.0 0.0 0.0 0.0 0.0 1.5708 0.0
CAMry           9                       body    1       actuator        14       -4.84814e-06 0.0 0.0 0.0 0.0 0.0 0.0 -1.5708 0.0
CAMry           9                       body    2       actuator        14       -4.84814e-06 0.0 0.0 0.0 0.0 0.0 0.0 0.0 0.0
CAMry           9                       body    3       actuator        14        0.0 0.0 -4.84814e-06 0.0 943.45202 0.0 0.0 0.0 0.0
CAMry           9                       body    5       actuator        14        0.0 943.45202 -4.84814e-06 -943.45202 0.0 0.0 0.0 0.0 0.0
CAMrx           10                      body    0       actuator        13       -4.84814e-06 0.0 0.0 0.0 0.0 0.0 0.0 0.0 0.0
CAMrx           10                      body    1       actuator        13       -4.84814e-06 0.0 0.0 0.0 0.0 0.0 0.0 0.0 0.0
CAMrx           10                      body    2       actuator        13       -4.84814e-06 0.0 0.0 0.0 0.0 0.0 0.0 0.0 0.0
CAMrx           10                      body    4       actuator        13        0.0 0.0 -4.84814e-06 0.0 -1003.452 0.0 0.0 0.0 0.0
CAMrx           10                      body    5       actuator        13        0.0 1003.452 -4.84814e-06 -1003.452 0.0 0.0 0.0 0.0 0.0
CAMry           10                      body    0       actuator        14       -4.84814e-06 0.0 0.0 0.0 0.0 0.0 0.0 1.5708 0.0
CAMry           10                      body    1       actuator        14       -4.84814e-06 0.0 0.0 0.0 0.0 0.0 0.0 -1.5708 0.0
CAMry           10                      body    2       actuator        14       -4.84814e-06 0.0 0.0 0.0 0.0 0.0 0.0 0.0 0.0
CAMry           10                      body    3       actuator        14        0.0 0.0 -4.84814e-06 0.0 1003.452 0.0 0.0 0.0 0.0
CAMry           10                      body    5       actuator        14        0.0 1003.452 -4.84814e-06 -1003.452 0.0 0.0 0.0 0.0 0.0
CAMrx           11                      body    0       actuator        13       -4.84814e-06 0.0 0.0 0.0 0.0 0.0 0.0 0.0 0.0
CAMrx           11                      body    1       actuator        13       -4.84814e-06 0.0 0.0 0.0 0.0 0.0 0.0 0.0 0.0
CAMrx           11                      body    2       actuator        13       -4.84814e-06 0.0 0.0 0.0 0.0 0.0 0.0 0.0 0.0
CAMrx           11                      body    4       actuator        13        0.0 0.0 -4.84814e-06 0.0 -1031.952 0.0 0.0 0.0 0.0
CAMrx           11                      body    5       actuator        13        0.0 1031.952 -4.84814e-06 -1031.952 0.0 0.0 0.0 0.0 0.0
CAMry           11                      body    0       actuator        14       -4.84814e-06 0.0 0.0 0.0 0.0 0.0 0.0 1.5708 0.0
CAMry           11                      body    1       actuator        14       -4.84814e-06 0.0 0.0 0.0 0.0 0.0 0.0 -1.5708 0.0
CAMry           11                      body    2       actuator        14       -4.84814e-06 0.0 0.0 0.0 0.0 0.0 0.0 0.0 0.0
CAMry           11                      body    3       actuator        14        0.0 0.0 -4.84814e-06 0.0 1031.952 0.0 0.0 0.0 0.0
CAMry           11                      body    5       actuator        14        0.0 1031.952 -4.84814e-06 -1031.952 0.0 0.0 0.0 0.0 0.0
#
#
#Mirror bending modes
#
M13bending1         0                        map     M1_b1_0.50_grid.DAT     actuator 15   -2.0 0.0 0.0 0.0 0.0 0.0 0.0 0.0 0.0
M13bending1         2                        map     M3_b1_0.50_grid.DAT     actuator 15   -2.0 0.0 0.0 0.0 0.0 0.0 0.0 0.0 0.0
M13bending1         2|0                      zlist   M13_b1_0.50_gridz.txt   actuator 15   -2.0 0.0 0.0 0.0 0.0 0.0 0.0 0.0 0.0
M13bending2         0                        map     M1_b2_0.50_grid.DAT     actuator 16   -2.0 0.0 0.0 0.0 0.0 0.0 0.0 0.0 0.0
M13bending2         2                        map     M3_b2_0.50_grid.DAT     actuator 16   -2.0 0.0 0.0 0.0 0.0 0.0 0.0 0.0 0.0
M13bending2         2|0                      zlist   M13_b2_0.50_gridz.txt   actuator 16   -2.0 0.0 0.0 0.0 0.0 0.0 0.0 0.0 0.0
M13bending3         0                        map     M1_b3_0.50_grid.DAT     actuator 17   -2.0 0.0 0.0 0.0 0.0 0.0 0.0 0.0 0.0
M13bending3         2                        map     M3_b3_0.50_grid.DAT     actuator 17   -2.0 0.0 0.0 0.0 0.0 0.0 0.0 0.0 0.0
M13bending3         2|0                      zlist   M13_b3_0.50_gridz.txt   actuator 17   -2.0 0.0 0.0 0.0 0.0 0.0 0.0 0.0 0.0
M13bending4         0                        map     M1_b4_0.50_grid.DAT     actuator 18   -2.0 0.0 0.0 0.0 0.0 0.0 0.0 0.0 0.0
M13bending4         2                        map     M3_b4_0.50_grid.DAT     actuator 18   -2.0 0.0 0.0 0.0 0.0 0.0 0.0 0.0 0.0
M13bending4         2|0                      zlist   M13_b4_0.50_gridz.txt   actuator 18   -2.0 0.0 0.0 0.0 0.0 0.0 0.0 0.0 0.0
M13bending5         0                        map     M1_b5_0.50_grid.DAT     actuator 19   -2.0 0.0 0.0 0.0 0.0 0.0 0.0 0.0 0.0
M13bending5         2                        map     M3_b5_0.50_grid.DAT     actuator 19   -2.0 0.0 0.0 0.0 0.0 0.0 0.0 0.0 0.0
M13bending5         2|0                      zlist   M13_b5_0.50_gridz.txt   actuator 19   -2.0 0.0 0.0 0.0 0.0 0.0 0.0 0.0 0.0
M13bending6         0                        map     M1_b6_0.50_grid.DAT     actuator 20   -2.0 0.0 0.0 0.0 0.0 0.0 0.0 0.0 0.0
M13bending6         2                        map     M3_b6_0.50_grid.DAT     actuator 20   -2.0 0.0 0.0 0.0 0.0 0.0 0.0 0.0 0.0
M13bending6         2|0                      zlist   M13_b6_0.50_gridz.txt   actuator 20   -2.0 0.0 0.0 0.0 0.0 0.0 0.0 0.0 0.0
M13bending7         0                        map     M1_b7_0.50_grid.DAT     actuator 21   -2.0 0.0 0.0 0.0 0.0 0.0 0.0 0.0 0.0
M13bending7         2                        map     M3_b7_0.50_grid.DAT     actuator 21   -2.0 0.0 0.0 0.0 0.0 0.0 0.0 0.0 0.0
M13bending7         2|0                      zlist   M13_b7_0.50_gridz.txt   actuator 21   -2.0 0.0 0.0 0.0 0.0 0.0 0.0 0.0 0.0
M13bending8         0                        map     M1_b8_0.50_grid.DAT     actuator 22   -2.0 0.0 0.0 0.0 0.0 0.0 0.0 0.0 0.0
M13bending8         2                        map     M3_b8_0.50_grid.DAT     actuator 22   -2.0 0.0 0.0 0.0 0.0 0.0 0.0 0.0 0.0
M13bending8         2|0                      zlist   M13_b8_0.50_gridz.txt   actuator 22   -2.0 0.0 0.0 0.0 0.0 0.0 0.0 0.0 0.0
M13bending9         0                        map     M1_b9_0.50_grid.DAT     actuator 23   -2.0 0.0 0.0 0.0 0.0 0.0 0.0 0.0 0.0
M13bending9         2                        map     M3_b9_0.50_grid.DAT     actuator 23   -2.0 0.0 0.0 0.0 0.0 0.0 0.0 0.0 0.0
M13bending9         2|0                      zlist   M13_b9_0.50_gridz.txt   actuator 23   -2.0 0.0 0.0 0.0 0.0 0.0 0.0 0.0 0.0
M13bending10        0                        map     M1_b10_0.50_grid.DAT    actuator 24   -2.0 0.0 0.0 0.0 0.0 0.0 0.0 0.0 0.0
M13bending10        2                        map     M3_b10_0.50_grid.DAT    actuator 24   -2.0 0.0 0.0 0.0 0.0 0.0 0.0 0.0 0.0
M13bending10        2|0                      zlist   M13_b10_0.50_gridz.txt  actuator 24   -2.0 0.0 0.0 0.0 0.0 0.0 0.0 0.0 0.0
M13bending11        0                        map     M1_b11_0.50_grid.DAT    actuator 25   -2.0 0.0 0.0 0.0 0.0 0.0 0.0 0.0 0.0
M13bending11        2                        map     M3_b11_0.50_grid.DAT    actuator 25   -2.0 0.0 0.0 0.0 0.0 0.0 0.0 0.0 0.0
M13bending11        2|0                      zlist   M13_b11_0.50_gridz.txt  actuator 25   -2.0 0.0 0.0 0.0 0.0 0.0 0.0 0.0 0.0
M13bending12        0                        map     M1_b12_0.50_grid.DAT    actuator 26   -2.0 0.0 0.0 0.0 0.0 0.0 0.0 0.0 0.0
M13bending12        2                        map     M3_b12_0.50_grid.DAT    actuator 26   -2.0 0.0 0.0 0.0 0.0 0.0 0.0 0.0 0.0
M13bending12        2|0                      zlist   M13_b12_0.50_gridz.txt  actuator 26   -2.0 0.0 0.0 0.0 0.0 0.0 0.0 0.0 0.0
M13bending13        0                        map     M1_b13_0.50_grid.DAT    actuator 27   -2.0 0.0 0.0 0.0 0.0 0.0 0.0 0.0 0.0
M13bending13        2                        map     M3_b13_0.50_grid.DAT    actuator 27   -2.0 0.0 0.0 0.0 0.0 0.0 0.0 0.0 0.0
M13bending13        2|0                      zlist   M13_b13_0.50_gridz.txt  actuator 27   -2.0 0.0 0.0 0.0 0.0 0.0 0.0 0.0 0.0
M13bending14        0                        map     M1_b14_0.50_grid.DAT    actuator 28   -2.0 0.0 0.0 0.0 0.0 0.0 0.0 0.0 0.0
M13bending14        2                        map     M3_b14_0.50_grid.DAT    actuator 28   -2.0 0.0 0.0 0.0 0.0 0.0 0.0 0.0 0.0
M13bending14        2|0                      zlist   M13_b14_0.50_gridz.txt  actuator 28   -2.0 0.0 0.0 0.0 0.0 0.0 0.0 0.0 0.0
M13bending15        0                        map     M1_b15_0.50_grid.DAT    actuator 29   -2.0 0.0 0.0 0.0 0.0 0.0 0.0 0.0 0.0
M13bending15        2                        map     M3_b15_0.50_grid.DAT    actuator 29   -2.0 0.0 0.0 0.0 0.0 0.0 0.0 0.0 0.0
M13bending15        2|0                      zlist   M13_b15_0.50_gridz.txt  actuator 29   -2.0 0.0 0.0 0.0 0.0 0.0 0.0 0.0 0.0
M13bending16        0                        map     M1_b16_0.50_grid.DAT    actuator 30   -2.0 0.0 0.0 0.0 0.0 0.0 0.0 0.0 0.0
M13bending16        2                        map     M3_b16_0.50_grid.DAT    actuator 30   -2.0 0.0 0.0 0.0 0.0 0.0 0.0 0.0 0.0
M13bending16        2|0                      zlist   M13_b16_0.50_gridz.txt  actuator 30   -2.0 0.0 0.0 0.0 0.0 0.0 0.0 0.0 0.0
M13bending17        0                        map     M1_b17_0.50_grid.DAT    actuator 31   -2.0 0.0 0.0 0.0 0.0 0.0 0.0 0.0 0.0
M13bending17        2                        map     M3_b17_0.50_grid.DAT    actuator 31   -2.0 0.0 0.0 0.0 0.0 0.0 0.0 0.0 0.0
M13bending17        2|0                      zlist   M13_b17_0.50_gridz.txt  actuator 31   -2.0 0.0 0.0 0.0 0.0 0.0 0.0 0.0 0.0
M13bending18        0                        map     M1_b18_0.50_grid.DAT    actuator 32   -2.0 0.0 0.0 0.0 0.0 0.0 0.0 0.0 0.0
M13bending18        2                        map     M3_b18_0.50_grid.DAT    actuator 32   -2.0 0.0 0.0 0.0 0.0 0.0 0.0 0.0 0.0
M13bending18        2|0                      zlist   M13_b18_0.50_gridz.txt  actuator 32   -2.0 0.0 0.0 0.0 0.0 0.0 0.0 0.0 0.0
M13bending19        0                        map     M1_b19_0.50_grid.DAT    actuator 33   -2.0 0.0 0.0 0.0 0.0 0.0 0.0 0.0 0.0
M13bending19        2                        map     M3_b19_0.50_grid.DAT    actuator 33   -2.0 0.0 0.0 0.0 0.0 0.0 0.0 0.0 0.0
M13bending19        2|0                      zlist   M13_b19_0.50_gridz.txt  actuator 33   -2.0 0.0 0.0 0.0 0.0 0.0 0.0 0.0 0.0
M13bending20        0                        map     M1_b20_0.50_grid.DAT    actuator 34   -2.0 0.0 0.0 0.0 0.0 0.0 0.0 0.0 0.0
M13bending20        2                        map     M3_b20_0.50_grid.DAT    actuator 34   -2.0 0.0 0.0 0.0 0.0 0.0 0.0 0.0 0.0
M13bending20        2|0                      zlist   M13_b20_0.50_gridz.txt  actuator 34   -2.0 0.0 0.0 0.0 0.0 0.0 0.0 0.0 0.0
M2bending1          1                       map     M2_b1_0.25_grid.DAT    actuator 35   -4.0 0.0 0.0 0.0 0.0 0.0 0.0 0.0 0.0
M2bending1          1                       zlist   M2_b1_0.25_gridz.txt   actuator 35   -4.0 0.0 0.0 0.0 0.0 0.0 0.0 0.0 0.0
M2bending2          1                       map     M2_b2_0.25_grid.DAT    actuator 36   -4.0 0.0 0.0 0.0 0.0 0.0 0.0 0.0 0.0
M2bending2          1                       zlist   M2_b2_0.25_gridz.txt   actuator 36   -4.0 0.0 0.0 0.0 0.0 0.0 0.0 0.0 0.0
M2bending3          1                       map     M2_b3_0.25_grid.DAT    actuator 37   -4.0 0.0 0.0 0.0 0.0 0.0 0.0 0.0 0.0
M2bending3          1                       zlist   M2_b3_0.25_gridz.txt   actuator 37   -4.0 0.0 0.0 0.0 0.0 0.0 0.0 0.0 0.0
M2bending4          1                       map     M2_b4_0.25_grid.DAT    actuator 38   -4.0 0.0 0.0 0.0 0.0 0.0 0.0 0.0 0.0
M2bending4          1                       zlist   M2_b4_0.25_gridz.txt   actuator 38   -4.0 0.0 0.0 0.0 0.0 0.0 0.0 0.0 0.0
M2bending5          1                       map     M2_b5_0.25_grid.DAT    actuator 39   -4.0 0.0 0.0 0.0 0.0 0.0 0.0 0.0 0.0
M2bending5          1                       zlist   M2_b5_0.25_gridz.txt   actuator 39   -4.0 0.0 0.0 0.0 0.0 0.0 0.0 0.0 0.0
M2bending6          1                       map     M2_b6_0.25_grid.DAT    actuator 40   -4.0 0.0 0.0 0.0 0.0 0.0 0.0 0.0 0.0
M2bending6          1                       zlist   M2_b6_0.25_gridz.txt   actuator 40   -4.0 0.0 0.0 0.0 0.0 0.0 0.0 0.0 0.0
M2bending7          1                       map     M2_b7_0.25_grid.DAT    actuator 41   -4.0 0.0 0.0 0.0 0.0 0.0 0.0 0.0 0.0
M2bending7          1                       zlist   M2_b7_0.25_gridz.txt   actuator 41   -4.0 0.0 0.0 0.0 0.0 0.0 0.0 0.0 0.0
M2bending8          1                       map     M2_b8_0.25_grid.DAT    actuator 42   -4.0 0.0 0.0 0.0 0.0 0.0 0.0 0.0 0.0
M2bending8          1                       zlist   M2_b8_0.25_gridz.txt   actuator 42   -4.0 0.0 0.0 0.0 0.0 0.0 0.0 0.0 0.0
M2bending9          1                       map     M2_b9_0.25_grid.DAT    actuator 43   -4.0 0.0 0.0 0.0 0.0 0.0 0.0 0.0 0.0
M2bending9          1                       zlist   M2_b9_0.25_gridz.txt   actuator 43   -4.0 0.0 0.0 0.0 0.0 0.0 0.0 0.0 0.0
M2bending10         1                       map     M2_b10_0.25_grid.DAT    actuator 44   -4.0 0.0 0.0 0.0 0.0 0.0 0.0 0.0 0.0
M2bending10         1                       zlist   M2_b10_0.25_gridz.txt   actuator 44   -4.0 0.0 0.0 0.0 0.0 0.0 0.0 0.0 0.0
M2bending11         1                       map     M2_b11_0.25_grid.DAT    actuator 45   -4.0 0.0 0.0 0.0 0.0 0.0 0.0 0.0 0.0
M2bending11         1                       zlist   M2_b11_0.25_gridz.txt   actuator 45   -4.0 0.0 0.0 0.0 0.0 0.0 0.0 0.0 0.0
M2bending12         1                       map     M2_b12_0.25_grid.DAT    actuator 46   -4.0 0.0 0.0 0.0 0.0 0.0 0.0 0.0 0.0
M2bending12         1                       zlist   M2_b12_0.25_gridz.txt   actuator 46   -4.0 0.0 0.0 0.0 0.0 0.0 0.0 0.0 0.0
M2bending13         1                       map     M2_b13_0.25_grid.DAT    actuator 47   -4.0 0.0 0.0 0.0 0.0 0.0 0.0 0.0 0.0
M2bending13         1                       zlist   M2_b13_0.25_gridz.txt   actuator 47   -4.0 0.0 0.0 0.0 0.0 0.0 0.0 0.0 0.0
M2bending14         1                       map     M2_b14_0.25_grid.DAT    actuator 48   -4.0 0.0 0.0 0.0 0.0 0.0 0.0 0.0 0.0
M2bending14         1                       zlist   M2_b14_0.25_gridz.txt   actuator 48   -4.0 0.0 0.0 0.0 0.0 0.0 0.0 0.0 0.0
M2bending15         1                       map     M2_b15_0.25_grid.DAT    actuator 49   -4.0 0.0 0.0 0.0 0.0 0.0 0.0 0.0 0.0
M2bending15         1                       zlist   M2_b15_0.25_gridz.txt   actuator 49   -4.0 0.0 0.0 0.0 0.0 0.0 0.0 0.0 0.0
M2bending16         1                       map     M2_b16_0.25_grid.DAT    actuator 50   -4.0 0.0 0.0 0.0 0.0 0.0 0.0 0.0 0.0
M2bending16         1                       zlist   M2_b16_0.25_gridz.txt   actuator 50   -4.0 0.0 0.0 0.0 0.0 0.0 0.0 0.0 0.0
M2bending17         1                       map     M2_b17_0.25_grid.DAT    actuator 51   -4.0 0.0 0.0 0.0 0.0 0.0 0.0 0.0 0.0
M2bending17         1                       zlist   M2_b17_0.25_gridz.txt   actuator 51   -4.0 0.0 0.0 0.0 0.0 0.0 0.0 0.0 0.0
M2bending18         1                       map     M2_b18_0.25_grid.DAT    actuator 52   -4.0 0.0 0.0 0.0 0.0 0.0 0.0 0.0 0.0
M2bending18         1                       zlist   M2_b18_0.25_gridz.txt   actuator 52   -4.0 0.0 0.0 0.0 0.0 0.0 0.0 0.0 0.0
M2bending19         1                       map     M2_b19_0.25_grid.DAT    actuator 53   -4.0 0.0 0.0 0.0 0.0 0.0 0.0 0.0 0.0
M2bending19         1                       zlist   M2_b19_0.25_gridz.txt   actuator 53   -4.0 0.0 0.0 0.0 0.0 0.0 0.0 0.0 0.0
M2bending20         1                       map     M2_b20_0.25_grid.DAT    actuator 54   -4.0 0.0 0.0 0.0 0.0 0.0 0.0 0.0 0.0
M2bending20         1                       zlist   M2_b20_0.25_gridz.txt   actuator 54   -4.0 0.0 0.0 0.0 0.0 0.0 0.0 0.0 0.0
#
#
#  FEA files for environmental errors of shapes
#
#

#
#
#  Laser tracking tolerances for environmental errors of body rotations/translations
#  based on Document-1187, Page 19, Table with 10 points (divided by sqrt(2) for dx,dy,rx,ry)
#  putting on uniform distribution for absolute tolerances
#
M1M3dzE 0|2                     body    5       random  0       1.0 0.0 0.0 0.0 0.0 0.0 0.009 0.0 0.0
M1M3dxE 0|2                     body    3       random  1       1.0 0.0 0.0 0.0 0.0 0.0 0.009 0.0 0.0
M1M3dyE 0|2                     body    4       random  2       1.0 0.0 0.0 0.0 0.0 0.0 0.009 0.0 0.0
M13rxE  0|2                     body    0       random  3       -4.84814e-06 0.0 0.0 0.0 0.0 0.0 0.6 0.0 0.0
M13rxE  0|2                     body    1       random  3       -4.84814e-06 0.0 0.0 0.0 0.0 0.0 0.6 0.0 0.0
M13rxE  0|2                     body    2       random  3       -4.84814e-06 0.0 0.0 0.0 0.0 0.0 0.6 0.0 0.0
M13ryE  0|2                     body    0       random  4       -4.84814e-06 0.0 0.0 0.0 0.0 0.0 0.6 1.5708 0.0
M13ryE  0|2                     body    1       random  4       -4.84814e-06 0.0 0.0 0.0 0.0 0.0 0.6 -1.5708 0.0
M13ryE  0|2                     body    2       random  4       -4.84814e-06 0.0 0.0 0.0 0.0 0.0 0.6 0.0 0.0
M2dzE   1                       body    5       random  5       1.0 0.0 0.0 0.0 0.0 0.0 0.006 0.0 0.0
M2dxE   1                       body    3       random  6       1.0 0.0 0.0 0.0 0.0 0.0 0.013 0.0 0.0
M2dyE   1                       body    4       random  7       1.0 0.0 0.0 0.0 0.0 0.0 0.013 0.0 0.0
M2rxE   1                       body    0       random  8       -4.84814e-06 0.0 0.0 0.0 0.0 0.0 0.0 0.0 0.0
M2rxE   1                       body    1       random  8       -4.84814e-06 0.0 0.0 0.0 0.0 0.0 0.0 0.0 0.0
M2rxE   1                       body    2       random  8       -4.84814e-06 0.0 0.0 0.0 0.0 0.0 0.0 0.0 0.0
M2ryE   1                       body    0       random  9       -4.84814e-06 0.0 0.0 0.0 0.0 0.0 0.0 1.5708 0.0
M2ryE   1                       body    1       random  9       -4.84814e-06 0.0 0.0 0.0 0.0 0.0 0.0 -1.5708 0.0
M2ryE   1                       body    2       random  9       -4.84814e-06 0.0 0.0 0.0 0.0 0.0 0.0 0.0 0.0
CAMdzE  3|4|5|6|7|8|9|10|11     body    5       random  10      0.0 0.0 0.0 0.0 0.0 0.0 0.005 0.0 0.0
CAMdxE  3|4|5|6|7|8|9|10|11     body    3       random  11      0.0 0.0 0.0 0.0 0.0 0.0 0.008 0.0 0.0
CAMdyE  3|4|5|6|7|8|9|10|11     body    4       random  12      0.0 0.0 0.0 0.0 0.0 0.0 0.008 0.0 0.0
CAMrx   3                       body    0       random  13       -4.84814e-06 0.0 0.0 0.0 0.0 0.0 1.8 0.0 0.0
CAMrx   3                       body    1       random  13       -4.84814e-06 0.0 0.0 0.0 0.0 0.0 1.8 0.0 0.0
CAMrx   3                       body    2       random  13       -4.84814e-06 0.0 0.0 0.0 0.0 0.0 1.8 0.0 0.0
CAMrx   3                       body    4       random  13       0.0 0.0 -4.84814e-06 0.0 0.0 0.0 1.8 0.0 0.0
CAMrx   3                       body    5       random  13       0.0 0.0 -4.84814e-06 -0.0 0.0 0.0 1.8 0.0 0.0
CAMry   3                       body    0       random  14       -4.84814e-06 0.0 0.0 0.0 0.0 0.0 1.8 1.5708 0.0
CAMry   3                       body    1       random  14       -4.84814e-06 0.0 0.0 0.0 0.0 0.0 1.8 -1.5708 0.0
CAMry   3                       body    2       random  14       -4.84814e-06 0.0 0.0 0.0 0.0 0.0 1.8 0.0 0.0
CAMry   3                       body    3       random  14       0.0 0.0 -4.84814e-06 0.0 0.0 0.0 1.8 0.0 0.0
CAMry   3                       body    5       random  14       0.0 0.0 -4.84814e-06 -0.0 0.0 0.0 1.8 0.0 0.0
CAMrx   4                       body    0       random  13       -4.84814e-06 0.0 0.0 0.0 0.0 0.0 1.8 0.0 0.0
CAMrx   4                       body    1       random  13       -4.84814e-06 0.0 0.0 0.0 0.0 0.0 1.8 0.0 0.0
CAMrx   4                       body    2       random  13       -4.84814e-06 0.0 0.0 0.0 0.0 0.0 1.8 0.0 0.0
CAMrx   4                       body    4       random  13       0.0 0.0 -4.84814e-06 0.0 -82.23 0.0 1.8 0.0 0.0
CAMrx   4                       body    5       random  13       0.0 82.23 -4.84814e-06 -82.23 0.0 0.0 1.8 0.0 0.0
CAMry   4                       body    0       random  14       -4.84814e-06 0.0 0.0 0.0 0.0 0.0 1.8 1.5708 0.0
CAMry   4                       body    1       random  14       -4.84814e-06 0.0 0.0 0.0 0.0 0.0 1.8 -1.5708 0.0
CAMry   4                       body    2       random  14       -4.84814e-06 0.0 0.0 0.0 0.0 0.0 1.8 0.0 0.0
CAMry   4                       body    3       random  14       0.0 0.0 -4.84814e-06 0.0 82.23 0.0 1.8 0.0 0.0
CAMry   4                       body    5       random  14       0.0 82.23 -4.84814e-06 -82.23 0.0 0.0 1.8 0.0 0.0
CAMrx   5                       body    0       random  13       -4.84814e-06 0.0 0.0 0.0 0.0 0.0 1.8 0.0 0.0
CAMrx   5                       body    1       random  13       -4.84814e-06 0.0 0.0 0.0 0.0 0.0 1.8 0.0 0.0
CAMrx   5                       body    2       random  13       -4.84814e-06 0.0 0.0 0.0 0.0 0.0 1.8 0.0 0.0
CAMrx   5                       body    4       random  13       0.0 0.0 -4.84814e-06 0.0 -494.87203 0.0 1.8 0.0 0.0
CAMrx   5                       body    5       random  13       0.0 494.87203 -4.84814e-06 -494.87203 0.0 0.0 1.8 0.0 0.0
CAMry   5                       body    0       random  14       -4.84814e-06 0.0 0.0 0.0 0.0 0.0 1.8 1.5708 0.0
CAMry   5                       body    1       random  14       -4.84814e-06 0.0 0.0 0.0 0.0 0.0 1.8 -1.5708 0.0
CAMry   5                       body    2       random  14       -4.84814e-06 0.0 0.0 0.0 0.0 0.0 1.8 0.0 0.0
CAMry   5                       body    3       random  14       0.0 0.0 -4.84814e-06 0.0 494.87203 0.0 1.8 0.0 0.0
CAMry   5                       body    5       random  14       0.0 494.87203 -4.84814e-06 -494.87203 0.0 0.0 1.8 0.0 0.0
CAMrx   6                       body    0       random  13       -4.84814e-06 0.0 0.0 0.0 0.0 0.0 1.8 0.0 0.0
CAMrx   6                       body    1       random  13       -4.84814e-06 0.0 0.0 0.0 0.0 0.0 1.8 0.0 0.0
CAMrx   6                       body    2       random  13       -4.84814e-06 0.0 0.0 0.0 0.0 0.0 1.8 0.0 0.0
CAMrx   6                       body    4       random  13       0.0 0.0 -4.84814e-06 0.0 -524.87203 0.0 1.8 0.0 0.0
CAMrx   6                       body    5       random  13       0.0 524.87203 -4.84814e-06 -524.87203 0.0 0.0 1.8 0.0 0.0
CAMry   6                       body    0       random  14       -4.84814e-06 0.0 0.0 0.0 0.0 0.0 1.8 1.5708 0.0
CAMry   6                       body    1       random  14       -4.84814e-06 0.0 0.0 0.0 0.0 0.0 1.8 -1.5708 0.0
CAMry   6                       body    2       random  14       -4.84814e-06 0.0 0.0 0.0 0.0 0.0 1.8 0.0 0.0
CAMry   6                       body    3       random  14       0.0 0.0 -4.84814e-06 0.0 524.87203 0.0 1.8 0.0 0.0
CAMry   6                       body    5       random  14       0.0 524.87203 -4.84814e-06 -524.87203 0.0 0.0 1.8 0.0 0.0
CAMrx   7                       body    0       random  13       -4.84814e-06 0.0 0.0 0.0 0.0 0.0 1.8 0.0 0.0
CAMrx   7                       body    1       random  13       -4.84814e-06 0.0 0.0 0.0 0.0 0.0 1.8 0.0 0.0
CAMrx   7                       body    2       random  13       -4.84814e-06 0.0 0.0 0.0 0.0 0.0 1.8 0.0 0.0
CAMrx   7                       body    4       random  13       0.0 0.0 -4.84814e-06 0.0 -874.45202 0.0 1.8 0.0 0.0
CAMrx   7                       body    5       random  13       0.0 874.45202 -4.84814e-06 -874.45202 0.0 0.0 1.8 0.0 0.0
CAMry   7                       body    0       random  14       -4.84814e-06 0.0 0.0 0.0 0.0 0.0 1.8 1.5708 0.0
CAMry   7                       body    1       random  14       -4.84814e-06 0.0 0.0 0.0 0.0 0.0 1.8 -1.5708 0.0
CAMry   7                       body    2       random  14       -4.84814e-06 0.0 0.0 0.0 0.0 0.0 1.8 0.0 0.0
CAMry   7                       body    3       random  14       0.0 0.0 -4.84814e-06 0.0 874.45202 0.0 1.8 0.0 0.0
CAMry   7                       body    5       random  14       0.0 874.45202 -4.84814e-06 -874.45202 0.0 0.0 1.8 0.0 0.0
CAMrx   8                       body    0       random  13       -4.84814e-06 0.0 0.0 0.0 0.0 0.0 1.8 0.0 0.0
CAMrx   8                       body    1       random  13       -4.84814e-06 0.0 0.0 0.0 0.0 0.0 1.8 0.0 0.0
CAMrx   8                       body    2       random  13       -4.84814e-06 0.0 0.0 0.0 0.0 0.0 1.8 0.0 0.0
CAMrx   8                       body    4       random  13       0.0 0.0 -4.84814e-06 0.0 -895.95202 0.0 1.8 0.0 0.0
CAMrx   8                       body    5       random  13       0.0 895.95202 -4.84814e-06 -895.95202 0.0 0.0 1.8 0.0 0.0
CAMry   8                       body    0       random  14       -4.84814e-06 0.0 0.0 0.0 0.0 0.0 1.8 1.5708 0.0
CAMry   8                       body    1       random  14       -4.84814e-06 0.0 0.0 0.0 0.0 0.0 1.8 -1.5708 0.0
CAMry   8                       body    2       random  14       -4.84814e-06 0.0 0.0 0.0 0.0 0.0 1.8 0.0 0.0
CAMry   8                       body    3       random  14       0.0 0.0 -4.84814e-06 0.0 895.95202 0.0 1.8 0.0 0.0
CAMry   8                       body    5       random  14       0.0 895.95202 -4.84814e-06 -895.95202 0.0 0.0 1.8 0.0 0.0
CAMrx   9                       body    0       random  13       -4.84814e-06 0.0 0.0 0.0 0.0 0.0 1.8 0.0 0.0
CAMrx   9                       body    1       random  13       -4.84814e-06 0.0 0.0 0.0 0.0 0.0 1.8 0.0 0.0
CAMrx   9                       body    2       random  13       -4.84814e-06 0.0 0.0 0.0 0.0 0.0 1.8 0.0 0.0
CAMrx   9                       body    4       random  13       0.0 0.0 -4.84814e-06 0.0 -943.45202 0.0 1.8 0.0 0.0
CAMrx   9                       body    5       random  13       0.0 943.45202 -4.84814e-06 -943.45202 0.0 0.0 1.8 0.0 0.0
CAMry   9                       body    0       random  14       -4.84814e-06 0.0 0.0 0.0 0.0 0.0 1.8 1.5708 0.0
CAMry   9                       body    1       random  14       -4.84814e-06 0.0 0.0 0.0 0.0 0.0 1.8 -1.5708 0.0
CAMry   9                       body    2       random  14       -4.84814e-06 0.0 0.0 0.0 0.0 0.0 1.8 0.0 0.0
CAMry   9                       body    3       random  14       0.0 0.0 -4.84814e-06 0.0 943.45202 0.0 1.8 0.0 0.0
CAMry   9                       body    5       random  14       0.0 943.45202 -4.84814e-06 -943.45202 0.0 0.0 1.8 0.0 0.0
CAMrx   10                      body    0       random  13       -4.84814e-06 0.0 0.0 0.0 0.0 0.0 1.8 0.0 0.0
CAMrx   10                      body    1       random  13       -4.84814e-06 0.0 0.0 0.0 0.0 0.0 1.8 0.0 0.0
CAMrx   10                      body    2       random  13       -4.84814e-06 0.0 0.0 0.0 0.0 0.0 1.8 0.0 0.0
CAMrx   10                      body    4       random  13       0.0 0.0 -4.84814e-06 0.0 -1003.452 0.0 1.8 0.0 0.0
CAMrx   10                      body    5       random  13       0.0 1003.452 -4.84814e-06 -1003.452 0.0 0.0 1.8 0.0 0.0
CAMry   10                      body    0       random  14       -4.84814e-06 0.0 0.0 0.0 0.0 0.0 1.8 1.5708 0.0
CAMry   10                      body    1       random  14       -4.84814e-06 0.0 0.0 0.0 0.0 0.0 1.8 -1.5708 0.0
CAMry   10                      body    2       random  14       -4.84814e-06 0.0 0.0 0.0 0.0 0.0 1.8 0.0 0.0
CAMry   10                      body    3       random  14       0.0 0.0 -4.84814e-06 0.0 1003.452 0.0 1.8 0.0 0.0
CAMry   10                      body    5       random  14       0.0 1003.452 -4.84814e-06 -1003.452 0.0 0.0 1.8 0.0 0.0
CAMrx   11                      body    0       random  13       -4.84814e-06 0.0 0.0 0.0 0.0 0.0 1.8 0.0 0.0
CAMrx   11                      body    1       random  13       -4.84814e-06 0.0 0.0 0.0 0.0 0.0 1.8 0.0 0.0
CAMrx   11                      body    2       random  13       -4.84814e-06 0.0 0.0 0.0 0.0 0.0 1.8 0.0 0.0
CAMrx   11                      body    4       random  13       0.0 0.0 -4.84814e-06 0.0 -1031.952 0.0 1.8 0.0 0.0
CAMrx   11                      body    5       random  13       0.0 1031.952 -4.84814e-06 -1031.952 0.0 0.0 1.8 0.0 0.0
CAMry   11                      body    0       random  14       -4.84814e-06 0.0 0.0 0.0 0.0 0.0 1.8 1.5708 0.0
CAMry   11                      body    1       random  14       -4.84814e-06 0.0 0.0 0.0 0.0 0.0 1.8 -1.5708 0.0
CAMry   11                      body    2       random  14       -4.84814e-06 0.0 0.0 0.0 0.0 0.0 1.8 0.0 0.0
CAMry   11                      body    3       random  14       0.0 0.0 -4.84814e-06 0.0 1031.952 0.0 1.8 0.0 0.0
CAMry   11                      body    5       random  14       0.0 1031.952 -4.84814e-06 -1031.952 0.0 0.0 1.8 0.0 0.0
