# focal plane geometry layout data
# 
# rows are the chips in the focal plane
# columns are the name, x position (microns), y position (microns),
# pixel size (microns), number of x pixels, number of y pixels,
# device material (silicon or MCT) 
# type of device (note CMOS also means Fast Frame CCD, and CCD with 0 readout time also means CMOS where you can set the exposure),
# readout integration mode (frame or sequence)
# readout time (CCD) or frame rate (CMOS)
# group of sensors, 3 euler rotations (degrees), 3 translations (mm)
# deformation type, deformation coefficients, QE variation (obsolete)
#
R00_S12    -254000.0 -211750.0 10.0  4000  4072 silicon CMOS  frame  0.1  100.0  Group2    -0.013636   0.000000   0.000000   0.020354  -0.030212   0.000000 zern      2.04  0.05 -0.17  0.00 -0.05 -0.02  0.02  0.06 -0.03 -0.06  0.05 -0.00  0.02 -0.02  0.03 -0.01  0.03 -0.02  0.00 -0.00  0.04  0.00
R00_S21    -211750.0 -254000.0 10.0  4000  4072 silicon CMOS  frame  0.1  100.0  Group2    -0.006303   0.000000   0.000000   0.047730  -0.013690   0.000000 zern     -0.81  0.06 -0.13  0.01 -0.05 -0.09 -0.00 -0.00 -0.01 -0.03  0.00  0.01 -0.04 -0.07  0.04  0.01  0.01 -0.01 -0.00  0.01  0.01  0.00
R00_S22_C0 -211750.0 -211750.0 10.0  2000  4072 silicon CCD frame   3.0  100.0  Group1    -0.002807   0.000000   0.000000  -9.974916  -0.024185   0.000000 zern   1002.41  0.10  0.12 -0.02 -0.03  0.00  0.00 -0.02  0.01  0.06 -0.02  0.01 -0.02 -0.03  0.00 -0.00 -0.01  0.00 -0.00  0.01  0.00  0.00
R00_S22_C1 -211750.0 -211750.0 10.0  2000  4072 silicon CCD frame   3.0  100.0  Group1    -0.004927   0.000000   0.000000  10.070605  -0.016132   0.000000 zern   -996.28  0.10  0.10 -0.04  0.00 -0.08 -0.00 -0.02  0.01  0.06  0.00  0.00  0.00  0.01  0.02 -0.00  0.00  0.00  0.01  0.02  0.03  0.00
R01_S00    -296250.0 -169250.0 10.0  4000  4072 silicon CCD frame   3.0  100.0  Group0     0.023663   0.000000   0.000000   0.038514  -0.045669   0.000000 zern     -5.60 -0.14  0.14 -0.00  0.11  0.10  0.01 -0.08 -0.00 -0.04  0.00  0.04  0.03  0.03  0.02  0.00 -0.01  0.00 -0.00  0.00 -0.02  0.00
R01_S01    -296250.0 -127000.0 10.0  4000  4072 silicon CCD frame   3.0  100.0  Group0     0.006245   0.000000   0.000000   0.049375   0.026757   0.000000 zern     -4.39 -0.14  0.17 -0.01  0.04  0.03  0.10 -0.06  0.08  0.07 -0.01 -0.00  0.02  0.03  0.02  0.01 -0.03  0.01  0.01  0.02 -0.04  0.00
R01_S02    -296250.0  -84750.0 10.0  4000  4072 silicon CCD frame   3.0  100.0  Group0     0.020798   0.000000   0.000000   0.005496  -0.043235   0.000000 zern      0.38 -0.14  0.50 -0.03 -0.08 -0.06  0.01 -0.13  0.06 -0.11 -0.01 -0.03 -0.05 -0.09 -0.03  0.02 -0.01  0.01 -0.04  0.04 -0.03  0.00
R01_S10    -254000.0 -169250.0 10.0  4000  4072 silicon CCD frame   3.0  100.0  Group0     0.003037   0.000000   0.000000   0.018783   0.014512   0.000000 zern     -8.50  0.17 -0.15  0.00 -0.07 -0.03 -0.10  0.07 -0.02  0.01  0.02 -0.01  0.02  0.01  0.01 -0.03  0.02 -0.01 -0.01 -0.05  0.02  0.00
R01_S11    -254000.0 -127000.0 10.0  4000  4072 silicon CCD frame   3.0  100.0  Group0     0.002406   0.000000   0.000000   0.053481   0.048935   0.000000 zern     -3.01 -0.28 -0.11  0.00  0.00  0.12  0.10  0.02  0.01  0.02  0.01  0.01  0.04 -0.00  0.05  0.01  0.00 -0.00  0.01  0.01  0.00  0.00
R01_S12    -254000.0  -84750.0 10.0  4000  4072 silicon CCD frame   3.0  100.0  Group0     0.016215   0.000000   0.000000  -0.003846   0.047081   0.000000 zern      2.42  0.15  0.26 -0.04  0.07 -0.01 -0.06 -0.10 -0.01 -0.04 -0.03  0.03  0.02  0.08  0.04 -0.02 -0.02 -0.00 -0.01 -0.03 -0.04  0.00
R01_S20    -211750.0 -169250.0 10.0  4000  4072 silicon CCD frame   3.0  100.0  Group0     0.016387   0.000000   0.000000   0.056488   0.008805   0.000000 zern     -8.58  0.03  0.42 -0.02 -0.05  0.00 -0.00 -0.10  0.00 -0.09 -0.00 -0.01 -0.01 -0.02 -0.01 -0.01 -0.03  0.02 -0.02 -0.01 -0.05  0.00
R01_S21    -211750.0 -127000.0 10.0  4000  4072 silicon CCD frame   3.0  100.0  Group0    -0.004927   0.000000   0.000000   0.064484   0.051795   0.000000 zern     -3.56 -0.33  0.25  0.02 -0.06  0.04  0.09 -0.10 -0.02  0.02  0.02 -0.03  0.02  0.00 -0.03  0.01 -0.01 -0.01 -0.01  0.03 -0.02  0.00
R01_S22    -211750.0  -84750.0 10.0  4000  4072 silicon CCD frame   3.0  100.0  Group0     0.010772   0.000000   0.000000   0.064988   0.008416   0.000000 zern      1.82  0.12 -0.16  0.02 -0.10  0.01 -0.02  0.03  0.00 -0.02  0.00 -0.03  0.01 -0.07  0.03 -0.00  0.02  0.00 -0.02 -0.00  0.03  0.00
R02_S00    -296250.0  -42250.0 10.0  4000  4072 silicon CCD frame   3.0  100.0  Group0    -0.020168   0.000000   0.000000   0.027374   0.053249   0.000000 zern      6.35  0.39 -0.28 -0.02  0.04 -0.07 -0.08  0.10 -0.02  0.08  0.00 -0.02 -0.03  0.11 -0.02 -0.03  0.01 -0.02  0.01 -0.03  0.02  0.00
R02_S01    -296250.0       0.0 10.0  4000  4072 silicon CCD frame   3.0  100.0  Group0    -0.007219   0.000000   0.000000   0.012726   0.050721   0.000000 zern     -0.53  0.10  0.14 -0.02  0.06  0.05 -0.00 -0.08  0.06  0.07 -0.04  0.03  0.01 -0.07 -0.00  0.01 -0.02  0.02  0.01  0.01 -0.02  0.00
R02_S02    -296250.0   42250.0 10.0  4000  4072 silicon CCD frame   3.0  100.0  Group0    -0.018106   0.000000   0.000000   0.009004   0.022885   0.000000 zern     -7.39 -0.18 -0.16  0.05 -0.04  0.10  0.05  0.10  0.09 -0.16  0.01 -0.01  0.01  0.04  0.03  0.03  0.04  0.01 -0.03  0.04  0.05  0.00
R02_S10    -254000.0  -42250.0 10.0  4000  4072 silicon CCD frame   3.0  100.0  Group0     0.005500   0.000000   0.000000  -0.014785   0.027496   0.000000 zern      6.82  0.24 -0.07 -0.03 -0.03  0.04 -0.10  0.00 -0.01 -0.02  0.00 -0.04  0.02  0.10 -0.02 -0.02 -0.02  0.00 -0.01 -0.02 -0.04  0.00
R02_S11    -254000.0       0.0 10.0  4000  4072 silicon CCD frame   3.0  100.0  Group0     0.006818   0.000000   0.000000  -0.032806  -0.041709   0.000000 zern     -3.35  0.09  0.06 -0.02 -0.05  0.05 -0.00 -0.01  0.05  0.06  0.02  0.00  0.02 -0.08  0.02 -0.01  0.00  0.00 -0.00 -0.01  0.01  0.00
R02_S12    -254000.0   42250.0 10.0  4000  4072 silicon CCD frame   3.0  100.0  Group0     0.000917   0.000000   0.000000  -0.033768  -0.033082   0.000000 zern     -3.86  0.11  0.06 -0.02  0.05 -0.02  0.00 -0.03 -0.05  0.08  0.03 -0.00  0.01 -0.04  0.01 -0.01  0.01  0.00 -0.00 -0.02  0.02  0.00
R02_S20    -211750.0  -42250.0 10.0  4000  4072 silicon CCD frame   3.0  100.0  Group0    -0.023319   0.000000   0.000000   0.021257  -0.053952   0.000000 zern      1.56 -0.13 -0.27  0.05 -0.05  0.09  0.04  0.10 -0.03 -0.03  0.04 -0.02  0.03  0.03 -0.01  0.02  0.04  0.00 -0.01  0.03  0.06  0.00
R02_S21    -211750.0       0.0 10.0  4000  4072 silicon CCD frame   3.0  100.0  Group0    -0.010600   0.000000   0.000000   0.024689  -0.017405   0.000000 zern     -0.55  0.06  0.05 -0.02  0.06  0.04 -0.00 -0.01  0.12  0.06 -0.01 -0.01  0.03 -0.01  0.01  0.02  0.01  0.02 -0.00  0.02  0.01  0.00
R02_S22    -211750.0   42250.0 10.0  4000  4072 silicon CCD frame   3.0  100.0  Group0    -0.010714   0.000000   0.000000   0.014527  -0.013599   0.000000 zern     -8.55 -0.06 -0.49  0.06  0.05  0.05  0.00  0.09  0.03  0.09  0.05 -0.00  0.03 -0.05 -0.02 -0.01  0.02  0.00  0.03 -0.01  0.04  0.00
R03_S00    -296250.0   84750.0 10.0  4000  4072 silicon CCD frame   3.0  100.0  Group0     0.020340   0.000000   0.000000   0.052950  -0.007547   0.000000 zern     -6.85  0.11  0.10 -0.02 -0.06  0.03 -0.04 -0.04  0.04  0.00 -0.01 -0.02 -0.01 -0.05 -0.00 -0.00 -0.00  0.00  0.01 -0.01  0.00  0.00
R03_S01    -296250.0  127000.0 10.0  4000  4072 silicon CCD frame   3.0  100.0  Group0     0.027846   0.000000   0.000000   0.046053  -0.024155   0.000000 zern      1.12 -0.07 -0.13  0.02  0.07 -0.08  0.00 -0.01 -0.03  0.07 -0.02 -0.02 -0.03 -0.05 -0.03  0.00  0.02  0.00  0.00  0.00  0.03  0.00
R03_S02    -296250.0  169250.0 10.0  4000  4072 silicon CCD frame   3.0  100.0  Group0     0.014897   0.000000   0.000000   0.030064  -0.037095   0.000000 zern      0.38 -0.19  0.22  0.00  0.01 -0.04  0.10 -0.09 -0.04  0.03 -0.03  0.01 -0.04 -0.01  0.02  0.02 -0.04 -0.00  0.00  0.03 -0.05  0.00
R03_S10    -254000.0   84750.0 10.0  4000  4072 silicon CCD frame   3.0  100.0  Group0     0.019480   0.000000   0.000000   0.037934   0.024765   0.000000 zern      1.11 -0.18  0.14  0.00  0.08  0.10  0.10 -0.06 -0.03 -0.01  0.01  0.04  0.01  0.05 -0.01  0.02 -0.01  0.01 -0.00  0.03 -0.02  0.00
R03_S11    -254000.0  127000.0 10.0  4000  4072 silicon CCD frame   3.0  100.0  Group0     0.006188   0.000000   0.000000   0.024537  -0.001434   0.000000 zern      0.34 -0.40  0.07  0.02 -0.02  0.05  0.09  0.00  0.02 -0.04 -0.03  0.03  0.01 -0.01 -0.07  0.04  0.01 -0.01 -0.01  0.07  0.01  0.00
R03_S12    -254000.0  169250.0 10.0  4000  4072 silicon CCD frame   3.0  100.0  Group0     0.015012   0.000000   0.000000  -0.012345   0.015365   0.000000 zern     -1.93  0.03 -0.07  0.02 -0.03  0.01 -0.00  0.05  0.03  0.04 -0.02 -0.01 -0.02  0.02  0.05  0.01 -0.01 -0.00  0.00  0.01 -0.01  0.00
R03_S20    -211750.0   84750.0 10.0  4000  4072 silicon CCD frame   3.0  100.0  Group0     0.023549   0.000000   0.000000   0.051514   0.001273   0.000000 zern      6.96 -0.02 -0.08 -0.00  0.01 -0.03  0.00  0.02  0.01  0.03  0.03 -0.01  0.02  0.08  0.01 -0.01 -0.01  0.00  0.01 -0.02 -0.01  0.00
R03_S21    -211750.0  127000.0 10.0  4000  4072 silicon CCD frame   3.0  100.0  Group0     0.003552   0.000000   0.000000   0.034793   0.005347   0.000000 zern      4.01 -0.10  0.18 -0.02  0.03 -0.01  0.06 -0.08  0.02  0.05 -0.02  0.04  0.04  0.09 -0.05  0.00 -0.04  0.01  0.02 -0.00 -0.04  0.00
R03_S22    -211750.0  169250.0 10.0  4000  4072 silicon CCD frame   3.0  100.0  Group0     0.029507   0.000000   0.000000   0.015594   0.013459   0.000000 zern      4.37  0.13 -0.05 -0.00 -0.00  0.05 -0.08  0.00 -0.04 -0.11 -0.05 -0.02  0.00  0.02  0.05 -0.01 -0.00 -0.00 -0.01 -0.01 -0.01  0.00
R04_S10    -254000.0  211750.0 10.0  4000  4072 silicon CMOS  frame  0.1  100.0  Group2   -90.000290   0.000000   0.000000  -0.011214  -0.042454   0.000000 zern     -0.77  0.13 -0.60  0.06 -0.01  0.05 -0.02  0.13  0.03  0.13  0.01 -0.00 -0.00 -0.02  0.04 -0.02  0.03  0.01  0.03 -0.03  0.05  0.00
R04_S20_C0 -211750.0  211750.0 10.0  2000  4072 silicon CCD frame   3.0  100.0  Group1   -89.994904   0.000000   0.000000  -0.046161   9.945830   0.000000 zern   1002.55  0.10 -0.09 -0.00 -0.00  0.02 -0.02  0.02 -0.04  0.01  0.01  0.01  0.00 -0.00  0.03 -0.00  0.01 -0.00 -0.00 -0.01 -0.00  0.00
R04_S20_C1 -211750.0  211750.0 10.0  2000  4072 silicon CCD frame   3.0  100.0  Group1   -89.981606   0.000000   0.000000  -0.050884 -10.044240   0.000000 zern   -996.82  0.02 -0.10  0.00  0.03  0.06 -0.02 -0.00  0.02  0.05 -0.01 -0.01  0.00  0.03 -0.01  0.00  0.00  0.00  0.01  0.01  0.02  0.00
R04_S21    -211750.0  254000.0 10.0  4000  4072 silicon CMOS  frame  0.1  100.0  Group2   -90.016212   0.000000   0.000000  -0.031814   0.031128   0.000000 zern     -3.39  0.13 -0.53  0.04  0.06  0.10 -0.04  0.06 -0.06  0.04 -0.00 -0.01  0.06 -0.08  0.03 -0.01  0.03  0.00  0.02 -0.02  0.05  0.00
R10_S00    -169250.0 -296250.0 10.0  4000  4072 silicon CCD frame   3.0  100.0  Group0    -0.002922   0.000000   0.000000   0.025069   0.021516   0.000000 zern      2.26 -0.30  0.07  0.02  0.00  0.14  0.10  0.00  0.03  0.02  0.01  0.02  0.05  0.07 -0.01  0.02 -0.01 -0.00  0.01  0.03 -0.01  0.00
R10_S01    -169250.0 -254000.0 10.0  4000  4072 silicon CCD frame   3.0  100.0  Group0    -0.001833   0.000000   0.000000   0.007065   0.029152   0.000000 zern      5.89  0.11  0.12 -0.03 -0.02  0.10 -0.06 -0.02  0.03  0.01  0.00 -0.02  0.03  0.06  0.02 -0.01 -0.00  0.00 -0.00 -0.02 -0.01  0.00
R10_S02    -169250.0 -211750.0 10.0  4000  4072 silicon CCD frame   3.0  100.0  Group0     0.005787   0.000000   0.000000  -0.011184   0.024185   0.000000 zern      2.64  0.13  0.05 -0.00 -0.07 -0.07 -0.06  0.00 -0.01 -0.06 -0.04 -0.01  0.00 -0.03  0.01 -0.01  0.01 -0.01 -0.02 -0.01  0.01  0.00
R10_S10    -127000.0 -296250.0 10.0  4000  4072 silicon CCD frame   3.0  100.0  Group0     0.000287   0.000000   0.000000  -0.008539   0.045777   0.000000 zern     -2.25  0.14  0.25 -0.05 -0.07 -0.12 -0.10 -0.09 -0.02  0.01  0.00  0.00 -0.04  0.06  0.01 -0.02 -0.02 -0.02  0.01 -0.02 -0.02  0.00
R10_S11    -127000.0 -254000.0 10.0  4000  4072 silicon CCD frame   3.0  100.0  Group0    -0.009282   0.000000   0.000000  -0.002539   0.026126   0.000000 zern      4.00 -0.09  0.28 -0.04 -0.01 -0.18  0.00 -0.09 -0.02  0.05  0.02 -0.02 -0.06  0.02 -0.06 -0.01 -0.04 -0.02  0.02 -0.01 -0.05  0.00
R10_S12    -127000.0 -211750.0 10.0  4000  4072 silicon CCD frame   3.0  100.0  Group0    -0.011746   0.000000   0.000000  -0.048950   0.034881   0.000000 zern      2.89 -0.11 -0.34  0.05  0.04  0.06  0.08  0.10 -0.04  0.04  0.00 -0.01  0.01  0.01 -0.04  0.01  0.01 -0.01  0.01  0.01  0.02  0.00
R10_S20     -84750.0 -296250.0 10.0  4000  4072 silicon CCD frame   3.0  100.0  Group0    -0.012605   0.000000   0.000000  -0.037903   0.010193   0.000000 zern     -2.95 -0.48  0.15  0.01 -0.08  0.09  0.08 -0.08 -0.10  0.01  0.02 -0.01  0.04 -0.07 -0.04  0.02 -0.03 -0.02  0.00  0.05 -0.04  0.00
R10_S21     -84750.0 -254000.0 10.0  4000  4072 silicon CCD frame   3.0  100.0  Group0    -0.024236   0.000000   0.000000   0.014114  -0.043457   0.000000 zern     -2.04  0.09 -0.11 -0.00 -0.02 -0.02 -0.00  0.06  0.06  0.05 -0.01 -0.02  0.01  0.07  0.03  0.01 -0.00  0.01  0.00  0.02 -0.01  0.00
R10_S22     -84750.0 -211750.0 10.0  4000  4072 silicon CCD frame   3.0  100.0  Group0     0.005042   0.000000   0.000000  -0.016769  -0.017838   0.000000 zern      2.37 -0.12 -0.41  0.06  0.02  0.12  0.06  0.09  0.15  0.05  0.01  0.02  0.06 -0.04 -0.04  0.01  0.03  0.02 -0.00  0.01  0.04  0.00
R11_S00    -169250.0 -169250.0 10.0  4000  4072 silicon CCD frame   3.0  100.0  Group0     0.003552   0.000000   0.000000   0.054714  -0.025132   0.000000 zern      1.64 -0.31  0.10 -0.00  0.01  0.07  0.09 -0.02 -0.04  0.04  0.03 -0.01  0.02 -0.04 -0.02  0.03 -0.01 -0.00 -0.00  0.04 -0.02  0.00
R11_S01    -169250.0 -127000.0 10.0  4000  4072 silicon CCD frame   3.0  100.0  Group0    -0.007563   0.000000   0.000000   0.023516  -0.029908   0.000000 zern      6.14  0.03  0.50 -0.04 -0.06 -0.08 -0.00 -0.13 -0.10 -0.10  0.02  0.02  0.00 -0.03 -0.03 -0.01 -0.02 -0.03 -0.03 -0.00 -0.05  0.00
R11_S02    -169250.0  -84750.0 10.0  4000  4072 silicon CCD frame   3.0  100.0  Group0    -0.005615   0.000000   0.000000  -0.004913   0.045716   0.000000 zern      8.72 -0.15  0.54 -0.04 -0.04  0.05  0.06 -0.10  0.06 -0.11 -0.04 -0.00  0.01  0.09 -0.01  0.02 -0.04  0.01 -0.04  0.04 -0.07  0.00
R11_S10    -127000.0 -169250.0 10.0  4000  4072 silicon CCD frame   3.0  100.0  Group0     0.003724   0.000000   0.000000   0.056802   0.008454   0.000000 zern      1.48 -0.15  0.23  0.00  0.03 -0.04  0.02 -0.10 -0.00  0.04 -0.02 -0.02 -0.03 -0.04 -0.06  0.02 -0.03  0.02  0.01  0.03 -0.03  0.00
R11_S11    -127000.0 -127000.0 10.0  4000  4072 silicon CCD frame   3.0  100.0  Group0     0.004240   0.000000   0.000000   0.011947   0.035286   0.000000 zern      6.73 -0.08  0.13 -0.02  0.01  0.09 -0.01 -0.04  0.03  0.01  0.04  0.04  0.03 -0.05 -0.05  0.02 -0.02  0.01  0.00  0.03 -0.03  0.00
R11_S12    -127000.0  -84750.0 10.0  4000  4072 silicon CCD frame   3.0  100.0  Group0    -0.019481   0.000000   0.000000   0.012635  -0.055045   0.000000 zern      6.25 -0.02 -0.10  0.02  0.04  0.03  0.00 -0.00 -0.04  0.06 -0.03 -0.02  0.01 -0.00  0.05 -0.01 -0.00  0.00  0.00 -0.02 -0.00  0.00
R11_S20     -84750.0 -169250.0 10.0  4000  4072 silicon CCD frame   3.0  100.0  Group0    -0.011459   0.000000   0.000000   0.038658  -0.049087   0.000000 zern      3.93 -0.05 -0.07  0.02  0.00  0.07 -0.00  0.02  0.07  0.02 -0.04 -0.02  0.03  0.07 -0.01  0.00 -0.01  0.00 -0.00  0.00 -0.01  0.00
R11_S21     -84750.0 -127000.0 10.0  4000  4072 silicon CCD frame   3.0  100.0  Group0     0.000630   0.000000   0.000000   0.031250   0.003021   0.000000 zern      7.52  0.16  0.14 -0.03 -0.05 -0.00 -0.02 -0.04  0.07 -0.04 -0.01 -0.01  0.02  0.07  0.00 -0.02 -0.02 -0.00  0.00 -0.03 -0.02  0.00
R11_S22     -84750.0  -84750.0 10.0  4000  4072 silicon CCD frame   3.0  100.0  Group0     0.004183   0.000000   0.000000   0.009277  -0.010826   0.000000 zern      1.45 -0.16 -0.11  0.02 -0.03  0.05  0.04  0.02 -0.05  0.06  0.05  0.00  0.01 -0.05 -0.03  0.00 -0.00 -0.01 -0.00  0.01 -0.00  0.00
R12_S00    -169250.0  -42250.0 10.0  4000  4072 silicon CCD frame   3.0  100.0  Group0     0.008709   0.000000   0.000000   0.036039   0.006401   0.000000 zern     -8.15  0.16 -0.16  0.01 -0.03 -0.00 -0.10  0.06  0.01 -0.09 -0.00 -0.01 -0.00 -0.08  0.04 -0.01  0.03 -0.01 -0.01 -0.01  0.04  0.00
R12_S01    -169250.0       0.0 10.0  4000  4072 silicon CCD frame   3.0  100.0  Group0    -0.015928   0.000000   0.000000   0.088242  -0.019448   0.000000 zern     -3.25  0.12  0.13 -0.03 -0.07  0.06 -0.06 -0.01 -0.00 -0.09 -0.01  0.00 -0.01  0.02  0.02 -0.00 -0.00 -0.01 -0.00 -0.00 -0.01  0.00
R12_S02    -169250.0   42250.0 10.0  4000  4072 silicon CCD frame   3.0  100.0  Group0     0.002750   0.000000   0.000000   0.012298  -0.005935   0.000000 zern     -7.06 -0.06  0.43 -0.08 -0.03  0.09 -0.01 -0.10  0.07 -0.08  0.02 -0.01  0.03 -0.04 -0.05  0.01 -0.02  0.01 -0.03  0.01 -0.03  0.00
R12_S10    -127000.0  -42250.0 10.0  4000  4072 silicon CCD frame   3.0  100.0  Group0     0.010542   0.000000   0.000000   0.006997   0.016445   0.000000 zern     -6.89  0.23  0.06 -0.01 -0.05 -0.02 -0.10 -0.00 -0.09 -0.06 -0.01 -0.04 -0.03 -0.14  0.06 -0.04  0.02 -0.01 -0.02 -0.05  0.02  0.00
R12_S11    -127000.0       0.0 10.0  4000  4072 silicon CCD frame   3.0  100.0  Group0    -0.000000   0.000000   0.000000   0.034000   0.022974   0.000000 zern     -8.38  0.06  0.18 -0.04 -0.03 -0.09  0.00 -0.08  0.04  0.05 -0.01  0.02 -0.02  0.07  0.03 -0.01 -0.02 -0.00  0.01 -0.02 -0.02  0.00
R12_S12    -127000.0   42250.0 10.0  4000  4072 silicon CCD frame   3.0  100.0  Group0     0.007162   0.000000   0.000000  -0.005010   0.047893   0.000000 zern     -5.96  0.15 -0.12 -0.01  0.01 -0.08 -0.03  0.00 -0.01 -0.04 -0.00 -0.01 -0.01  0.02  0.05 -0.01  0.01 -0.00 -0.00 -0.01  0.02  0.00
R12_S20     -84750.0  -42250.0 10.0  4000  4072 silicon CCD frame   3.0  100.0  Group0     0.015012   0.000000   0.000000   0.020188   0.047062   0.000000 zern     -5.59 -0.06 -0.23  0.01 -0.06  0.01  0.02  0.09 -0.02  0.03  0.01 -0.03  0.03  0.13  0.05 -0.02  0.02 -0.01  0.01 -0.02  0.03  0.00
R12_S21     -84750.0       0.0 10.0  4000  4072 silicon CCD frame   3.0  100.0  Group0    -0.009969   0.000000   0.000000   0.031608   0.036997   0.000000 zern     -6.78 -0.17  0.19 -0.00  0.05 -0.08  0.10 -0.09  0.01  0.09  0.01 -0.02 -0.01  0.00 -0.03  0.03 -0.04  0.00  0.02  0.03 -0.05  0.00
R12_S22     -84750.0   42250.0 10.0  4000  4072 silicon CCD frame   3.0  100.0  Group0     0.011344   0.000000   0.000000   0.001450  -0.032979   0.000000 zern     -4.57 -0.09 -0.18  0.02 -0.03  0.01  0.00  0.08 -0.06 -0.02  0.03 -0.02 -0.03  0.05  0.07 -0.02  0.03 -0.01 -0.01 -0.03  0.04  0.00
R13_S00    -169250.0   84750.0 10.0  4000  4072 silicon CCD frame   3.0  100.0  Group0    -0.015413   0.000000   0.000000  -0.095595  -0.033256   0.000000 zern     -0.71  0.11 -0.18  0.01 -0.06 -0.03 -0.06  0.04  0.02  0.04  0.03  0.00 -0.02 -0.05  0.00 -0.01  0.02 -0.01 -0.01 -0.01  0.03  0.00
R13_S01    -169250.0  127000.0 10.0  4000  4072 silicon CCD frame   3.0  100.0  Group0    -0.006360   0.000000   0.000000  -0.043396  -0.041985   0.000000 zern      0.12 -0.04  0.04  0.00  0.08 -0.02 -0.02 -0.00  0.11 -0.09 -0.06 -0.01  0.00  0.04  0.06  0.00  0.01  0.02 -0.02 -0.00  0.02  0.00
R13_S02    -169250.0  169250.0 10.0  4000  4072 silicon CCD frame   3.0  100.0  Group0    -0.020225   0.000000   0.000000  -0.012939  -0.017319   0.000000 zern      4.84 -0.27  0.40 -0.01  0.01 -0.03  0.10 -0.09  0.04 -0.05 -0.00  0.01 -0.00  0.09 -0.05  0.01 -0.03  0.00  0.01  0.02 -0.05  0.00
R13_S10    -127000.0   84750.0 10.0  4000  4072 silicon CCD frame   3.0  100.0  Group0    -0.018564   0.000000   0.000000  -0.100465   0.044974   0.000000 zern     -3.71 -0.10 -0.03  0.00  0.08 -0.01  0.02 -0.00 -0.04  0.03  0.05  0.02  0.03  0.03  0.02 -0.01  0.02 -0.00  0.01 -0.02  0.02  0.00
R13_S11    -127000.0  127000.0 10.0  4000  4072 silicon CCD frame   3.0  100.0  Group0    -0.008480   0.000000   0.000000  -0.051354   0.002875   0.000000 zern      2.26 -0.08  0.15 -0.02  0.04 -0.03 -0.01 -0.10 -0.01 -0.06  0.03  0.05  0.01  0.02 -0.01  0.01 -0.01  0.01 -0.01  0.01 -0.02  0.00
R13_S12    -127000.0  169250.0 10.0  4000  4072 silicon CCD frame   3.0  100.0  Group0    -0.004354   0.000000   0.000000  -0.084229  -0.014313   0.000000 zern      5.37 -0.45 -0.11  0.05 -0.08  0.08  0.09 -0.00 -0.01  0.01  0.01 -0.04  0.05 -0.12 -0.04  0.04 -0.01  0.01  0.00  0.06 -0.01  0.00
R13_S20     -84750.0   84750.0 10.0  4000  4072 silicon CCD frame   3.0  100.0  Group0    -0.005329   0.000000   0.000000  -0.043419   0.010047   0.000000 zern      1.89  0.15 -0.32  0.02  0.04 -0.00  0.01  0.10 -0.06  0.08  0.01  0.01  0.00  0.09  0.05 -0.02  0.03 -0.02  0.01 -0.02  0.04  0.00
R13_S21     -84750.0  127000.0 10.0  4000  4072 silicon CCD frame   3.0  100.0  Group0    -0.000287   0.000000   0.000000  -0.005654   0.037964   0.000000 zern     -2.03 -0.01 -0.09  0.04 -0.09  0.00 -0.00  0.07 -0.04 -0.10 -0.03 -0.01 -0.02  0.03 -0.04  0.02  0.01 -0.00 -0.01  0.03  0.01  0.00
R13_S22     -84750.0  169250.0 10.0  4000  4072 silicon CCD frame   3.0  100.0  Group0     0.002521   0.000000   0.000000  -0.064384  -0.019775   0.000000 zern      2.03 -0.17 -0.27  0.04 -0.05 -0.02  0.10  0.10 -0.01  0.00 -0.03  0.02  0.01 -0.01 -0.03  0.03  0.04  0.00 -0.01  0.04  0.05  0.00
R14_S00    -169250.0  211750.0 10.0  4000  4072 silicon CCD frame   3.0  100.0  Group0     0.009969   0.000000   0.000000   0.038574   0.002762   0.000000 zern    -11.20  0.08 -0.17  0.01 -0.07  0.03 -0.04  0.06 -0.04 -0.07  0.02 -0.03  0.00  0.00  0.01  0.01  0.02  0.01 -0.01  0.01  0.02  0.00
R14_S01    -169250.0  254000.0 10.0  4000  4072 silicon CCD frame   3.0  100.0  Group0     0.022632   0.000000   0.000000   0.026277   0.003076   0.000000 zern     -3.81  0.09  0.07 -0.02 -0.06  0.01  0.00 -0.00 -0.03 -0.01  0.03 -0.01 -0.03  0.03 -0.01  0.01  0.02  0.00  0.00  0.01  0.03  0.00
R14_S02    -169250.0  296250.0 10.0  4000  4072 silicon CCD frame   3.0  100.0  Group0     0.006016   0.000000   0.000000  -0.012192   0.030150   0.000000 zern     -7.54  0.13 -0.15 -0.00 -0.04 -0.07 -0.05  0.06  0.00 -0.02  0.03 -0.05 -0.04  0.04  0.03 -0.01  0.02 -0.02  0.00 -0.00  0.03  0.00
R14_S10    -127000.0  211750.0 10.0  4000  4072 silicon CCD frame   3.0  100.0  Group0     0.022861   0.000000   0.000000  -0.057588  -0.027329   0.000000 zern    -12.20  0.00  0.32 -0.02 -0.04 -0.06 -0.00 -0.09 -0.07  0.04 -0.01  0.00 -0.04 -0.03  0.01  0.01 -0.03 -0.01  0.01  0.01 -0.04  0.00
R14_S11    -127000.0  254000.0 10.0  4000  4072 silicon CCD frame   3.0  100.0  Group0    -0.000115   0.000000   0.000000  -0.015440   0.041213   0.000000 zern     -4.36  0.11  0.15 -0.02 -0.00  0.01 -0.06 -0.03 -0.01 -0.05 -0.05  0.02 -0.03  0.02 -0.00 -0.00  0.00 -0.00 -0.01 -0.00 -0.01  0.00
R14_S12    -127000.0  296250.0 10.0  4000  4072 silicon CCD frame   3.0  100.0  Group0     0.006016   0.000000   0.000000  -0.015488   0.031922   0.000000 zern     -8.14 -0.08 -0.11  0.01 -0.04 -0.03  0.01  0.03  0.01 -0.07 -0.00 -0.01 -0.05  0.02  0.06 -0.01  0.02 -0.01 -0.00 -0.01  0.02  0.00
R14_S20     -84750.0  211750.0 10.0  4000  4072 silicon CCD frame   3.0  100.0  Group0     0.024236   0.000000   0.000000  -0.050004   0.007812   0.000000 zern     -8.45 -0.17 -0.09  0.03  0.11  0.04  0.10  0.00 -0.07  0.10  0.03  0.04 -0.01 -0.01 -0.01  0.02  0.01 -0.01  0.02  0.04  0.01  0.00
R14_S21     -84750.0  254000.0 10.0  4000  4072 silicon CCD frame   3.0  100.0  Group0     0.020856   0.000000   0.000000  -0.027794   0.008892   0.000000 zern     -6.89 -0.04  0.13 -0.02 -0.01 -0.04  0.00 -0.06  0.04  0.05 -0.02  0.01 -0.01  0.07  0.05  0.00 -0.00  0.00  0.00 -0.00 -0.00  0.00
R14_S22     -84750.0  296250.0 10.0  4000  4072 silicon CCD frame   3.0  100.0  Group0     0.000516   0.000000   0.000000  -0.022445  -0.030730   0.000000 zern     -0.95  0.29  0.14 -0.05 -0.00 -0.01 -0.09 -0.10 -0.02 -0.02 -0.01 -0.01  0.02  0.06 -0.01 -0.04 -0.02 -0.01  0.01 -0.06 -0.02  0.00
R20_S00     -42250.0 -296250.0 10.0  4000  4072 silicon CCD frame   3.0  100.0  Group0     0.010256   0.000000   0.000000   0.069809   0.014221   0.000000 zern      3.61  0.11 -0.48  0.08  0.06  0.05  0.00  0.09  0.02  0.06  0.01  0.03  0.03 -0.08 -0.01 -0.02  0.02  0.00  0.01 -0.02  0.04  0.00
R20_S01     -42250.0 -254000.0 10.0  4000  4072 silicon CCD frame   3.0  100.0  Group0     0.021085   0.000000   0.000000   0.031913  -0.000732   0.000000 zern      4.07  0.05  0.20 -0.03  0.04 -0.14  0.01 -0.08  0.04  0.08 -0.05 -0.01 -0.03 -0.00  0.05 -0.01 -0.03 -0.01  0.03 -0.01 -0.04  0.00
R20_S02     -42250.0 -211750.0 10.0  4000  4072 silicon CCD frame   3.0  100.0  Group0     0.006073   0.000000   0.000000  -0.009189   0.002318   0.000000 zern      5.93  0.26  0.12 -0.03 -0.03 -0.06 -0.10 -0.02 -0.01 -0.02 -0.04  0.00 -0.01  0.05  0.02 -0.02  0.01  0.01 -0.01 -0.03  0.00  0.00
R20_S10          0.0 -296250.0 10.0  4000  4072 silicon CCD frame   3.0  100.0  Group0     0.005844   0.000000   0.000000   0.063765   0.032836   0.000000 zern      2.34  0.19  0.15 -0.04 -0.05  0.06 -0.10 -0.11  0.04 -0.08  0.01 -0.01  0.02  0.00  0.00 -0.02 -0.01  0.02 -0.01 -0.04 -0.02  0.00
R20_S11          0.0 -254000.0 10.0  4000  4072 silicon CCD frame   3.0  100.0  Group0    -0.000115   0.000000   0.000000   0.043454   0.028016   0.000000 zern      0.96 -0.19 -0.11  0.04  0.04  0.05  0.10 -0.01  0.15  0.05 -0.04  0.00  0.06 -0.02  0.04  0.04  0.01  0.03 -0.00  0.04  0.01  0.00
R20_S12          0.0 -211750.0 10.0  4000  4072 silicon CCD frame   3.0  100.0  Group0     0.011402   0.000000   0.000000   0.048418   0.015746   0.000000 zern      6.49 -0.19 -0.06  0.02  0.01 -0.13  0.10  0.03  0.07  0.07 -0.03  0.02 -0.04  0.08 -0.03  0.02 -0.01 -0.00  0.01  0.02 -0.01  0.00
R20_S20      42250.0 -296250.0 10.0  4000  4072 silicon CCD frame   3.0  100.0  Group0     0.002808   0.000000   0.000000   0.058373  -0.013549   0.000000 zern     -0.02 -0.10  0.17  0.00 -0.05  0.04 -0.01  0.00 -0.02  0.04 -0.03  0.01  0.04 -0.04  0.02 -0.00 -0.02  0.00 -0.00  0.00 -0.02  0.00
R20_S21      42250.0 -254000.0 10.0  4000  4072 silicon CCD frame   3.0  100.0  Group0     0.013808   0.000000   0.000000   0.045002  -0.031460   0.000000 zern      5.62  0.03  0.51 -0.02 -0.04 -0.02 -0.00 -0.13 -0.04 -0.11 -0.05  0.01  0.02 -0.01 -0.03 -0.01 -0.02 -0.02 -0.03  0.00 -0.04  0.00
R20_S22      42250.0 -211750.0 10.0  4000  4072 silicon CCD frame   3.0  100.0  Group0    -0.001089   0.000000   0.000000   0.060108   0.027252   0.000000 zern      9.87  0.07  0.01 -0.01  0.04 -0.03  0.00  0.01 -0.04  0.03 -0.01  0.03 -0.00  0.08  0.01  0.00 -0.01 -0.00 -0.00  0.00 -0.01  0.00
R21_S00     -42250.0 -169250.0 10.0  4000  4072 silicon CCD frame   3.0  100.0  Group0     0.010600   0.000000   0.000000   0.025231   0.018371   0.000000 zern      8.22 -0.40  0.17 -0.00 -0.03  0.01  0.10 -0.05 -0.07  0.06 -0.01 -0.01 -0.03  0.05 -0.03  0.01 -0.03 -0.01  0.01  0.02 -0.04  0.00
R21_S01     -42250.0 -127000.0 10.0  4000  4072 silicon CCD frame   3.0  100.0  Group0     0.003667   0.000000   0.000000  -0.060589   0.001312   0.000000 zern      6.65 -0.22 -0.27  0.09 -0.04  0.04  0.10  0.09  0.05  0.02 -0.02 -0.03  0.03 -0.06 -0.01  0.04  0.03  0.01 -0.01  0.05  0.05  0.00
R21_S02     -42250.0  -84750.0 10.0  4000  4072 silicon CCD frame   3.0  100.0  Group0     0.015756   0.000000   0.000000  -0.023713  -0.006477   0.000000 zern      7.27  0.12 -0.08  0.02 -0.04 -0.06 -0.02 -0.00  0.03 -0.09 -0.05 -0.01  0.00  0.08  0.03 -0.00 -0.00  0.00 -0.01 -0.00 -0.01  0.00
R21_S10          0.0 -169250.0 10.0  4000  4072 silicon CCD frame   3.0  100.0  Group0    -0.005558   0.000000   0.000000  -0.029695  -0.024490   0.000000 zern      5.28 -0.53  0.12  0.05 -0.04  0.17  0.12 -0.02 -0.02 -0.12 -0.04 -0.03  0.05  0.09 -0.06  0.02  0.00 -0.02 -0.03  0.04 -0.01  0.00
R21_S11          0.0 -127000.0 10.0  4000  4072 silicon CCD frame   3.0  100.0  Group0    -0.000859   0.000000   0.000000  -0.066851   0.035735   0.000000 zern      3.35  0.10  0.16 -0.02  0.04  0.02 -0.04 -0.04 -0.02  0.01  0.03  0.00 -0.03 -0.09 -0.01 -0.01 -0.03 -0.01  0.01 -0.01 -0.03  0.00
R21_S12          0.0  -84750.0 10.0  4000  4072 silicon CCD frame   3.0  100.0  Group0    -0.000057   0.000000   0.000000  -0.051981   0.052392   0.000000 zern     10.00 -0.17 -0.07  0.02 -0.02  0.07  0.05  0.02  0.03 -0.02  0.01  0.03  0.04  0.02  0.05  0.01 -0.00 -0.01  0.01  0.02 -0.00  0.00
R21_S20      42250.0 -169250.0 10.0  4000  4072 silicon CCD frame   3.0  100.0  Group0     0.002120   0.000000   0.000000  -0.035228  -0.031021   0.000000 zern     -0.23 -0.06 -0.04  0.04  0.03  0.00  0.00 -0.00  0.02 -0.02 -0.02 -0.01 -0.02  0.05 -0.04  0.01  0.02  0.00 -0.00  0.02  0.03  0.00
R21_S21      42250.0 -127000.0 10.0  4000  4072 silicon CCD frame   3.0  100.0  Group0    -0.000344   0.000000   0.000000  -0.011997  -0.014137   0.000000 zern      2.05  0.08 -0.18  0.01 -0.02  0.08 -0.07  0.07 -0.02 -0.10  0.01 -0.00  0.06 -0.06  0.04  0.00  0.02  0.00 -0.01  0.01  0.02  0.00
R21_S22      42250.0  -84750.0 10.0  4000  4072 silicon CCD frame   3.0  100.0  Group0     0.019309   0.000000   0.000000  -0.042767   0.040886   0.000000 zern      0.44 -0.19  0.15 -0.01  0.03  0.01  0.10 -0.10  0.01 -0.06  0.01  0.04  0.02  0.02 -0.07  0.01 -0.02  0.01  0.00  0.02 -0.03  0.00
R22_S00     -42250.0  -42250.0 10.0  4000  4072 silicon CCD frame   3.0  100.0  Group0    -0.001891   0.000000   0.000000  -0.062328   0.032688   0.000000 zern      4.08  0.29  0.11 -0.05 -0.01  0.02 -0.10 -0.02  0.04 -0.01  0.02  0.01  0.00  0.03  0.01 -0.02 -0.01  0.00  0.00 -0.03 -0.01  0.00
R22_S01     -42250.0       0.0 10.0  4000  4072 silicon CCD frame   3.0  100.0  Group0     0.003552   0.000000   0.000000  -0.035370   0.006168   0.000000 zern      1.32 -0.16 -0.06  0.01 -0.01  0.00  0.06  0.01 -0.02  0.10  0.02  0.02 -0.02  0.02  0.02  0.02 -0.02 -0.01  0.02  0.04 -0.02  0.00
R22_S02     -42250.0   42250.0 10.0  4000  4072 silicon CCD frame   3.0  100.0  Group0    -0.012032   0.000000   0.000000   0.010300  -0.042164   0.000000 zern      0.94 -0.08  0.15 -0.01  0.05 -0.06  0.09 -0.02  0.00 -0.02 -0.03  0.01 -0.02  0.03 -0.05  0.00 -0.01  0.00  0.01  0.00 -0.01  0.00
R22_S10          0.0  -42250.0 10.0  4000  4072 silicon CCD frame   3.0  100.0  Group0    -0.017074   0.000000   0.000000  -0.058174  -0.042794   0.000000 zern      1.65  0.14 -0.28 -0.00  0.00  0.03 -0.04  0.10 -0.02 -0.04  0.02  0.04  0.03  0.04  0.03 -0.02  0.02 -0.02  0.01 -0.03  0.04  0.00
R22_S11          0.0       0.0 10.0  4000  4072 silicon CCD frame   3.0  100.0  Group0     0.005672   0.000000   0.000000  -0.047120   0.028991   0.000000 zern      0.85  0.12  0.13 -0.03  0.05  0.02 -0.06 -0.04  0.05 -0.01 -0.04 -0.01  0.01 -0.00  0.03 -0.01 -0.01  0.02 -0.01 -0.02 -0.02  0.00
R22_S12          0.0   42250.0 10.0  4000  4072 silicon CCD frame   3.0  100.0  Group0    -0.000000   0.000000   0.000000   0.007855  -0.021583   0.000000 zern     -0.01 -0.08  0.06 -0.01  0.03  0.05  0.00  0.00  0.04  0.06 -0.00 -0.01  0.03  0.15  0.01 -0.01 -0.02 -0.01  0.02 -0.01 -0.02  0.00
R22_S20      42250.0  -42250.0 10.0  4000  4072 silicon CCD frame   3.0  100.0  Group0     0.010084   0.000000   0.000000  -0.015728  -0.030259   0.000000 zern      1.80  0.17  0.19 -0.03 -0.02  0.00 -0.10 -0.06 -0.04 -0.01 -0.04 -0.02  0.02  0.06  0.03 -0.02 -0.03 -0.00 -0.00 -0.03 -0.04  0.00
R22_S21      42250.0       0.0 10.0  4000  4072 silicon CCD frame   3.0  100.0  Group0     0.001833   0.000000   0.000000  -0.064106   0.038390   0.000000 zern      1.84  0.03 -0.27  0.02  0.01  0.06  0.00  0.10 -0.00 -0.08 -0.01  0.02  0.03  0.07 -0.02 -0.01  0.03 -0.00  0.00 -0.02  0.05  0.00
R22_S22      42250.0   42250.0 10.0  4000  4072 silicon CCD frame   3.0  100.0  Group0    -0.014439   0.000000   0.000000  -0.007160  -0.015000   0.000000 zern      3.05 -0.19  0.19 -0.01  0.06 -0.01  0.06 -0.07  0.03  0.05  0.03  0.06 -0.00 -0.01 -0.00  0.03 -0.04 -0.01  0.01  0.05 -0.05  0.00
R23_S00     -42250.0   84750.0 10.0  4000  4072 silicon CCD frame   3.0  100.0  Group0     0.018507   0.000000   0.000000  -0.022995  -0.007941   0.000000 zern      8.93 -0.32 -0.11  0.03 -0.08 -0.01  0.11  0.00 -0.07 -0.02 -0.01 -0.03 -0.02  0.08  0.00  0.02  0.01 -0.01  0.01  0.03  0.01  0.00
R23_S01     -42250.0  127000.0 10.0  4000  4072 silicon CCD frame   3.0  100.0  Group0     0.010485   0.000000   0.000000  -0.022808  -0.032646   0.000000 zern     10.04 -0.22  0.16 -0.01  0.01  0.02  0.10 -0.02 -0.00  0.04 -0.02  0.02  0.03  0.11  0.01  0.01 -0.02 -0.01  0.01  0.02 -0.03  0.00
R23_S02     -42250.0  169250.0 10.0  4000  4072 silicon CCD frame   3.0  100.0  Group0     0.006933   0.000000   0.000000  -0.014248  -0.047547   0.000000 zern     13.91 -0.07 -0.08  0.02 -0.03  0.05 -0.01  0.00  0.06 -0.07  0.01  0.02  0.04 -0.05 -0.01  0.01 -0.01  0.01 -0.01  0.02 -0.02  0.00
R23_S10          0.0   84750.0 10.0  4000  4072 silicon CCD frame   3.0  100.0  Group0     0.020111   0.000000   0.000000   0.043318   0.013549   0.000000 zern     -0.14 -0.25  0.27  0.01  0.01  0.04  0.08 -0.10  0.06 -0.04  0.02  0.00  0.01 -0.01 -0.06  0.03 -0.01  0.01 -0.03  0.04 -0.03  0.00
R23_S11          0.0  127000.0 10.0  4000  4072 silicon CCD frame   3.0  100.0  Group0     0.017418   0.000000   0.000000  -0.057453   0.029899   0.000000 zern      4.32  0.06  0.08 -0.02  0.03  0.02  0.00  0.00  0.01 -0.08 -0.01  0.01 -0.02  0.06  0.03  0.02  0.01  0.00 -0.00  0.02  0.01  0.00
R23_S12          0.0  169250.0 10.0  4000  4072 silicon CCD frame   3.0  100.0  Group0     0.020111   0.000000   0.000000  -0.044361  -0.055969   0.000000 zern      7.62 -0.20 -0.20  0.03  0.06  0.03  0.05  0.08 -0.02 -0.10  0.05  0.01  0.03  0.02 -0.02  0.03  0.04  0.01 -0.02  0.04  0.04  0.00
R23_S20      42250.0   84750.0 10.0  4000  4072 silicon CCD frame   3.0  100.0  Group0     0.009225   0.000000   0.000000  -0.038665   0.013123   0.000000 zern     -4.56  0.14  0.29 -0.04 -0.04 -0.04 -0.06 -0.10  0.00 -0.05  0.00  0.03  0.03 -0.05  0.06 -0.03 -0.01 -0.01 -0.00 -0.03 -0.02  0.00
R23_S21      42250.0  127000.0 10.0  4000  4072 silicon CCD frame   3.0  100.0  Group0     0.017361   0.000000   0.000000   0.009548  -0.022636   0.000000 zern     -5.79 -0.12 -0.07 -0.00 -0.01  0.02  0.04 -0.00  0.04  0.02  0.02 -0.02  0.01  0.08 -0.03  0.01  0.01 -0.01  0.01  0.02  0.02  0.00
R23_S22      42250.0  169250.0 10.0  4000  4072 silicon CCD frame   3.0  100.0  Group0    -0.000802   0.000000   0.000000  -0.021980  -0.042847   0.000000 zern     -0.67 -0.50  0.15  0.02  0.00  0.05  0.09 -0.08 -0.06 -0.04  0.05  0.01  0.03 -0.05 -0.09  0.03 -0.03 -0.01  0.00  0.05 -0.04  0.00
R24_S00     -42250.0  211750.0 10.0  4000  4072 silicon CCD frame   3.0  100.0  Group0    -0.021830   0.000000   0.000000   0.084194   0.018997   0.000000 zern     -0.55  0.10  0.20 -0.02  0.11 -0.09 -0.04 -0.07  0.07 -0.01 -0.01  0.04 -0.03 -0.03 -0.02  0.00 -0.03  0.00  0.01  0.00 -0.04  0.00
R24_S01     -42250.0  254000.0 10.0  4000  4072 silicon CCD frame   3.0  100.0  Group0    -0.000115   0.000000   0.000000   0.048996  -0.003068   0.000000 zern     -8.54 -0.00  0.08 -0.00  0.03  0.05  0.00  0.00  0.09 -0.04  0.00 -0.00 -0.00  0.02  0.03  0.01  0.01  0.00 -0.00  0.02  0.02  0.00
R24_S02     -42250.0  296250.0 10.0  4000  4072 silicon CCD frame   3.0  100.0  Group0     0.002979   0.000000   0.000000   0.042149   0.041596   0.000000 zern      0.35  0.26 -0.23  0.00 -0.03  0.04 -0.10  0.09  0.05  0.03  0.02 -0.03  0.04  0.01  0.05 -0.01  0.01  0.01 -0.00 -0.02  0.02  0.00
R24_S10          0.0  211750.0 10.0  4000  4072 silicon CCD frame   3.0  100.0  Group0     0.001203   0.000000   0.000000   0.067249   0.017793   0.000000 zern     -3.02  0.13  0.10  0.01 -0.00 -0.06  0.01 -0.00  0.10 -0.00 -0.04 -0.01 -0.03 -0.04 -0.04  0.00 -0.00  0.01  0.01 -0.00 -0.00  0.00
R24_S11          0.0  254000.0 10.0  4000  4072 silicon CCD frame   3.0  100.0  Group0    -0.002636   0.000000   0.000000   0.067594  -0.034043   0.000000 zern     -1.65  0.19  0.17 -0.02 -0.06 -0.04 -0.10 -0.06  0.03 -0.06 -0.05 -0.00 -0.02  0.04  0.04 -0.03 -0.02  0.00 -0.00 -0.04 -0.02  0.00
R24_S12          0.0  296250.0 10.0  4000  4072 silicon CCD frame   3.0  100.0  Group0     0.005157   0.000000   0.000000   0.070535   0.009920   0.000000 zern      3.18 -0.18  0.16 -0.00  0.08 -0.04  0.06 -0.01 -0.01 -0.05  0.01  0.02 -0.05  0.00 -0.03  0.03 -0.02  0.00  0.01  0.05 -0.03  0.00
R24_S20      42250.0  211750.0 10.0  4000  4072 silicon CCD frame   3.0  100.0  Group0    -0.019194   0.000000   0.000000   0.020882  -0.018432   0.000000 zern     -0.24  0.13 -0.19 -0.00 -0.03  0.08 -0.08  0.10 -0.01 -0.08  0.03 -0.02  0.05  0.04 -0.02 -0.02  0.03 -0.01 -0.01 -0.03  0.04  0.00
R24_S21      42250.0  254000.0 10.0  4000  4072 silicon CCD frame   3.0  100.0  Group0     0.007105   0.000000   0.000000  -0.002953   0.006667   0.000000 zern      4.00  0.36  0.04 -0.02  0.08 -0.13 -0.10  0.01 -0.02  0.08 -0.01  0.03 -0.04 -0.06  0.04 -0.04 -0.01 -0.00  0.00 -0.06 -0.00  0.00
R24_S22      42250.0  296250.0 10.0  4000  4072 silicon CCD frame   3.0  100.0  Group0    -0.014610   0.000000   0.000000   0.073386  -0.056428   0.000000 zern      1.74  0.08 -0.16  0.01 -0.05  0.07 -0.00  0.06 -0.05 -0.02  0.02 -0.01  0.01  0.01  0.03  0.02  0.02 -0.01 -0.00  0.03  0.02  0.00
R30_S00      84750.0 -296250.0 10.0  4000  4072 silicon CCD frame   3.0  100.0  Group0     0.013464   0.000000   0.000000   0.019187   0.018125   0.000000 zern    -12.18 -0.12 -0.14  0.03 -0.01  0.01  0.06 -0.00  0.04 -0.00  0.02 -0.00 -0.04 -0.01 -0.00  0.01  0.01  0.00  0.01  0.01  0.02  0.00
R30_S01      84750.0 -254000.0 10.0  4000  4072 silicon CCD frame   3.0  100.0  Group0     0.009053   0.000000   0.000000   0.052627   0.015460   0.000000 zern     -2.59  0.12 -0.10  0.00  0.06  0.03  0.00 -0.01  0.06 -0.07 -0.03 -0.02  0.04  0.03 -0.02 -0.02  0.01  0.00 -0.00 -0.02  0.01  0.00
R30_S02      84750.0 -211750.0 10.0  4000  4072 silicon CCD frame   3.0  100.0  Group0    -0.004354   0.000000   0.000000   0.000924   0.046387   0.000000 zern     -4.95  0.15  0.18 -0.03 -0.08 -0.04 -0.06 -0.06 -0.11 -0.03  0.00  0.01 -0.04 -0.08  0.05 -0.03 -0.02 -0.02  0.01 -0.03 -0.03  0.00
R30_S10     127000.0 -296250.0 10.0  4000  4072 silicon CCD frame   3.0  100.0  Group0     0.012490   0.000000   0.000000  -0.016624  -0.041412   0.000000 zern    -12.52 -0.03  0.10  0.02  0.04  0.01 -0.00 -0.04  0.03  0.03  0.01  0.03 -0.02 -0.04 -0.04  0.01  0.01 -0.00 -0.00  0.02  0.01  0.00
R30_S11     127000.0 -254000.0 10.0  4000  4072 silicon CCD frame   3.0  100.0  Group0    -0.000229   0.000000   0.000000   0.030727   0.010941   0.000000 zern     -0.43  0.11 -0.18  0.01 -0.05  0.10 -0.04 -0.01  0.01 -0.02  0.04 -0.00  0.02 -0.06 -0.01 -0.00  0.02  0.00 -0.01 -0.00  0.02  0.00
R30_S12     127000.0 -211750.0 10.0  4000  4072 silicon CCD frame   3.0  100.0  Group0     0.007735   0.000000   0.000000   0.005983  -0.009827   0.000000 zern     -9.12 -0.12  0.30 -0.03  0.05  0.03  0.01 -0.10 -0.01 -0.02  0.00  0.02  0.00 -0.03  0.02  0.00 -0.04  0.00  0.01  0.01 -0.06  0.00
R30_S20     169250.0 -296250.0 10.0  4000  4072 silicon CCD frame   3.0  100.0  Group0    -0.000458   0.000000   0.000000  -0.016890   0.017092   0.000000 zern     -5.60 -0.15 -0.13  0.04  0.02  0.06  0.05  0.06  0.03 -0.05 -0.01  0.01  0.05  0.02 -0.07  0.03  0.01  0.01 -0.01  0.03  0.00  0.00
R30_S21     169250.0 -254000.0 10.0  4000  4072 silicon CCD frame   3.0  100.0  Group0     0.017819   0.000000   0.000000   0.042556   0.025788   0.000000 zern     -8.99  0.06  0.35 -0.04  0.05  0.03 -0.05 -0.10 -0.03 -0.01  0.02  0.01  0.03 -0.08 -0.07  0.01 -0.04  0.00 -0.02  0.01 -0.07  0.00
R30_S22     169250.0 -211750.0 10.0  4000  4072 silicon CCD frame   3.0  100.0  Group0     0.021142   0.000000   0.000000   0.041078  -0.007035   0.000000 zern     -2.54  0.32  0.01 -0.03  0.00  0.02 -0.10 -0.00  0.03  0.03  0.01 -0.03  0.00  0.08 -0.01 -0.02  0.00 -0.00 -0.00 -0.03  0.00  0.00
R31_S00      84750.0 -169250.0 10.0  4000  4072 silicon CCD frame   3.0  100.0  Group0    -0.028533   0.000000   0.000000  -0.024430   0.057755   0.000000 zern      2.39 -0.21  0.08  0.02  0.01  0.11  0.09 -0.00  0.06 -0.10 -0.00  0.04  0.04 -0.00 -0.01  0.02  0.02  0.01 -0.01  0.02  0.02  0.00
R31_S01      84750.0 -127000.0 10.0  4000  4072 silicon CCD frame   3.0  100.0  Group0    -0.004469   0.000000   0.000000  -0.007355   0.050203   0.000000 zern     -2.16 -0.14  0.15  0.00  0.10  0.01  0.06 -0.04 -0.04  0.07 -0.00  0.05  0.00 -0.01  0.02  0.01 -0.02  0.00  0.00  0.01 -0.03  0.00
R31_S02      84750.0  -84750.0 10.0  4000  4072 silicon CCD frame   3.0  100.0  Group0    -0.015928   0.000000   0.000000  -0.010246  -0.028793   0.000000 zern      0.44 -0.00  0.12 -0.02  0.03  0.11 -0.03 -0.08  0.03 -0.01  0.02 -0.01  0.03 -0.08  0.05  0.01 -0.01  0.01 -0.01  0.01 -0.01  0.00
R31_S10     127000.0 -169250.0 10.0  4000  4072 silicon CCD frame   3.0  100.0  Group0    -0.025668   0.000000   0.000000   0.038916   0.037690   0.000000 zern      8.26  0.09 -0.09  0.00  0.02 -0.00  0.01 -0.00 -0.07  0.01  0.04 -0.01 -0.03 -0.10  0.03 -0.01 -0.01 -0.00  0.01 -0.01 -0.01  0.00
R31_S11     127000.0 -127000.0 10.0  4000  4072 silicon CCD frame   3.0  100.0  Group0    -0.011803   0.000000   0.000000   0.010520   0.047370   0.000000 zern      2.12  0.35 -0.19 -0.02  0.02 -0.01 -0.10 -0.01  0.05 -0.02  0.01 -0.04  0.02 -0.02  0.06 -0.03  0.01 -0.00 -0.00 -0.04  0.02  0.00
R31_S12     127000.0  -84750.0 10.0  4000  4072 silicon CCD frame   3.0  100.0  Group0    -0.029393   0.000000   0.000000  -0.005426   0.005752   0.000000 zern     -0.39 -0.16 -0.04  0.02  0.07  0.01  0.10  0.00  0.01 -0.01  0.05  0.05  0.03 -0.07 -0.05  0.02 -0.02  0.01  0.01  0.02 -0.02  0.00
R31_S20     169250.0 -169250.0 10.0  4000  4072 silicon CCD frame   3.0  100.0  Group0     0.000057   0.000000   0.000000   0.030360  -0.024612   0.000000 zern      1.74 -0.31 -0.04  0.02  0.01  0.07  0.10  0.00 -0.01  0.08  0.06 -0.02  0.02  0.03  0.05  0.02 -0.01  0.00  0.01  0.03 -0.01  0.00
R31_S21     169250.0 -127000.0 10.0  4000  4072 silicon CCD frame   3.0  100.0  Group0    -0.027101   0.000000   0.000000   0.020386   0.027527   0.000000 zern      3.26  0.17  0.02  0.00  0.06 -0.00  0.00  0.02 -0.07  0.03 -0.04 -0.02  0.02  0.05 -0.00 -0.02 -0.00 -0.00  0.01 -0.03 -0.00  0.00
R31_S22     169250.0  -84750.0 10.0  4000  4072 silicon CCD frame   3.0  100.0  Group0    -0.003094   0.000000   0.000000   0.019226   0.023178   0.000000 zern      1.94 -0.06 -0.29  0.05  0.04  0.04  0.04  0.10  0.05 -0.00 -0.03  0.03  0.01  0.05 -0.03 -0.00  0.02 -0.00 -0.00 -0.01  0.03  0.00
R32_S00      84750.0  -42250.0 10.0  4000  4072 silicon CCD frame   3.0  100.0  Group0     0.002120   0.000000   0.000000  -0.016236   0.004768   0.000000 zern     -0.71 -0.16  0.02  0.02  0.05 -0.04  0.10  0.00 -0.00 -0.03 -0.01  0.04 -0.01  0.04  0.05  0.03  0.01  0.01 -0.00  0.04  0.01  0.00
R32_S01      84750.0       0.0 10.0  4000  4072 silicon CCD frame   3.0  100.0  Group0     0.004927   0.000000   0.000000   0.036568  -0.007028   0.000000 zern      4.83 -0.32  0.19 -0.00  0.01  0.04  0.09 -0.09  0.02  0.01  0.01  0.02  0.03  0.01 -0.09  0.04 -0.03 -0.01  0.00  0.07 -0.04  0.00
R32_S02      84750.0   42250.0 10.0  4000  4072 silicon CCD frame   3.0  100.0  Group0     0.003037   0.000000   0.000000   0.028687  -0.028312   0.000000 zern      7.90  0.36  0.06 -0.05 -0.00 -0.00 -0.10 -0.05  0.05  0.07  0.01  0.00  0.02 -0.13  0.00 -0.01 -0.00  0.01 -0.00 -0.02  0.00  0.00
R32_S10     127000.0  -42250.0 10.0  4000  4072 silicon CCD frame   3.0  100.0  Group0    -0.007735   0.000000   0.000000  -0.032732  -0.017803   0.000000 zern      5.66 -0.17 -0.06  0.03  0.01 -0.05  0.10  0.02  0.01  0.09  0.02 -0.02 -0.01 -0.11  0.02  0.01  0.01  0.00  0.00  0.02  0.02  0.00
R32_S11     127000.0       0.0 10.0  4000  4072 silicon CCD frame   3.0  100.0  Group0     0.003839   0.000000   0.000000  -0.011337  -0.015682   0.000000 zern      3.65 -0.35  0.45  0.00  0.02  0.13  0.08 -0.08  0.08 -0.12 -0.03 -0.01  0.04 -0.07  0.03  0.04 -0.01  0.03 -0.02  0.05 -0.03  0.00
R32_S12     127000.0   42250.0 10.0  4000  4072 silicon CCD frame   3.0  100.0  Group0     0.005271   0.000000   0.000000  -0.040153  -0.004944   0.000000 zern      6.15 -0.28  0.42 -0.00 -0.01  0.06  0.09 -0.10  0.03 -0.11 -0.04 -0.03  0.01 -0.03 -0.07  0.02 -0.03  0.02 -0.01  0.03 -0.06  0.00
R32_S20     169250.0  -42250.0 10.0  4000  4072 silicon CCD frame   3.0  100.0  Group0    -0.000630   0.000000   0.000000  -0.000395  -0.004421   0.000000 zern     -2.10 -0.33  0.29 -0.00  0.03 -0.02  0.09 -0.09 -0.03 -0.05  0.01  0.00  0.01  0.07  0.01  0.03 -0.03 -0.01 -0.01  0.04 -0.05  0.00
R32_S21     169250.0       0.0 10.0  4000  4072 silicon CCD frame   3.0  100.0  Group0     0.006818   0.000000   0.000000  -0.041307   0.030015   0.000000 zern      2.27 -0.02  0.07 -0.01  0.03 -0.12  0.00 -0.06  0.01  0.07  0.06  0.00 -0.03 -0.02  0.06 -0.01  0.00  0.00  0.00 -0.02  0.01  0.00
R32_S22     169250.0   42250.0 10.0  4000  4072 silicon CCD frame   3.0  100.0  Group0    -0.009053   0.000000   0.000000  -0.041853   0.022449   0.000000 zern      3.18  0.20  0.12 -0.03 -0.04  0.08 -0.10  0.00  0.00 -0.10 -0.04 -0.01  0.02 -0.00  0.01 -0.03 -0.00  0.01 -0.02 -0.04 -0.01  0.00
R33_S00      84750.0   84750.0 10.0  4000  4072 silicon CCD frame   3.0  100.0  Group0     0.019710   0.000000   0.000000   0.015060  -0.056023   0.000000 zern     -8.10 -0.13  0.38 -0.02 -0.06 -0.00  0.05 -0.10 -0.02 -0.10 -0.01 -0.04  0.04 -0.02 -0.03  0.01 -0.01 -0.01 -0.02  0.02 -0.03  0.00
R33_S01      84750.0  127000.0 10.0  4000  4072 silicon CCD frame   3.0  100.0  Group0     0.018048   0.000000   0.000000  -0.010368  -0.013603   0.000000 zern    -13.75 -0.03 -0.10  0.03  0.09  0.11 -0.01 -0.01  0.04  0.02  0.01 -0.01  0.04 -0.09 -0.01  0.01 -0.01  0.01 -0.00  0.01 -0.00  0.00
R33_S02      84750.0  169250.0 10.0  4000  4072 silicon CCD frame   3.0  100.0  Group0     0.026528   0.000000   0.000000  -0.003556  -0.038177   0.000000 zern     -9.10 -0.35 -0.15  0.06 -0.04  0.01  0.10  0.10 -0.03  0.05 -0.02 -0.01 -0.01 -0.04 -0.02  0.04  0.03 -0.00 -0.00  0.05  0.05  0.00
R33_S10     127000.0   84750.0 10.0  4000  4072 silicon CCD frame   3.0  100.0  Group0     0.004813   0.000000   0.000000  -0.022262  -0.035813   0.000000 zern     -4.68  0.03  0.48 -0.04 -0.03 -0.02 -0.00 -0.05 -0.09 -0.10  0.01  0.00  0.01  0.00  0.02 -0.02 -0.02 -0.02 -0.01 -0.01 -0.04  0.00
R33_S11     127000.0  127000.0 10.0  4000  4072 silicon CCD frame   3.0  100.0  Group0    -0.000344   0.000000   0.000000  -0.029916   0.038788   0.000000 zern     -5.67 -0.04 -0.56  0.05  0.04  0.06  0.01  0.09  0.09  0.11  0.01  0.01  0.01  0.07  0.05 -0.01  0.04  0.02  0.04 -0.03  0.08  0.00
R33_S12     127000.0  169250.0 10.0  4000  4072 silicon CCD frame   3.0  100.0  Group0     0.024351   0.000000   0.000000   0.024354  -0.045517   0.000000 zern     -4.56  0.51 -0.05 -0.04  0.06 -0.02 -0.09  0.00  0.09 -0.01 -0.01  0.00 -0.02  0.04  0.03 -0.05 -0.01  0.01  0.00 -0.08 -0.01  0.00
R33_S20     169250.0   84750.0 10.0  4000  4072 silicon CCD frame   3.0  100.0  Group0     0.003724   0.000000   0.000000   0.059050   0.027635   0.000000 zern     -4.45 -0.18 -0.08  0.04  0.07 -0.02  0.10  0.01  0.04  0.07 -0.03  0.02 -0.02  0.10 -0.06  0.04 -0.00  0.00  0.02  0.06  0.00  0.00
R33_S21     169250.0  127000.0 10.0  4000  4072 silicon CCD frame   3.0  100.0  Group0     0.016902   0.000000   0.000000  -0.003220   0.000733   0.000000 zern     -6.09  0.03 -0.40  0.05  0.02  0.09 -0.00  0.08  0.09  0.04  0.00 -0.00  0.06 -0.08 -0.02  0.00  0.04  0.02 -0.01 -0.00  0.06  0.00
R33_S22     169250.0  169250.0 10.0  4000  4072 silicon CCD frame   3.0  100.0  Group0     0.000115   0.000000   0.000000  -0.002157   0.045273   0.000000 zern    -10.51  0.15 -0.21  0.01 -0.07  0.04 -0.04  0.09 -0.02 -0.06  0.02 -0.05 -0.00 -0.07  0.00 -0.01  0.04 -0.00 -0.01 -0.02  0.06  0.00
R34_S00      84750.0  211750.0 10.0  4000  4072 silicon CCD frame   3.0  100.0  Group0    -0.003209   0.000000   0.000000  -0.051911  -0.042480   0.000000 zern     -2.41 -0.01  0.12 -0.02  0.12  0.03  0.00 -0.04 -0.01  0.02  0.04  0.02 -0.00  0.02 -0.03  0.00 -0.02 -0.00  0.02  0.00 -0.02  0.00
R34_S01      84750.0  254000.0 10.0  4000  4072 silicon CCD frame   3.0  100.0  Group0     0.004469   0.000000   0.000000  -0.072708   0.043595   0.000000 zern     -3.62 -0.12  0.35 -0.02 -0.05 -0.05  0.02 -0.10 -0.03 -0.04 -0.01  0.00 -0.02  0.06  0.04  0.00 -0.04 -0.00  0.00  0.00 -0.06  0.00
R34_S02      84750.0  296250.0 10.0  4000  4072 silicon CCD frame   3.0  100.0  Group0     0.006073   0.000000   0.000000  -0.053292   0.019531   0.000000 zern      3.33 -0.00  0.12 -0.02 -0.08  0.06 -0.00 -0.02  0.07 -0.07  0.01  0.00  0.04  0.04 -0.02 -0.01 -0.02  0.00 -0.01 -0.01 -0.03  0.00
R34_S10     127000.0  211750.0 10.0  4000  4072 silicon CCD frame   3.0  100.0  Group0    -0.007506   0.000000   0.000000   0.015340  -0.000611   0.000000 zern     -3.40 -0.34  0.23 -0.00  0.01 -0.03  0.09 -0.10 -0.04 -0.01  0.02 -0.02  0.02  0.09 -0.07  0.02 -0.03 -0.00  0.00  0.03 -0.04  0.00
R34_S11     127000.0  254000.0 10.0  4000  4072 silicon CCD frame   3.0  100.0  Group0    -0.006646   0.000000   0.000000  -0.028763  -0.034613   0.000000 zern     -5.07  0.19  0.14 -0.02  0.09 -0.07 -0.06 -0.08  0.04 -0.08 -0.04  0.01 -0.01  0.01  0.07 -0.03 -0.00  0.01 -0.01 -0.05 -0.01  0.00
R34_S12     127000.0  296250.0 10.0  4000  4072 silicon CCD frame   3.0  100.0  Group0     0.019882   0.000000   0.000000  -0.040512   0.032623   0.000000 zern     -7.14  0.10 -0.27  0.02 -0.04  0.00 -0.02  0.10 -0.13 -0.03  0.03 -0.00 -0.01 -0.07  0.04  0.00  0.03 -0.02  0.01  0.01  0.05  0.00
R34_S20     169250.0  211750.0 10.0  4000  4072 silicon CCD frame   3.0  100.0  Group0     0.019538   0.000000   0.000000   0.004989  -0.017823   0.000000 zern     -1.43 -0.13 -0.13  0.04  0.10  0.02  0.06  0.02 -0.01 -0.06 -0.04  0.02  0.03  0.09  0.01  0.02  0.02  0.01 -0.01  0.03  0.02  0.00
R34_S21     169250.0  254000.0 10.0  4000  4072 silicon CCD frame   3.0  100.0  Group0     0.017590   0.000000   0.000000  -0.050523  -0.003176   0.000000 zern     -7.70 -0.08  0.12 -0.01 -0.00 -0.01  0.05 -0.02 -0.04  0.14  0.01  0.01 -0.03  0.09  0.02 -0.01 -0.01 -0.02  0.03 -0.01 -0.00  0.00
R34_S22     169250.0  296250.0 10.0  4000  4072 silicon CCD frame   3.0  100.0  Group0     0.015756   0.000000   0.000000  -0.015791   0.025543   0.000000 zern     -7.53 -0.10 -0.21  0.02 -0.02  0.11  0.00  0.10 -0.06 -0.03  0.03 -0.05  0.02  0.06  0.02 -0.00  0.01 -0.01  0.01 -0.00  0.02  0.00
R40_S01     211750.0 -254000.0 10.0  4000  4072 silicon CMOS  frame  0.1  100.0  Group2    90.012665   0.000000   0.000000   0.064347   0.002061   0.000000 zern      7.63  0.36 -0.16 -0.00  0.02 -0.07 -0.08  0.08  0.05 -0.02 -0.06 -0.03 -0.06  0.07 -0.02 -0.02  0.02 -0.00 -0.01 -0.03  0.03  0.00
R40_S02_C0  211750.0 -211750.0 10.0  2000  4072 silicon CCD frame   3.0  100.0  Group1    89.992668   0.000000   0.000000  -0.021283 -10.033578   0.000000 zern   1004.00 -0.07 -0.13  0.01  0.10  0.01 -0.00  0.02 -0.05 -0.02  0.03  0.02  0.00  0.03  0.03 -0.01  0.00 -0.02 -0.00 -0.05  0.01  0.00
R40_S02_C1  211750.0 -211750.0 10.0  2000  4072 silicon CCD frame   3.0  100.0  Group1    90.004585   0.000000   0.000000  -0.047049   9.929946   0.000000 zern   -997.28 -0.07 -0.11  0.02  0.01  0.06 -0.00  0.04 -0.07  0.01  0.01  0.00  0.02 -0.03  0.03 -0.01  0.00 -0.02 -0.00 -0.03  0.01  0.00
R40_S12     254000.0 -211750.0 10.0  4000  4072 silicon CMOS  frame  0.1  100.0  Group2    90.009102   0.000000   0.000000  -0.019259  -0.022447   0.000000 zern      2.73 -0.18 -0.15  0.01  0.08  0.06  0.05  0.00 -0.04 -0.00  0.02  0.02  0.05  0.01  0.02  0.01  0.01 -0.00 -0.01  0.02  0.01  0.00
R41_S00     211750.0 -169250.0 10.0  4000  4072 silicon CCD frame   3.0  100.0  Group0     0.021944   0.000000   0.000000   0.048766   0.026276   0.000000 zern     -2.02 -0.17  0.14 -0.00  0.04 -0.05  0.04 -0.04  0.03  0.03 -0.01  0.04 -0.02  0.10 -0.00  0.02 -0.00  0.00  0.00  0.03 -0.00  0.00
R41_S01     211750.0 -127000.0 10.0  4000  4072 silicon CCD frame   3.0  100.0  Group0     0.021314   0.000000   0.000000   0.009996  -0.041734   0.000000 zern     -2.97 -0.14  0.04  0.02  0.05  0.06  0.05  0.00 -0.03  0.02 -0.01  0.03  0.04 -0.06 -0.01  0.02 -0.00  0.01 -0.00  0.03 -0.01  0.00
R41_S02     211750.0  -84750.0 10.0  4000  4072 silicon CCD frame   3.0  100.0  Group0    -0.007678   0.000000   0.000000   0.063550  -0.013894   0.000000 zern     -0.36 -0.13 -0.05  0.02  0.06  0.05  0.02  0.02  0.02  0.00  0.01  0.00  0.02  0.05 -0.04  0.02 -0.01  0.01 -0.00  0.02 -0.02  0.00
R41_S10     254000.0 -169250.0 10.0  4000  4072 silicon CCD frame   3.0  100.0  Group0    -0.002922   0.000000   0.000000   0.070604  -0.033508   0.000000 zern      3.51  0.09 -0.24  0.03 -0.02  0.04 -0.00  0.09  0.03 -0.02  0.03 -0.04  0.02 -0.07  0.02  0.00  0.03 -0.00 -0.01  0.01  0.04  0.00
R41_S11     254000.0 -127000.0 10.0  4000  4072 silicon CCD frame   3.0  100.0  Group0    -0.006016   0.000000   0.000000   0.058500   0.024873   0.000000 zern      0.16  0.18 -0.13 -0.00  0.01  0.03 -0.10  0.02  0.01 -0.08 -0.02  0.01  0.00  0.05 -0.04 -0.01  0.02 -0.00 -0.01 -0.01  0.02  0.00
R41_S12     254000.0  -84750.0 10.0  4000  4072 silicon CCD frame   3.0  100.0  Group0     0.021658   0.000000   0.000000   0.018036   0.017899   0.000000 zern     -7.47 -0.25  0.00  0.00  0.04 -0.02  0.10 -0.00  0.01  0.05  0.06  0.04  0.02 -0.01 -0.06  0.03 -0.01 -0.01  0.02  0.04 -0.01  0.00
R41_S20     296250.0 -169250.0 10.0  4000  4072 silicon CCD frame   3.0  100.0  Group0     0.004011   0.000000   0.000000   0.074584   0.046707   0.000000 zern     -6.39 -0.15  0.06 -0.00  0.08  0.04  0.03 -0.04  0.01  0.01  0.05  0.01  0.04  0.03  0.03  0.00  0.00  0.01 -0.01  0.00  0.00  0.00
R41_S21     296250.0 -127000.0 10.0  4000  4072 silicon CCD frame   3.0  100.0  Group0     0.007219   0.000000   0.000000   0.071571   0.038002   0.000000 zern     -7.29 -0.08  0.21 -0.03  0.07 -0.08  0.02 -0.08 -0.01  0.03 -0.02  0.01 -0.04  0.07 -0.03 -0.00 -0.03 -0.01  0.02 -0.00 -0.04  0.00
R41_S22     296250.0  -84750.0 10.0  4000  4072 silicon CCD frame   3.0  100.0  Group0     0.015928   0.000000   0.000000   0.077274  -0.047318   0.000000 zern     -1.11  0.10 -0.16  0.00 -0.11  0.15 -0.04  0.09  0.03  0.03  0.03 -0.03  0.06  0.02 -0.02 -0.00  0.02 -0.01 -0.01  0.00  0.02  0.00
R42_S00     211750.0  -42250.0 10.0  4000  4072 silicon CCD frame   3.0  100.0  Group0    -0.004011   0.000000   0.000000  -0.084596   0.015424   0.000000 zern      6.87 -0.16 -0.09  0.02  0.01  0.15  0.10  0.02 -0.00 -0.01  0.05  0.03  0.04  0.00 -0.04  0.02 -0.01 -0.00  0.01  0.02 -0.01  0.00
R42_S01     211750.0       0.0 10.0  4000  4072 silicon CCD frame   3.0  100.0  Group0     0.011115   0.000000   0.000000  -0.061293   0.042905   0.000000 zern      1.78  0.07 -0.12  0.03 -0.09 -0.07  0.02  0.08 -0.06 -0.00 -0.04 -0.02 -0.00  0.08 -0.02 -0.01  0.01 -0.01 -0.00 -0.02  0.02  0.00
R42_S02     211750.0   42250.0 10.0  4000  4072 silicon CCD frame   3.0  100.0  Group0     0.006474   0.000000   0.000000  -0.069291   0.031538   0.000000 zern      4.39  0.09  0.28 -0.04  0.00 -0.08 -0.02 -0.09 -0.06 -0.06 -0.01  0.01 -0.04  0.08  0.02 -0.01 -0.01 -0.02  0.00 -0.00 -0.02  0.00
R42_S10     254000.0  -42250.0 10.0  4000  4072 silicon CCD frame   3.0  100.0  Group0     0.003839   0.000000   0.000000  -0.013260   0.019958   0.000000 zern     -2.13 -0.16  0.17 -0.00  0.12  0.05  0.04 -0.05  0.04 -0.00  0.03  0.04 -0.01 -0.05 -0.00  0.02 -0.02  0.00  0.01  0.03 -0.03  0.00
R42_S11     254000.0       0.0 10.0  4000  4072 silicon CCD frame   3.0  100.0  Group0    -0.012376   0.000000   0.000000  -0.039783   0.010320   0.000000 zern     -2.32  0.02 -0.11  0.00  0.02  0.04  0.00 -0.00 -0.03 -0.04  0.06 -0.00  0.03  0.03  0.01 -0.02  0.00  0.00  0.01 -0.02  0.01  0.00
R42_S12     254000.0   42250.0 10.0  4000  4072 silicon CCD frame   3.0  100.0  Group0     0.010657   0.000000   0.000000  -0.025330   0.027543   0.000000 zern      1.20 -0.57  0.17  0.03 -0.09  0.06  0.11 -0.07 -0.09 -0.03  0.02 -0.07  0.02  0.04  0.00  0.04 -0.03 -0.01 -0.01  0.06 -0.05  0.00
R42_S20     296250.0  -42250.0 10.0  4000  4072 silicon CCD frame   3.0  100.0  Group0    -0.005157   0.000000   0.000000  -0.065764   0.009048   0.000000 zern      0.85 -0.19 -0.08  0.01  0.05  0.04  0.10  0.04  0.00  0.09  0.02 -0.02  0.02  0.07 -0.02  0.03 -0.01 -0.01  0.02  0.05 -0.01  0.00
R42_S21     296250.0       0.0 10.0  4000  4072 silicon CCD frame   3.0  100.0  Group0     0.010944   0.000000   0.000000  -0.085416   0.035761   0.000000 zern     -0.99 -0.04  0.05  0.01 -0.08  0.01 -0.00 -0.00  0.02 -0.02  0.03 -0.00  0.00 -0.03  0.02  0.01  0.01  0.00 -0.00  0.01  0.01  0.00
R42_S22     296250.0   42250.0 10.0  4000  4072 silicon CCD frame   3.0  100.0  Group0     0.015871   0.000000   0.000000  -0.069670  -0.032543   0.000000 zern     -9.24 -0.07  0.07  0.00  0.02 -0.06  0.05 -0.00  0.03 -0.03  0.01  0.01 -0.04 -0.04 -0.02 -0.00  0.01 -0.00  0.01 -0.00  0.01  0.00
R43_S00     211750.0   84750.0 10.0  4000  4072 silicon CCD frame   3.0  100.0  Group0    -0.002177   0.000000   0.000000  -0.037368  -0.017166   0.000000 zern     -5.63  0.30  0.02 -0.04  0.02 -0.02 -0.10 -0.01 -0.03 -0.03  0.02 -0.02  0.01 -0.03  0.02 -0.02  0.01 -0.00 -0.01 -0.02  0.02  0.00
R43_S01     211750.0  127000.0 10.0  4000  4072 silicon CCD frame   3.0  100.0  Group0    -0.011402   0.000000   0.000000  -0.010910   0.015641   0.000000 zern     -1.10 -0.16  0.03  0.03  0.06  0.02  0.03  0.02 -0.02 -0.01  0.01 -0.01  0.05 -0.06  0.03  0.02 -0.00  0.01  0.00  0.02 -0.00  0.00
R43_S02     211750.0  169250.0 10.0  4000  4072 silicon CCD frame   3.0  100.0  Group0    -0.016444   0.000000   0.000000   0.040511   0.001053   0.000000 zern      0.65  0.26  0.04 -0.02 -0.05  0.06 -0.10 -0.02  0.10 -0.09 -0.03  0.02  0.01  0.01 -0.02 -0.03  0.01  0.01 -0.02 -0.05  0.01  0.00
R43_S10     254000.0   84750.0 10.0  4000  4072 silicon CCD frame   3.0  100.0  Group0    -0.010943   0.000000   0.000000   0.010206  -0.046128   0.000000 zern     -5.21  0.13  0.16 -0.05 -0.02 -0.04 -0.04 -0.08 -0.00  0.01  0.01  0.03 -0.00  0.03  0.01 -0.02 -0.03 -0.00  0.01 -0.03 -0.04  0.00
R43_S11     254000.0  127000.0 10.0  4000  4072 silicon CCD frame   3.0  100.0  Group0    -0.010428   0.000000   0.000000   0.060744   0.018944   0.000000 zern      1.45  0.17 -0.07 -0.01 -0.06  0.04 -0.03 -0.02  0.03 -0.02 -0.02 -0.01 -0.00  0.02 -0.03 -0.02 -0.00 -0.01  0.01 -0.03 -0.00  0.00
R43_S12     254000.0  169250.0 10.0  4000  4072 silicon CCD frame   3.0  100.0  Group0     0.000000   0.000000   0.000000   0.040469  -0.015152   0.000000 zern     -0.69 -0.11  0.19 -0.02  0.03  0.04  0.00 -0.10 -0.00  0.08  0.01  0.03  0.02 -0.01 -0.00 -0.01 -0.03  0.00  0.01 -0.02 -0.03  0.00
R43_S20     296250.0   84750.0 10.0  4000  4072 silicon CCD frame   3.0  100.0  Group0     0.002063   0.000000   0.000000  -0.035737  -0.031418   0.000000 zern    -12.19  0.12  0.09 -0.02 -0.07 -0.05 -0.06  0.00 -0.03 -0.04 -0.03 -0.00 -0.00 -0.06  0.02 -0.01 -0.01 -0.01  0.00 -0.00 -0.02  0.00
R43_S21     296250.0  127000.0 10.0  4000  4072 silicon CCD frame   3.0  100.0  Group0    -0.022116   0.000000   0.000000   0.026211  -0.007278   0.000000 zern     -2.38 -0.37  0.10  0.00 -0.03  0.09  0.10 -0.02 -0.00 -0.02  0.04  0.01  0.02  0.06  0.03  0.02  0.00 -0.01  0.00  0.04 -0.00  0.00
R43_S22     296250.0  169250.0 10.0  4000  4072 silicon CCD frame   3.0  100.0  Group0    -0.003552   0.000000   0.000000   0.055143   0.005035   0.000000 zern      2.37  0.14  0.22 -0.04  0.03 -0.01 -0.06 -0.10  0.01  0.02 -0.02  0.00  0.01 -0.10 -0.01 -0.02 -0.03 -0.00  0.00 -0.02 -0.05  0.00
R44_S00_C0  211750.0  211750.0 10.0  2000  4072 silicon CCD frame   3.0  100.0  Group1  -179.991562   0.000000   0.000000  10.000594  -0.027798   0.000000 zern   1005.35 -0.10 -0.07  0.02 -0.03 -0.01  0.02 -0.00  0.02 -0.03 -0.01 -0.00 -0.00  0.02 -0.04  0.00 -0.01  0.00 -0.00  0.02 -0.01  0.00
R44_S00_C1  211750.0  211750.0 10.0  2000  4072 silicon CCD frame   3.0  100.0  Group1  -179.981201   0.000000   0.000000 -10.014680  -0.038025   0.000000 zern   -996.21 -0.06 -0.03  0.02 -0.04  0.08 -0.00 -0.01  0.01 -0.02 -0.01  0.01 -0.00 -0.04 -0.01  0.00 -0.01 -0.00 -0.01 -0.01 -0.04  0.00
R44_S01     211750.0  254000.0 10.0  4000  4072 silicon CMOS  frame  0.1  100.0  Group2   179.992722   0.000000   0.000000   0.040719  -0.031170   0.000000 zern      2.60 -0.23  0.11  0.01  0.01  0.05  0.10  0.00  0.05 -0.03 -0.03 -0.02  0.00  0.08  0.04  0.02 -0.01  0.00  0.01  0.02 -0.02  0.00
R44_S10     254000.0  211750.0 10.0  4000  4072 silicon CMOS  frame  0.1  100.0  Group2   179.992722   0.000000   0.000000   0.050473   0.001236   0.000000 zern      1.93  0.12  0.17 -0.05 -0.04 -0.08 -0.10 -0.02 -0.10  0.01 -0.00 -0.00 -0.04  0.06 -0.03 -0.02 -0.02 -0.01  0.01 -0.02 -0.03  0.00
