M	mirror	30000		0.0		4100			0.0	-1.00835	0.0	0.0		0.0	0.0		0.0	0.0		0.0		0.0	        mirrorsub2.txt  	vacuum
L1	lens	326.76		14208		275.4158594175		0.0	0.0		0.0	0.0		0.0	0.0		0.0	0.0		0.0		0.0		lensessub.txt		BSL7Y.txt
L1E	lens	319.65		56		255.6251484025		0.0	0.0		0.0	0.0		0.0	0.0		0.0	0.0		0.0		0.0		none			vacuum
L2	lens	-4475.1998	398.3243	165.4663663761		0.0	0.0		0.0	-3.3827e-12	0.0	8.363e-17	0.0	-2.0378e-21	1.33838e-23	-3.49207e-26	none			BSL7Y.txt
L2E	lens	213.36		16		149.1151708137		0.0	0.0		0.0	0.0		0.0	0.0		0.0	0.0		0.0		0.0		none			vacuum
L3	lens	0.0		64.4686		149.7879621944		0.0	0.0		0.0	0.0		0.0	0.0		0.0	0.0		0.0		0.0		none			PBM5.txt
L3E/L4	lens	-897.65		26		151.2660159473		0.0	0.0		0.0	0.0		0.0	0.0		0.0	0.0		0.0		0.0		none			BSM14.txt
L4E	lens	0.0		14		154.2806749243		0.0	0.0		0.0	0.0		0.0	0.0		0.0	0.0		0.0		0.0		none			vacuum
L5	lens	825.93		6		158.1447002561		0.0	0.0		0.0	0.0		0.0	0.0		0.0	0.0		0.0		0.0		none			PBM2.txt
L5E/L6	lens	391.195		15		159.3034032246		0.0	0.0		0.0	0.0		0.0	0.0		0.0	0.0		0.0		0.0		none			BSL7Y.txt
L6E	lens	5355.97529	30.2926		159.1773734558		0.0	0.0		0.0	-1.30769e-12	0.0	5.388888e-17	0.0	6.67037e-21	6.94170e-23	2.28747e-25	none			vacuum
L7	lens	268.24		1		164.4994692624		0.0	0.0		0.0	0.0		0.0	0.0		0.0	0.0		0.0		0.0		none			FPL51.txt
L7E	lens	-1098.3		48.016		168.4665073899		0.0	0.0		0.0	0.0		0.0	0.0		0.0	0.0		0.0		0.0		none			vacuum	
F	filter	0		125.5026	115.6927787310		0.0	0.0		0.0	0.0		0.0	0.0		0.0	0.0		0.0		0.0		filter_1.txt	silica_dispersion.txt
FE	filter	0		15		111.8926411281		0.0	0.0		0.0	0.0		0.0	0.0		0.0	0.0		0.0		0.0		none			vacuum
W	lens	0		14.5		106.3384814484		0.0	0.0		0.0	0.0		0.0	0.0		0.0	0.0		0.0		0.0		none			silica_dispersion.txt
WE	lens	0		15		102.5383443628		0.0	0.0		0.0	0.0		0.0	0.0		0.0	0.0		0.0		0.0		none			vacuum
D	det	0		9.991841	98.85512399804		0.0	0.0		0.0	0.0		0.0	0.0		0.0	0.0		0.0		0.0		detar.txt		vacuum
