1_53	222916.2   	-99439.35   	15.0	2048	4096	silicon	CCD	frame	20	100.00	Group0	0.0042795 0.00000 0.00000 0.00000 0.00000 0.00000 zern 0.00 0.00 0.00 0.00 0.00 0.00 0.00 0.00 0.00 0.00 0.00 0.00 0.00 0.00 0.00 0.00 0.00 0.00 0.00 0.00 0.00 0.00
1_54	222918.75   	-32260.65   	15.0	2048	4096	silicon	CCD	frame	20	100.00	Group0	-0.0009544 0.00000 0.00000 0.00000 0.00000 0.00000 zern 0.00 0.00 0.00 0.00 0.00 0.00 0.00 0.00 0.00 0.00 0.00 0.00 0.00 0.00 0.00 0.00 0.00 0.00 0.00 0.00 0.00 0.00
1_55	222924.15   	34861.95   	15.0	2048	4096	silicon	CCD	frame	20	100.00	Group0	0.0099409 0.00000 0.00000 0.00000 0.00000 0.00000 zern 0.00 0.00 0.00 0.00 0.00 0.00 0.00 0.00 0.00 0.00 0.00 0.00 0.00 0.00 0.00 0.00 0.00 0.00 0.00 0.00 0.00 0.00
1_56	222913.5   	102024.9   	15.0	2048	4096	silicon	CCD	frame	20	100.00	Group0	-0.0065592 0.00000 0.00000 0.00000 0.00000 0.00000 zern 0.00 0.00 0.00 0.00 0.00 0.00 0.00 0.00 0.00 0.00 0.00 0.00 0.00 0.00 0.00 0.00 0.00 0.00 0.00 0.00 0.00 0.00
1_42	191047.8   	-166563.15   	15.0	2048	4096	silicon	CCD	frame	20	100.00	Group0	0.0059564 0.00000 0.00000 0.00000 0.00000 0.00000 zern 0.00 0.00 0.00 0.00 0.00 0.00 0.00 0.00 0.00 0.00 0.00 0.00 0.00 0.00 0.00 0.00 0.00 0.00 0.00 0.00 0.00 0.00
1_43	191056.5   	-99418.5   	15.0	2048	4096	silicon	CCD	frame	20	100.00	Group0	-0.0195999 0.00000 0.00000 0.00000 0.00000 0.00000 zern 0.00 0.00 0.00 0.00 0.00 0.00 0.00 0.00 0.00 0.00 0.00 0.00 0.00 0.00 0.00 0.00 0.00 0.00 0.00 0.00 0.00 0.00
1_44	191064.0   	-32273.85   	15.0	2048	4096	silicon	CCD	frame	20	100.00	Group0	-0.0282071 0.00000 0.00000 0.00000 0.00000 0.00000 zern 0.00 0.00 0.00 0.00 0.00 0.00 0.00 0.00 0.00 0.00 0.00 0.00 0.00 0.00 0.00 0.00 0.00 0.00 0.00 0.00 0.00 0.00
1_45	191111.1   	34844.1   	15.0	2048	4096	silicon	CCD	frame	20	100.00	Group0	0.0391671 0.00000 0.00000 0.00000 0.00000 0.00000 zern 0.00 0.00 0.00 0.00 0.00 0.00 0.00 0.00 0.00 0.00 0.00 0.00 0.00 0.00 0.00 0.00 0.00 0.00 0.00 0.00 0.00 0.00
1_46	191076.0   	102031.95   	15.0	2048	4096	silicon	CCD	frame	20	100.00	Group0	-0.0248711 0.00000 0.00000 0.00000 0.00000 0.00000 zern 0.00 0.00 0.00 0.00 0.00 0.00 0.00 0.00 0.00 0.00 0.00 0.00 0.00 0.00 0.00 0.00 0.00 0.00 0.00 0.00 0.00 0.00
1_47	191070.0   	169165.2   	15.0	2048	4096	silicon	CCD	frame	20	100.00	Group0	-0.0423397 0.00000 0.00000 0.00000 0.00000 0.00000 zern 0.00 0.00 0.00 0.00 0.00 0.00 0.00 0.00 0.00 0.00 0.00 0.00 0.00 0.00 0.00 0.00 0.00 0.00 0.00 0.00 0.00 0.00
1_36	159214.05   	-166551.9   	15.0	2048	4096	silicon	CCD	frame	20	100.00	Group0	-0.0033008 0.00000 0.00000 0.00000 0.00000 0.00000 zern 0.00 0.00 0.00 0.00 0.00 0.00 0.00 0.00 0.00 0.00 0.00 0.00 0.00 0.00 0.00 0.00 0.00 0.00 0.00 0.00 0.00 0.00
1_37	159240.9   	-99437.25   	15.0	2048	4096	silicon	CCD	frame	20	100.00	Group0	0.0405792 0.00000 0.00000 0.00000 0.00000 0.00000 zern 0.00 0.00 0.00 0.00 0.00 0.00 0.00 0.00 0.00 0.00 0.00 0.00 0.00 0.00 0.00 0.00 0.00 0.00 0.00 0.00 0.00 0.00
1_38	159212.4   	-32214.45   	15.0	2048	4096	silicon	CCD	frame	20	100.00	Group0	-0.0336698 0.00000 0.00000 0.00000 0.00000 0.00000 zern 0.00 0.00 0.00 0.00 0.00 0.00 0.00 0.00 0.00 0.00 0.00 0.00 0.00 0.00 0.00 0.00 0.00 0.00 0.00 0.00 0.00 0.00
1_39	159203.25   	34871.7   	15.0	2048	4096	silicon	CCD	frame	20	100.00	Group0	-0.0273391 0.00000 0.00000 0.00000 0.00000 0.00000 zern 0.00 0.00 0.00 0.00 0.00 0.00 0.00 0.00 0.00 0.00 0.00 0.00 0.00 0.00 0.00 0.00 0.00 0.00 0.00 0.00 0.00 0.00
1_40	159268.65   	102003.75   	15.0	2048	4096	silicon	CCD	frame	20	100.00	Group0	0.0334285 0.00000 0.00000 0.00000 0.00000 0.00000 zern 0.00 0.00 0.00 0.00 0.00 0.00 0.00 0.00 0.00 0.00 0.00 0.00 0.00 0.00 0.00 0.00 0.00 0.00 0.00 0.00 0.00 0.00
1_41	159231.45   	169161.15   	15.0	2048	4096	silicon	CCD	frame	20	100.00	Group0	-0.0159151 0.00000 0.00000 0.00000 0.00000 0.00000 zern 0.00 0.00 0.00 0.00 0.00 0.00 0.00 0.00 0.00 0.00 0.00 0.00 0.00 0.00 0.00 0.00 0.00 0.00 0.00 0.00 0.00 0.00
0_30	127340.55   	-163223.55   	15.0	2048	4096	silicon	CCD	frame	20	100.00	Group0	-0.0178983 0.00000 0.00000 0.00000 0.00000 0.00000 zern 0.00 0.00 0.00 0.00 0.00 0.00 0.00 0.00 0.00 0.00 0.00 0.00 0.00 0.00 0.00 0.00 0.00 0.00 0.00 0.00 0.00 0.00
0_29	127353.0   	-96029.1   	15.0	2048	4096	silicon	CCD	frame	20	100.00	Group0	-0.0210420 0.00000 0.00000 0.00000 0.00000 0.00000 zern 0.00 0.00 0.00 0.00 0.00 0.00 0.00 0.00 0.00 0.00 0.00 0.00 0.00 0.00 0.00 0.00 0.00 0.00 0.00 0.00 0.00 0.00
0_28	127369.95   	-28913.7   	15.0	2048	4096	silicon	CCD	frame	20	100.00	Group0	-0.0113135 0.00000 0.00000 0.00000 0.00000 0.00000 zern 0.00 0.00 0.00 0.00 0.00 0.00 0.00 0.00 0.00 0.00 0.00 0.00 0.00 0.00 0.00 0.00 0.00 0.00 0.00 0.00 0.00 0.00
1_32	127389.6   	34856.85   	15.0	2048	4096	silicon	CCD	frame	20	100.00	Group0	0.0135889 0.00000 0.00000 0.00000 0.00000 0.00000 zern 0.00 0.00 0.00 0.00 0.00 0.00 0.00 0.00 0.00 0.00 0.00 0.00 0.00 0.00 0.00 0.00 0.00 0.00 0.00 0.00 0.00 0.00
1_33	127362.9   	102023.7   	15.0	2048	4096	silicon	CCD	frame	20	100.00	Group0	-0.0075758 0.00000 0.00000 0.00000 0.00000 0.00000 zern 0.00 0.00 0.00 0.00 0.00 0.00 0.00 0.00 0.00 0.00 0.00 0.00 0.00 0.00 0.00 0.00 0.00 0.00 0.00 0.00 0.00 0.00
1_34	127431.3   	169119.45   	15.0	2048	4096	silicon	CCD	frame	20	100.00	Group0	0.0619751 0.00000 0.00000 0.00000 0.00000 0.00000 zern 0.00 0.00 0.00 0.00 0.00 0.00 0.00 0.00 0.00 0.00 0.00 0.00 0.00 0.00 0.00 0.00 0.00 0.00 0.00 0.00 0.00 0.00
0_27	95486.1   	-230301.75   	15.0	2048	4096	silicon	CCD	frame	20	100.00	Group0	-0.0043208 0.00000 0.00000 0.00000 0.00000 0.00000 zern 0.00 0.00 0.00 0.00 0.00 0.00 0.00 0.00 0.00 0.00 0.00 0.00 0.00 0.00 0.00 0.00 0.00 0.00 0.00 0.00 0.00 0.00
0_26	95545.95   	-163180.8   	15.0	2048	4096	silicon	CCD	frame	20	100.00	Group0	0.0219764 0.00000 0.00000 0.00000 0.00000 0.00000 zern 0.00 0.00 0.00 0.00 0.00 0.00 0.00 0.00 0.00 0.00 0.00 0.00 0.00 0.00 0.00 0.00 0.00 0.00 0.00 0.00 0.00 0.00
0_25	95550.75   	-96033.0   	15.0	2048	4096	silicon	CCD	frame	20	100.00	Group0	0.0304970 0.00000 0.00000 0.00000 0.00000 0.00000 zern 0.00 0.00 0.00 0.00 0.00 0.00 0.00 0.00 0.00 0.00 0.00 0.00 0.00 0.00 0.00 0.00 0.00 0.00 0.00 0.00 0.00 0.00
0_24	95535.45   	-28868.55   	15.0	2048	4096	silicon	CCD	frame	20	100.00	Group0	0.0186323 0.00000 0.00000 0.00000 0.00000 0.00000 zern 0.00 0.00 0.00 0.00 0.00 0.00 0.00 0.00 0.00 0.00 0.00 0.00 0.00 0.00 0.00 0.00 0.00 0.00 0.00 0.00 0.00 0.00
1_00	95543.1   	34854.0   	15.0	2048	4096	silicon	CCD	frame	20	100.00	Group0	-0.0107046 0.00000 0.00000 0.00000 0.00000 0.00000 zern 0.00 0.00 0.00 0.00 0.00 0.00 0.00 0.00 0.00 0.00 0.00 0.00 0.00 0.00 0.00 0.00 0.00 0.00 0.00 0.00 0.00 0.00
1_01	95558.1   	102018.15   	15.0	2048	4096	silicon	CCD	frame	20	100.00	Group0	0.0168835 0.00000 0.00000 0.00000 0.00000 0.00000 zern 0.00 0.00 0.00 0.00 0.00 0.00 0.00 0.00 0.00 0.00 0.00 0.00 0.00 0.00 0.00 0.00 0.00 0.00 0.00 0.00 0.00 0.00
1_02	95598.3   	169139.25   	15.0	2048	4096	silicon	CCD	frame	20	100.00	Group0	0.0483200 0.00000 0.00000 0.00000 0.00000 0.00000 zern 0.00 0.00 0.00 0.00 0.00 0.00 0.00 0.00 0.00 0.00 0.00 0.00 0.00 0.00 0.00 0.00 0.00 0.00 0.00 0.00 0.00 0.00
1_03	95528.7   	236307.45   	15.0	2048	4096	silicon	CCD	frame	20	100.00	Group0	-0.0075553 0.00000 0.00000 0.00000 0.00000 0.00000 zern 0.00 0.00 0.00 0.00 0.00 0.00 0.00 0.00 0.00 0.00 0.00 0.00 0.00 0.00 0.00 0.00 0.00 0.00 0.00 0.00 0.00 0.00
0_23	63688.65   	-230307.15   	15.0	2048	4096	silicon	CCD	frame	20	100.00	Group0	0.0201211 0.00000 0.00000 0.00000 0.00000 0.00000 zern 0.00 0.00 0.00 0.00 0.00 0.00 0.00 0.00 0.00 0.00 0.00 0.00 0.00 0.00 0.00 0.00 0.00 0.00 0.00 0.00 0.00 0.00
0_22	63655.8   	-163197.3   	15.0	2048	4096	silicon	CCD	frame	20	100.00	Group0	-0.0252791 0.00000 0.00000 0.00000 0.00000 0.00000 zern 0.00 0.00 0.00 0.00 0.00 0.00 0.00 0.00 0.00 0.00 0.00 0.00 0.00 0.00 0.00 0.00 0.00 0.00 0.00 0.00 0.00 0.00
0_21	63649.35   	-96046.5   	15.0	2048	4096	silicon	CCD	frame	20	100.00	Group0	0.0079653 0.00000 0.00000 0.00000 0.00000 0.00000 zern 0.00 0.00 0.00 0.00 0.00 0.00 0.00 0.00 0.00 0.00 0.00 0.00 0.00 0.00 0.00 0.00 0.00 0.00 0.00 0.00 0.00 0.00
0_20	63713.85   	-28891.5   	15.0	2048	4096	silicon	CCD	frame	20	100.00	Group0	0.0295685 0.00000 0.00000 0.00000 0.00000 0.00000 zern 0.00 0.00 0.00 0.00 0.00 0.00 0.00 0.00 0.00 0.00 0.00 0.00 0.00 0.00 0.00 0.00 0.00 0.00 0.00 0.00 0.00 0.00
1_04	63690.6   	34854.75   	15.0	2048	4096	silicon	CCD	frame	20	100.00	Group0	-0.0085848 0.00000 0.00000 0.00000 0.00000 0.00000 zern 0.00 0.00 0.00 0.00 0.00 0.00 0.00 0.00 0.00 0.00 0.00 0.00 0.00 0.00 0.00 0.00 0.00 0.00 0.00 0.00 0.00 0.00
1_05	63674.55   	102016.5   	15.0	2048	4096	silicon	CCD	frame	20	100.00	Group0	-0.0178263 0.00000 0.00000 0.00000 0.00000 0.00000 zern 0.00 0.00 0.00 0.00 0.00 0.00 0.00 0.00 0.00 0.00 0.00 0.00 0.00 0.00 0.00 0.00 0.00 0.00 0.00 0.00 0.00 0.00
1_06	63707.55   	169138.95   	15.0	2048	4096	silicon	CCD	frame	20	100.00	Group0	0.0002939 0.00000 0.00000 0.00000 0.00000 0.00000 zern 0.00 0.00 0.00 0.00 0.00 0.00 0.00 0.00 0.00 0.00 0.00 0.00 0.00 0.00 0.00 0.00 0.00 0.00 0.00 0.00 0.00 0.00
1_07	63687.6   	236311.65   	15.0	2048	4096	silicon	CCD	frame	20	100.00	Group0	-0.0106645 0.00000 0.00000 0.00000 0.00000 0.00000 zern 0.00 0.00 0.00 0.00 0.00 0.00 0.00 0.00 0.00 0.00 0.00 0.00 0.00 0.00 0.00 0.00 0.00 0.00 0.00 0.00 0.00 0.00
0_19	31830.45   	-230308.2   	15.0	2048	4096	silicon	CCD	frame	20	100.00	Group0	-0.0002905 0.00000 0.00000 0.00000 0.00000 0.00000 zern 0.00 0.00 0.00 0.00 0.00 0.00 0.00 0.00 0.00 0.00 0.00 0.00 0.00 0.00 0.00 0.00 0.00 0.00 0.00 0.00 0.00 0.00
0_18	31794.6   	-163160.85   	15.0	2048	4096	silicon	CCD	frame	20	100.00	Group0	-0.0269482 0.00000 0.00000 0.00000 0.00000 0.00000 zern 0.00 0.00 0.00 0.00 0.00 0.00 0.00 0.00 0.00 0.00 0.00 0.00 0.00 0.00 0.00 0.00 0.00 0.00 0.00 0.00 0.00 0.00
0_17	31826.7   	-96029.55   	15.0	2048	4096	silicon	CCD	frame	20	100.00	Group0	-0.0090759 0.00000 0.00000 0.00000 0.00000 0.00000 zern 0.00 0.00 0.00 0.00 0.00 0.00 0.00 0.00 0.00 0.00 0.00 0.00 0.00 0.00 0.00 0.00 0.00 0.00 0.00 0.00 0.00 0.00
0_16	31845.3   	-28859.1   	15.0	2048	4096	silicon	CCD	frame	20	100.00	Group0	0.0079447 0.00000 0.00000 0.00000 0.00000 0.00000 zern 0.00 0.00 0.00 0.00 0.00 0.00 0.00 0.00 0.00 0.00 0.00 0.00 0.00 0.00 0.00 0.00 0.00 0.00 0.00 0.00 0.00 0.00
1_08	31880.25   	34861.35   	15.0	2048	4096	silicon	CCD	frame	20	100.00	Group0	0.0157999 0.00000 0.00000 0.00000 0.00000 0.00000 zern 0.00 0.00 0.00 0.00 0.00 0.00 0.00 0.00 0.00 0.00 0.00 0.00 0.00 0.00 0.00 0.00 0.00 0.00 0.00 0.00 0.00 0.00
1_09	31855.2   	102022.65   	15.0	2048	4096	silicon	CCD	frame	20	100.00	Group0	0.0264757 0.00000 0.00000 0.00000 0.00000 0.00000 zern 0.00 0.00 0.00 0.00 0.00 0.00 0.00 0.00 0.00 0.00 0.00 0.00 0.00 0.00 0.00 0.00 0.00 0.00 0.00 0.00 0.00 0.00
1_10	31864.8   	169176.0   	15.0	2048	4096	silicon	CCD	frame	20	100.00	Group0	0.0122845 0.00000 0.00000 0.00000 0.00000 0.00000 zern 0.00 0.00 0.00 0.00 0.00 0.00 0.00 0.00 0.00 0.00 0.00 0.00 0.00 0.00 0.00 0.00 0.00 0.00 0.00 0.00 0.00 0.00
1_11	31853.85   	236304.3   	15.0	2048	4096	silicon	CCD	frame	20	100.00	Group0	0.0071262 0.00000 0.00000 0.00000 0.00000 0.00000 zern 0.00 0.00 0.00 0.00 0.00 0.00 0.00 0.00 0.00 0.00 0.00 0.00 0.00 0.00 0.00 0.00 0.00 0.00 0.00 0.00 0.00 0.00
0_15	-24.3   	-230316.0   	15.0	2048	4096	silicon	CCD	frame	20	100.00	Group0	-0.0070215 0.00000 0.00000 0.00000 0.00000 0.00000 zern 0.00 0.00 0.00 0.00 0.00 0.00 0.00 0.00 0.00 0.00 0.00 0.00 0.00 0.00 0.00 0.00 0.00 0.00 0.00 0.00 0.00 0.00
0_14	-44.7   	-163171.8   	15.0	2048	4096	silicon	CCD	frame	20	100.00	Group0	0.0071423 0.00000 0.00000 0.00000 0.00000 0.00000 zern 0.00 0.00 0.00 0.00 0.00 0.00 0.00 0.00 0.00 0.00 0.00 0.00 0.00 0.00 0.00 0.00 0.00 0.00 0.00 0.00 0.00 0.00
0_13	-9.9   	-96039.75   	15.0	2048	4096	silicon	CCD	frame	20	100.00	Group0	-0.0035169 0.00000 0.00000 0.00000 0.00000 0.00000 zern 0.00 0.00 0.00 0.00 0.00 0.00 0.00 0.00 0.00 0.00 0.00 0.00 0.00 0.00 0.00 0.00 0.00 0.00 0.00 0.00 0.00 0.00
0_12	4.2   	-28886.4   	15.0	2048	4096	silicon	CCD	frame	20	100.00	Group0	0.0073295 0.00000 0.00000 0.00000 0.00000 0.00000 zern 0.00 0.00 0.00 0.00 0.00 0.00 0.00 0.00 0.00 0.00 0.00 0.00 0.00 0.00 0.00 0.00 0.00 0.00 0.00 0.00 0.00 0.00
1_12	10.5   	34882.2   	15.0	2048	4096	silicon	CCD	frame	20	100.00	Group0	0.0515083 0.00000 0.00000 0.00000 0.00000 0.00000 zern 0.00 0.00 0.00 0.00 0.00 0.00 0.00 0.00 0.00 0.00 0.00 0.00 0.00 0.00 0.00 0.00 0.00 0.00 0.00 0.00 0.00 0.00
1_13	34.5   	102010.2   	15.0	2048	4096	silicon	CCD	frame	20	100.00	Group0	0.0535273 0.00000 0.00000 0.00000 0.00000 0.00000 zern 0.00 0.00 0.00 0.00 0.00 0.00 0.00 0.00 0.00 0.00 0.00 0.00 0.00 0.00 0.00 0.00 0.00 0.00 0.00 0.00 0.00 0.00
1_14	-2.25   	169195.95   	15.0	2048	4096	silicon	CCD	frame	20	100.00	Group0	-0.0174426 0.00000 0.00000 0.00000 0.00000 0.00000 zern 0.00 0.00 0.00 0.00 0.00 0.00 0.00 0.00 0.00 0.00 0.00 0.00 0.00 0.00 0.00 0.00 0.00 0.00 0.00 0.00 0.00 0.00
1_15	18.45   	236295.3   	15.0	2048	4096	silicon	CCD	frame	20	100.00	Group0	0.0098542 0.00000 0.00000 0.00000 0.00000 0.00000 zern 0.00 0.00 0.00 0.00 0.00 0.00 0.00 0.00 0.00 0.00 0.00 0.00 0.00 0.00 0.00 0.00 0.00 0.00 0.00 0.00 0.00 0.00
0_11	-31860.9   	-230325.3   	15.0	2048	4096	silicon	CCD	frame	20	100.00	Group0	-0.0202233 0.00000 0.00000 0.00000 0.00000 0.00000 zern 0.00 0.00 0.00 0.00 0.00 0.00 0.00 0.00 0.00 0.00 0.00 0.00 0.00 0.00 0.00 0.00 0.00 0.00 0.00 0.00 0.00 0.00
0_10	-31875.3   	-163163.85   	15.0	2048	4096	silicon	CCD	frame	20	100.00	Group0	-0.0314783 0.00000 0.00000 0.00000 0.00000 0.00000 zern 0.00 0.00 0.00 0.00 0.00 0.00 0.00 0.00 0.00 0.00 0.00 0.00 0.00 0.00 0.00 0.00 0.00 0.00 0.00 0.00 0.00 0.00
0_09	-31840.05   	-96014.7   	15.0	2048	4096	silicon	CCD	frame	20	100.00	Group0	0.0011322 0.00000 0.00000 0.00000 0.00000 0.00000 zern 0.00 0.00 0.00 0.00 0.00 0.00 0.00 0.00 0.00 0.00 0.00 0.00 0.00 0.00 0.00 0.00 0.00 0.00 0.00 0.00 0.00 0.00
0_08	-31857.45   	-28901.85   	15.0	2048	4096	silicon	CCD	frame	20	100.00	Group0	-0.0346153 0.00000 0.00000 0.00000 0.00000 0.00000 zern 0.00 0.00 0.00 0.00 0.00 0.00 0.00 0.00 0.00 0.00 0.00 0.00 0.00 0.00 0.00 0.00 0.00 0.00 0.00 0.00 0.00 0.00
1_16	-31828.05   	34869.6   	15.0	2048	4096	silicon	CCD	frame	20	100.00	Group0	0.0055530 0.00000 0.00000 0.00000 0.00000 0.00000 zern 0.00 0.00 0.00 0.00 0.00 0.00 0.00 0.00 0.00 0.00 0.00 0.00 0.00 0.00 0.00 0.00 0.00 0.00 0.00 0.00 0.00 0.00
1_17	-31823.55   	102038.55   	15.0	2048	4096	silicon	CCD	frame	20	100.00	Group0	-0.0016467 0.00000 0.00000 0.00000 0.00000 0.00000 zern 0.00 0.00 0.00 0.00 0.00 0.00 0.00 0.00 0.00 0.00 0.00 0.00 0.00 0.00 0.00 0.00 0.00 0.00 0.00 0.00 0.00 0.00
1_18	-31797.3   	169179.75   	15.0	2048	4096	silicon	CCD	frame	20	100.00	Group0	0.0025056 0.00000 0.00000 0.00000 0.00000 0.00000 zern 0.00 0.00 0.00 0.00 0.00 0.00 0.00 0.00 0.00 0.00 0.00 0.00 0.00 0.00 0.00 0.00 0.00 0.00 0.00 0.00 0.00 0.00
1_19	-31826.55   	236313.45   	15.0	2048	4096	silicon	CCD	frame	20	100.00	Group0	0.0088666 0.00000 0.00000 0.00000 0.00000 0.00000 zern 0.00 0.00 0.00 0.00 0.00 0.00 0.00 0.00 0.00 0.00 0.00 0.00 0.00 0.00 0.00 0.00 0.00 0.00 0.00 0.00 0.00 0.00
0_07	-63677.1   	-230317.05   	15.0	2048	4096	silicon	CCD	frame	20	100.00	Group0	0.0153155 0.00000 0.00000 0.00000 0.00000 0.00000 zern 0.00 0.00 0.00 0.00 0.00 0.00 0.00 0.00 0.00 0.00 0.00 0.00 0.00 0.00 0.00 0.00 0.00 0.00 0.00 0.00 0.00 0.00
0_06	-63715.2   	-163173.45   	15.0	2048	4096	silicon	CCD	frame	20	100.00	Group0	-0.0008302 0.00000 0.00000 0.00000 0.00000 0.00000 zern 0.00 0.00 0.00 0.00 0.00 0.00 0.00 0.00 0.00 0.00 0.00 0.00 0.00 0.00 0.00 0.00 0.00 0.00 0.00 0.00 0.00 0.00
0_05	-63706.65   	-96005.4   	15.0	2048	4096	silicon	CCD	frame	20	100.00	Group0	-0.0148248 0.00000 0.00000 0.00000 0.00000 0.00000 zern 0.00 0.00 0.00 0.00 0.00 0.00 0.00 0.00 0.00 0.00 0.00 0.00 0.00 0.00 0.00 0.00 0.00 0.00 0.00 0.00 0.00 0.00
0_04	-63688.95   	-28871.55   	15.0	2048	4096	silicon	CCD	frame	20	100.00	Group0	-0.0100663 0.00000 0.00000 0.00000 0.00000 0.00000 zern 0.00 0.00 0.00 0.00 0.00 0.00 0.00 0.00 0.00 0.00 0.00 0.00 0.00 0.00 0.00 0.00 0.00 0.00 0.00 0.00 0.00 0.00
1_20	-63672.3   	34879.5   	15.0	2048	4096	silicon	CCD	frame	20	100.00	Group0	0.0012338 0.00000 0.00000 0.00000 0.00000 0.00000 zern 0.00 0.00 0.00 0.00 0.00 0.00 0.00 0.00 0.00 0.00 0.00 0.00 0.00 0.00 0.00 0.00 0.00 0.00 0.00 0.00 0.00 0.00
1_21	-63668.25   	102055.5   	15.0	2048	4096	silicon	CCD	frame	20	100.00	Group0	-0.0083052 0.00000 0.00000 0.00000 0.00000 0.00000 zern 0.00 0.00 0.00 0.00 0.00 0.00 0.00 0.00 0.00 0.00 0.00 0.00 0.00 0.00 0.00 0.00 0.00 0.00 0.00 0.00 0.00 0.00
1_22	-63667.2   	169158.9   	15.0	2048	4096	silicon	CCD	frame	20	100.00	Group0	0.0090084 0.00000 0.00000 0.00000 0.00000 0.00000 zern 0.00 0.00 0.00 0.00 0.00 0.00 0.00 0.00 0.00 0.00 0.00 0.00 0.00 0.00 0.00 0.00 0.00 0.00 0.00 0.00 0.00 0.00
1_23	-63659.7   	236316.0   	15.0	2048	4096	silicon	CCD	frame	20	100.00	Group0	-0.0224195 0.00000 0.00000 0.00000 0.00000 0.00000 zern 0.00 0.00 0.00 0.00 0.00 0.00 0.00 0.00 0.00 0.00 0.00 0.00 0.00 0.00 0.00 0.00 0.00 0.00 0.00 0.00 0.00 0.00
0_03	-95598.3   	-230294.55   	15.0	2048	4096	silicon	CCD	frame	20	100.00	Group0	-0.0620490 0.00000 0.00000 0.00000 0.00000 0.00000 zern 0.00 0.00 0.00 0.00 0.00 0.00 0.00 0.00 0.00 0.00 0.00 0.00 0.00 0.00 0.00 0.00 0.00 0.00 0.00 0.00 0.00 0.00
0_02	-95549.55   	-163168.5   	15.0	2048	4096	silicon	CCD	frame	20	100.00	Group0	0.0003689 0.00000 0.00000 0.00000 0.00000 0.00000 zern 0.00 0.00 0.00 0.00 0.00 0.00 0.00 0.00 0.00 0.00 0.00 0.00 0.00 0.00 0.00 0.00 0.00 0.00 0.00 0.00 0.00 0.00
0_01	-95522.4   	-96014.85   	15.0	2048	4096	silicon	CCD	frame	20	100.00	Group0	0.0023180 0.00000 0.00000 0.00000 0.00000 0.00000 zern 0.00 0.00 0.00 0.00 0.00 0.00 0.00 0.00 0.00 0.00 0.00 0.00 0.00 0.00 0.00 0.00 0.00 0.00 0.00 0.00 0.00 0.00
0_00	-95566.2   	-28897.8   	15.0	2048	4096	silicon	CCD	frame	20	100.00	Group0	0.0099480 0.00000 0.00000 0.00000 0.00000 0.00000 zern 0.00 0.00 0.00 0.00 0.00 0.00 0.00 0.00 0.00 0.00 0.00 0.00 0.00 0.00 0.00 0.00 0.00 0.00 0.00 0.00 0.00 0.00
1_24	-95513.1   	34891.8   	15.0	2048	4096	silicon	CCD	frame	20	100.00	Group0	0.0085427 0.00000 0.00000 0.00000 0.00000 0.00000 zern 0.00 0.00 0.00 0.00 0.00 0.00 0.00 0.00 0.00 0.00 0.00 0.00 0.00 0.00 0.00 0.00 0.00 0.00 0.00 0.00 0.00 0.00
1_25	-95520.15   	102053.4   	15.0	2048	4096	silicon	CCD	frame	20	100.00	Group0	0.0022241 0.00000 0.00000 0.00000 0.00000 0.00000 zern 0.00 0.00 0.00 0.00 0.00 0.00 0.00 0.00 0.00 0.00 0.00 0.00 0.00 0.00 0.00 0.00 0.00 0.00 0.00 0.00 0.00 0.00
1_26	-95533.2   	169199.85   	15.0	2048	4096	silicon	CCD	frame	20	100.00	Group0	-0.0248477 0.00000 0.00000 0.00000 0.00000 0.00000 zern 0.00 0.00 0.00 0.00 0.00 0.00 0.00 0.00 0.00 0.00 0.00 0.00 0.00 0.00 0.00 0.00 0.00 0.00 0.00 0.00 0.00 0.00
1_27	-95510.4   	236320.8   	15.0	2048	4096	silicon	CCD	frame	20	100.00	Group0	0.0023689 0.00000 0.00000 0.00000 0.00000 0.00000 zern 0.00 0.00 0.00 0.00 0.00 0.00 0.00 0.00 0.00 0.00 0.00 0.00 0.00 0.00 0.00 0.00 0.00 0.00 0.00 0.00 0.00 0.00
0_34	-127360.35   	-163201.8   	15.0	2048	4096	silicon	CCD	frame	20	100.00	Group0	0.0400992 0.00000 0.00000 0.00000 0.00000 0.00000 zern 0.00 0.00 0.00 0.00 0.00 0.00 0.00 0.00 0.00 0.00 0.00 0.00 0.00 0.00 0.00 0.00 0.00 0.00 0.00 0.00 0.00 0.00
0_33	-127370.85   	-95999.1   	15.0	2048	4096	silicon	CCD	frame	20	100.00	Group0	0.0195534 0.00000 0.00000 0.00000 0.00000 0.00000 zern 0.00 0.00 0.00 0.00 0.00 0.00 0.00 0.00 0.00 0.00 0.00 0.00 0.00 0.00 0.00 0.00 0.00 0.00 0.00 0.00 0.00 0.00
0_32	-127374.15   	-28861.2   	15.0	2048	4096	silicon	CCD	frame	20	100.00	Group0	-0.0062940 0.00000 0.00000 0.00000 0.00000 0.00000 zern 0.00 0.00 0.00 0.00 0.00 0.00 0.00 0.00 0.00 0.00 0.00 0.00 0.00 0.00 0.00 0.00 0.00 0.00 0.00 0.00 0.00 0.00
1_28	-127388.85   	34925.4   	15.0	2048	4096	silicon	CCD	frame	20	100.00	Group0	-0.0002492 0.00000 0.00000 0.00000 0.00000 0.00000 zern 0.00 0.00 0.00 0.00 0.00 0.00 0.00 0.00 0.00 0.00 0.00 0.00 0.00 0.00 0.00 0.00 0.00 0.00 0.00 0.00 0.00 0.00
1_29	-127378.5   	102029.25   	15.0	2048	4096	silicon	CCD	frame	20	100.00	Group0	0.0186303 0.00000 0.00000 0.00000 0.00000 0.00000 zern 0.00 0.00 0.00 0.00 0.00 0.00 0.00 0.00 0.00 0.00 0.00 0.00 0.00 0.00 0.00 0.00 0.00 0.00 0.00 0.00 0.00 0.00
1_30	-127363.65   	169172.25   	15.0	2048	4096	silicon	CCD	frame	20	100.00	Group0	0.0077724 0.00000 0.00000 0.00000 0.00000 0.00000 zern 0.00 0.00 0.00 0.00 0.00 0.00 0.00 0.00 0.00 0.00 0.00 0.00 0.00 0.00 0.00 0.00 0.00 0.00 0.00 0.00 0.00 0.00
0_41	-159216.15   	-163163.7   	15.0	2048	4096	silicon	CCD	frame	20	100.00	Group0	0.0384124 0.00000 0.00000 0.00000 0.00000 0.00000 zern 0.00 0.00 0.00 0.00 0.00 0.00 0.00 0.00 0.00 0.00 0.00 0.00 0.00 0.00 0.00 0.00 0.00 0.00 0.00 0.00 0.00 0.00
0_40	-159219.75   	-96015.15   	15.0	2048	4096	silicon	CCD	frame	20	100.00	Group0	0.0116824 0.00000 0.00000 0.00000 0.00000 0.00000 zern 0.00 0.00 0.00 0.00 0.00 0.00 0.00 0.00 0.00 0.00 0.00 0.00 0.00 0.00 0.00 0.00 0.00 0.00 0.00 0.00 0.00 0.00
0_39	-159235.05   	-28837.5   	15.0	2048	4096	silicon	CCD	frame	20	100.00	Group0	-0.0016385 0.00000 0.00000 0.00000 0.00000 0.00000 zern 0.00 0.00 0.00 0.00 0.00 0.00 0.00 0.00 0.00 0.00 0.00 0.00 0.00 0.00 0.00 0.00 0.00 0.00 0.00 0.00 0.00 0.00
0_38	-159269.85   	38245.95   	15.0	2048	4096	silicon	CCD	frame	20	100.00	Group0	-0.0365359 0.00000 0.00000 0.00000 0.00000 0.00000 zern 0.00 0.00 0.00 0.00 0.00 0.00 0.00 0.00 0.00 0.00 0.00 0.00 0.00 0.00 0.00 0.00 0.00 0.00 0.00 0.00 0.00 0.00
0_37	-159241.5   	105421.95   	15.0	2048	4096	silicon	CCD	frame	20	100.00	Group0	-0.0260835 0.00000 0.00000 0.00000 0.00000 0.00000 zern 0.00 0.00 0.00 0.00 0.00 0.00 0.00 0.00 0.00 0.00 0.00 0.00 0.00 0.00 0.00 0.00 0.00 0.00 0.00 0.00 0.00 0.00
0_36	-159217.5   	172556.4   	15.0	2048	4096	silicon	CCD	frame	20	100.00	Group0	-0.0136941 0.00000 0.00000 0.00000 0.00000 0.00000 zern 0.00 0.00 0.00 0.00 0.00 0.00 0.00 0.00 0.00 0.00 0.00 0.00 0.00 0.00 0.00 0.00 0.00 0.00 0.00 0.00 0.00 0.00
0_47	-191068.35   	-163132.5   	15.0	2048	4096	silicon	CCD	frame	20	100.00	Group0	0.0045054 0.00000 0.00000 0.00000 0.00000 0.00000 zern 0.00 0.00 0.00 0.00 0.00 0.00 0.00 0.00 0.00 0.00 0.00 0.00 0.00 0.00 0.00 0.00 0.00 0.00 0.00 0.00 0.00 0.00
0_46	-191077.65   	-96014.7   	15.0	2048	4096	silicon	CCD	frame	20	100.00	Group0	0.0333861 0.00000 0.00000 0.00000 0.00000 0.00000 zern 0.00 0.00 0.00 0.00 0.00 0.00 0.00 0.00 0.00 0.00 0.00 0.00 0.00 0.00 0.00 0.00 0.00 0.00 0.00 0.00 0.00 0.00
0_45	-191066.25   	-28849.95   	15.0	2048	4096	silicon	CCD	frame	20	100.00	Group0	0.0009777 0.00000 0.00000 0.00000 0.00000 0.00000 zern 0.00 0.00 0.00 0.00 0.00 0.00 0.00 0.00 0.00 0.00 0.00 0.00 0.00 0.00 0.00 0.00 0.00 0.00 0.00 0.00 0.00 0.00
0_44	-191097.3   	38274.0   	15.0	2048	4096	silicon	CCD	frame	20	100.00	Group0	-0.0256466 0.00000 0.00000 0.00000 0.00000 0.00000 zern 0.00 0.00 0.00 0.00 0.00 0.00 0.00 0.00 0.00 0.00 0.00 0.00 0.00 0.00 0.00 0.00 0.00 0.00 0.00 0.00 0.00 0.00
0_43	-191057.1   	105445.5   	15.0	2048	4096	silicon	CCD	frame	20	100.00	Group0	-0.0057758 0.00000 0.00000 0.00000 0.00000 0.00000 zern 0.00 0.00 0.00 0.00 0.00 0.00 0.00 0.00 0.00 0.00 0.00 0.00 0.00 0.00 0.00 0.00 0.00 0.00 0.00 0.00 0.00 0.00
0_42	-191050.8   	172563.9   	15.0	2048	4096	silicon	CCD	frame	20	100.00	Group0	-0.0060941 0.00000 0.00000 0.00000 0.00000 0.00000 zern 0.00 0.00 0.00 0.00 0.00 0.00 0.00 0.00 0.00 0.00 0.00 0.00 0.00 0.00 0.00 0.00 0.00 0.00 0.00 0.00 0.00 0.00
0_56	-222924.0   	-96020.4   	15.0	2048	4096	silicon	CCD	frame	20	100.00	Group0	0.0015567 0.00000 0.00000 0.00000 0.00000 0.00000 zern 0.00 0.00 0.00 0.00 0.00 0.00 0.00 0.00 0.00 0.00 0.00 0.00 0.00 0.00 0.00 0.00 0.00 0.00 0.00 0.00 0.00 0.00
0_55	-222925.95   	-28849.5   	15.0	2048	4096	silicon	CCD	frame	20	100.00	Group0	0.0012757 0.00000 0.00000 0.00000 0.00000 0.00000 zern 0.00 0.00 0.00 0.00 0.00 0.00 0.00 0.00 0.00 0.00 0.00 0.00 0.00 0.00 0.00 0.00 0.00 0.00 0.00 0.00 0.00 0.00
0_54	-222944.85   	38294.55   	15.0	2048	4096	silicon	CCD	frame	20	100.00	Group0	-0.0422711 0.00000 0.00000 0.00000 0.00000 0.00000 zern 0.00 0.00 0.00 0.00 0.00 0.00 0.00 0.00 0.00 0.00 0.00 0.00 0.00 0.00 0.00 0.00 0.00 0.00 0.00 0.00 0.00 0.00
0_53	-222941.1   	105459.15   	15.0	2048	4096	silicon	CCD	frame	20	100.00	Group0	-0.0439981 0.00000 0.00000 0.00000 0.00000 0.00000 zern 0.00 0.00 0.00 0.00 0.00 0.00 0.00 0.00 0.00 0.00 0.00 0.00 0.00 0.00 0.00 0.00 0.00 0.00 0.00 0.00 0.00 0.00
0_31	143823.9   	-214337.4   	15.0	2048	4096	silicon	CCD	frame	20	100.00	Group0	89.9887411 0.00000 0.00000 0.00000 0.00000 0.00000 zern 0.00 0.00 0.00 0.00 0.00 0.00 0.00 0.00 0.00 0.00 0.00 0.00 0.00 0.00 0.00 0.00 0.00 0.00 0.00 0.00 0.00 0.00
1_35	143875.95   	220354.05   	15.0	2048	4096	silicon	CCD	frame	20	100.00	Group0	89.9993385 0.00000 0.00000 0.00000 0.00000 0.00000 zern 0.00 0.00 0.00 0.00 0.00 0.00 0.00 0.00 0.00 0.00 0.00 0.00 0.00 0.00 0.00 0.00 0.00 0.00 0.00 0.00 0.00 0.00
0_35	-143877.6   	-214353.15   	15.0	2048	4096	silicon	CCD	frame	20	100.00	Group0	90.0296679 0.00000 0.00000 0.00000 0.00000 0.00000 zern 0.00 0.00 0.00 0.00 0.00 0.00 0.00 0.00 0.00 0.00 0.00 0.00 0.00 0.00 0.00 0.00 0.00 0.00 0.00 0.00 0.00 0.00
1_31	-143822.7   	220339.35   	15.0	2048	4096	silicon	CCD	frame	20	100.00	Group0	90.0182958 0.00000 0.00000 0.00000 0.00000 0.00000 zern 0.00 0.00 0.00 0.00 0.00 0.00 0.00 0.00 0.00 0.00 0.00 0.00 0.00 0.00 0.00 0.00 0.00 0.00 0.00 0.00 0.00 0.00
1_48	254765.4   	-97303.8   	15.0	2048	4096	silicon	CCD	frame	20	100.00	Group0	0.000000 0.00000 0.00000 0.00000 0.00000 0.00000 zern 0.00 0.00 0.00 0.00 0.00 0.00 0.00 0.00 0.00 0.00 0.00 0.00 0.00 0.00 0.00 0.00 0.00 0.00 0.00 0.00 0.00 0.00
1_51	254765.4   	102110.4   	15.0	2048	4096	silicon	CCD	frame	20	100.00	Group0	0.000000 0.00000 0.00000 0.00000 0.00000 0.00000 zern 0.00 0.00 0.00 0.00 0.00 0.00 0.00 0.00 0.00 0.00 0.00 0.00 0.00 0.00 0.00 0.00 0.00 0.00 0.00 0.00 0.00 0.00
1_52	222918.15   	-164296.35   	15.0	2048	4096	silicon	CCD	frame	20	100.00	Group0	0.000000 0.00000 0.00000 0.00000 0.00000 0.00000 zern 0.00 0.00 0.00 0.00 0.00 0.00 0.00 0.00 0.00 0.00 0.00 0.00 0.00 0.00 0.00 0.00 0.00 0.00 0.00 0.00 0.00 0.00
1_57	222918.15   	169086.75   	15.0	2048	4096	silicon	CCD	frame	20	100.00	Group0	0.000000 0.00000 0.00000 0.00000 0.00000 0.00000 zern 0.00 0.00 0.00 0.00 0.00 0.00 0.00 0.00 0.00 0.00 0.00 0.00 0.00 0.00 0.00 0.00 0.00 0.00 0.00 0.00 0.00 0.00
0_57	-222933.9   	-164296.35   	15.0	2048	4096	silicon	CCD	frame	20	100.00	Group0	0.000000 0.00000 0.00000 0.00000 0.00000 0.00000 zern 0.00 0.00 0.00 0.00 0.00 0.00 0.00 0.00 0.00 0.00 0.00 0.00 0.00 0.00 0.00 0.00 0.00 0.00 0.00 0.00 0.00 0.00
0_52	-222933.9   	169086.75   	15.0	2048	4096	silicon	CCD	frame	20	100.00	Group0	0.000000 0.00000 0.00000 0.00000 0.00000 0.00000 zern 0.00 0.00 0.00 0.00 0.00 0.00 0.00 0.00 0.00 0.00 0.00 0.00 0.00 0.00 0.00 0.00 0.00 0.00 0.00 0.00 0.00 0.00
0_51	-254798.25   	-97303.8   	15.0	2048	4096	silicon	CCD	frame	20	100.00	Group0	0.000000 0.00000 0.00000 0.00000 0.00000 0.00000 zern 0.00 0.00 0.00 0.00 0.00 0.00 0.00 0.00 0.00 0.00 0.00 0.00 0.00 0.00 0.00 0.00 0.00 0.00 0.00 0.00 0.00 0.00
0_48	-254798.25   	102110.4   	15.0	2048	4096	silicon	CCD	frame	20	100.00	Group0	0.000000 0.00000 0.00000 0.00000 0.00000 0.00000 zern 0.00 0.00 0.00 0.00 0.00 0.00 0.00 0.00 0.00 0.00 0.00 0.00 0.00 0.00 0.00 0.00 0.00 0.00 0.00 0.00 0.00 0.00
