# focal plane geometry layout data
# 
# rows are the chips in the focal plane
# columns are the name, x position (microns), y position (microns),
# pixel size (microns), number of x pixels, number of y pixels,
# device material (silicon or MCT) 
# type of device (note CMOS also means Fast Frame silicon CCD, and # readout integration mode (frame or sequence)
# readout time (silicon CCD) or frame rate (CMOS)
# group of sensors, 3 euler rotations (degrees), 3 translations (mm)
# deformation type, deformation coefficients, QE variation (obsolete)
#
R00_S12    -254000.0 -211750.0 10.0  4000  4072 silicon CMOS  frame   0.1 100.0 Group2    -0.013636   0.000000   0.000000   0.020354  -0.030212   0.000000 zern      0.00  -2.08 -0.55  1.75 -0.08  0.17  0.50 -0.57 -0.20  0.51  0.34 -0.47  0.01 -0.18  0.20 -0.34  0.07 -0.30  0.17 -0.05  0.05 -0.44  0.00
R00_S21    -211750.0 -254000.0 10.0  4000  4072 silicon CMOS  frame   0.1 100.0 Group2    -0.006303   0.000000   0.000000   0.047730  -0.013690   0.000000 zern      0.00   0.81 -0.59  1.33 -0.09  0.91  0.47 -0.00  0.01  0.23  0.05 -0.02 -0.10  0.35  0.74 -0.38 -0.07 -0.07  0.05 -0.00 -0.14 -0.11  0.00
R00_S22_C0 -211750.0 -211750.0 10.0  2000  4072 silicon CCD frame    3.0 100.0 Group1    -0.002807   0.000000   0.000000  -9.974916  -0.024185   0.000000 zern  -1000.00  -2.41 -1.10 -1.17  0.21 -0.38  0.46  0.20 -0.00 -0.12 -0.19  0.17 -0.01  0.08  0.36 -0.09  0.03  0.04 -0.01  0.11 -0.17  0.32  0.00
R00_S22_C1 -211750.0 -211750.0 10.0  2000  4072 silicon CCD frame    3.0 100.0 Group1    -0.004927   0.000000   0.000000  10.070605  -0.016132   0.000000 zern   1000.00  -3.75 -0.95 -0.99  0.38  0.78  0.01  0.23 -0.00 -0.24 -0.08 -0.04 -0.00 -0.01 -0.14 -0.23  0.00 -0.02 -0.05 -0.02 -0.16 -0.20  0.00
R01_S00    -296250.0 -169250.0 10.0  4000  4072 silicon CCD frame    3.0 100.0 Group0     0.023663   0.000000   0.000000   0.038514  -0.045669   0.000000 zern      0.00   5.59  1.36 -1.44  0.02 -0.93 -1.08  0.79 -0.14  0.39  0.00 -0.01 -0.36 -0.33 -0.34 -0.17 -0.00  0.14 -0.02  0.02 -0.01  0.22  0.00
R01_S01    -296250.0 -127000.0 10.0  4000  4072 silicon CCD frame    3.0 100.0 Group0     0.006245   0.000000   0.000000   0.049375   0.026757   0.000000 zern      0.00   4.38  1.36 -1.73  0.06 -0.36 -0.44  0.58 -1.00 -0.70 -0.74  0.08  0.02 -0.23 -0.28 -0.15 -0.14  0.31 -0.06 -0.09 -0.17  0.43  0.00
R01_S02    -296250.0  -84750.0 10.0  4000  4072 silicon CCD frame    3.0 100.0 Group0     0.020798   0.000000   0.000000   0.005496  -0.043235   0.000000 zern      0.00  -0.40  1.41 -4.88  0.31  0.52  0.92  1.35 -0.14  1.21 -0.27  0.12  0.37  0.48  0.86  0.37 -0.25  0.13 -0.04  0.40 -0.40  0.33  0.00
R01_S10    -254000.0 -169250.0 10.0  4000  4072 silicon CCD frame    3.0 100.0 Group0     0.003037   0.000000   0.000000   0.018783   0.014512   0.000000 zern      0.00   8.52 -1.66  1.53 -0.01  0.33  0.64 -0.72  1.00 -0.16  0.20 -0.17  0.05 -0.23 -0.09 -0.13  0.35 -0.15  0.06  0.06  0.45 -0.22  0.00
R01_S11    -254000.0 -127000.0 10.0  4000  4072 silicon CCD frame    3.0 100.0 Group0     0.002406   0.000000   0.000000   0.053481   0.048935   0.000000 zern      0.00   3.00  2.76  1.09 -0.02 -1.22  0.01 -0.18 -0.98 -0.18 -0.04 -0.15 -0.11 -0.42  0.01 -0.46 -0.09 -0.00  0.03 -0.10 -0.12 -0.03  0.00
R01_S12    -254000.0  -84750.0 10.0  4000  4072 silicon CCD frame    3.0 100.0 Group0     0.016215   0.000000   0.000000  -0.003846   0.047081   0.000000 zern      0.00  -2.25 -1.53 -2.57  0.61 -0.22 -0.76  0.98  0.60 -0.17  0.27  0.36 -0.28 -0.30 -0.73 -0.48  0.20  0.24  0.04 -0.03  0.26  0.34  0.00
R01_S20    -211750.0 -169250.0 10.0  4000  4072 silicon CCD frame    3.0 100.0 Group0     0.016387   0.000000   0.000000   0.056488   0.008805   0.000000 zern      0.00   8.64 -0.30 -4.15  0.24  0.02  0.48  1.00  0.04  0.84 -0.15  0.06  0.14  0.13  0.17  0.05  0.09  0.32 -0.19  0.22  0.15  0.52  0.00
R01_S21    -211750.0 -127000.0 10.0  4000  4072 silicon CCD frame    3.0 100.0 Group0    -0.004927   0.000000   0.000000   0.064484   0.051795   0.000000 zern      0.00   3.72  3.25 -2.49 -0.02 -0.34  0.44  1.00 -0.95 -0.45 -0.21 -0.18  0.22 -0.23  0.05  0.25 -0.15  0.12 -0.06  0.05 -0.20  0.19  0.00
R01_S22    -211750.0  -84750.0 10.0  4000  4072 silicon CCD frame    3.0 100.0 Group0     0.010772   0.000000   0.000000   0.064988   0.008416   0.000000 zern      0.00  -1.89 -1.26  1.66 -0.23 -0.22  0.87 -0.28  0.21 -0.12  0.03 -0.07  0.28 -0.10  0.69 -0.36  0.04 -0.20 -0.03  0.09  0.05 -0.29  0.00
R02_S00    -296250.0  -42250.0 10.0  4000  4072 silicon CCD frame    3.0 100.0 Group0    -0.020168   0.000000   0.000000   0.027374   0.053249   0.000000 zern      0.00  -6.47 -3.93  2.76  0.08  0.87  0.09 -1.01  0.79 -0.53 -0.19 -0.04  0.41  0.39 -1.18  0.13  0.25 -0.11  0.07 -0.06  0.37 -0.17  0.00
R02_S01    -296250.0       0.0 10.0  4000  4072 silicon CCD frame    3.0 100.0 Group0    -0.007219   0.000000   0.000000   0.012726   0.050721   0.000000 zern      0.00   0.57 -1.04 -1.42  0.22 -0.37 -0.59  0.82 -0.00 -0.33 -0.64  0.46 -0.32 -0.04  0.69  0.07 -0.12  0.17 -0.20  0.03 -0.09  0.22  0.00
R02_S02    -296250.0   42250.0 10.0  4000  4072 silicon CCD frame    3.0 100.0 Group0    -0.018106   0.000000   0.000000   0.009004   0.022885   0.000000 zern      0.00   7.41  1.74  1.62 -0.45 -1.09  0.42 -0.99 -0.54  1.46 -0.83 -0.10  0.14 -0.14 -0.34 -0.28 -0.29 -0.40 -0.10  0.22 -0.37 -0.46  0.00
R02_S10    -254000.0  -42250.0 10.0  4000  4072 silicon CCD frame    3.0 100.0 Group0     0.005500   0.000000   0.000000  -0.014785   0.027496   0.000000 zern      0.00  -6.82 -2.42  0.68  0.31 -0.52  0.25 -0.02  1.00 -0.12 -0.02 -0.04  0.39 -0.26 -1.00  0.17  0.16  0.21 -0.05  0.01  0.25  0.32  0.00
R02_S11    -254000.0       0.0 10.0  4000  4072 silicon CCD frame    3.0 100.0 Group0     0.006818   0.000000   0.000000  -0.032806  -0.041709   0.000000 zern      0.00   3.35 -0.90 -0.62  0.22 -0.47  0.55  0.09  0.03 -0.44 -0.46 -0.15  0.01 -0.18  0.77 -0.21  0.05 -0.02 -0.01  0.08  0.05 -0.04  0.00
R02_S12    -254000.0   42250.0 10.0  4000  4072 silicon CCD frame    3.0 100.0 Group0     0.000917   0.000000   0.000000  -0.033768  -0.033082   0.000000 zern      0.00   3.85 -1.09 -0.50  0.18  0.23 -0.52  0.35 -0.00 -0.77  0.53 -0.30  0.04 -0.05  0.34 -0.05  0.12 -0.12 -0.01  0.01  0.18 -0.19  0.00
R02_S20    -211750.0  -42250.0 10.0  4000  4072 silicon CCD frame    3.0 100.0 Group0    -0.023319   0.000000   0.000000   0.021257  -0.053952   0.000000 zern      0.00  -1.36  1.35  2.73 -0.30 -0.91  0.46 -0.95 -0.38  0.25  0.35 -0.29  0.22 -0.28 -0.17  0.11 -0.20 -0.44  0.01  0.05 -0.28 -0.62  0.00
R02_S21    -211750.0       0.0 10.0  4000  4072 silicon CCD frame    3.0 100.0 Group0    -0.010600   0.000000   0.000000   0.024689  -0.017405   0.000000 zern      0.00   0.56 -0.65 -0.51  0.16 -0.51 -0.59  0.09  0.00 -0.68 -1.08  0.07  0.11 -0.32  0.09 -0.12 -0.18 -0.07 -0.14  0.01 -0.20 -0.12  0.00
R02_S22    -211750.0   42250.0 10.0  4000  4072 silicon CCD frame    3.0 100.0 Group0    -0.010714   0.000000   0.000000   0.014527  -0.013599   0.000000 zern      0.00   8.55  0.59  4.95 -0.60 -0.43 -0.53 -0.94 -0.00 -0.86 -0.37 -0.53  0.01 -0.27  0.47  0.16  0.06 -0.17 -0.03 -0.26  0.11 -0.37  0.00
R03_S00    -296250.0   84750.0 10.0  4000  4072 silicon CCD frame    3.0 100.0 Group0     0.020340   0.000000   0.000000   0.052950  -0.007547   0.000000 zern      0.00   6.85 -1.08 -0.99  0.17 -0.28  0.71  0.43  0.37  0.01 -0.42  0.10  0.19  0.06  0.47  0.04  0.04  0.01 -0.00 -0.04  0.06 -0.04  0.00
R03_S01    -296250.0  127000.0 10.0  4000  4072 silicon CCD frame    3.0 100.0 Group0     0.027846   0.000000   0.000000   0.046053  -0.024155   0.000000 zern      0.00  -1.12  0.67  1.29 -0.24  0.76 -0.62  0.07 -0.03 -0.69  0.28  0.21  0.24  0.28  0.50  0.25 -0.03 -0.21 -0.00 -0.01 -0.04 -0.34  0.00
R03_S02    -296250.0  169250.0 10.0  4000  4072 silicon CCD frame    3.0 100.0 Group0     0.014897   0.000000   0.000000   0.030064  -0.037094   0.000000 zern      0.00  -0.38  1.88 -2.25 -0.02  0.43 -0.19  0.92 -0.98 -0.30  0.25  0.33 -0.11  0.39  0.06 -0.20 -0.21  0.37 -0.00 -0.01 -0.32  0.52  0.00
R03_S10    -254000.0   84750.0 10.0  4000  4072 silicon CCD frame    3.0 100.0 Group0     0.019480   0.000000   0.000000   0.037934   0.024765   0.000000 zern      0.00  -1.11  1.87 -1.41 -0.01 -0.92 -0.81  0.59 -0.94  0.07  0.14 -0.06 -0.37 -0.08 -0.55  0.07 -0.19  0.13 -0.09  0.00 -0.24  0.19  0.00
R03_S11    -254000.0  127000.0 10.0  4000  4072 silicon CCD frame    3.0 100.0 Group0     0.006188   0.000000   0.000000   0.024537  -0.001434   0.000000 zern      0.00  -0.31  4.00 -0.73 -0.20 -0.46  0.23 -0.01 -0.92  0.46 -0.18  0.30 -0.31 -0.12  0.14  0.72 -0.43 -0.13  0.10  0.09 -0.66 -0.11  0.00
R03_S12    -254000.0  169250.0 10.0  4000  4072 silicon CCD frame    3.0 100.0 Group0     0.015012   0.000000   0.000000  -0.012345   0.015366   0.000000 zern      0.00   1.95 -0.32  0.74 -0.15 -0.11  0.24 -0.44 -0.01 -0.50 -0.27  0.16  0.05  0.16 -0.18 -0.46 -0.08  0.08  0.04 -0.04 -0.14  0.10  0.00
R03_S20    -211750.0   84750.0 10.0  4000  4072 silicon CCD frame    3.0 100.0 Group0     0.023549   0.000000   0.000000   0.051514   0.001273   0.000000 zern      0.00  -6.95  0.27  0.79  0.04  0.33 -0.11 -0.20  0.01 -0.36 -0.06 -0.25  0.05 -0.23 -0.83 -0.10  0.13  0.11 -0.00 -0.14  0.19  0.11  0.00
R03_S21    -211750.0  127000.0 10.0  4000  4072 silicon CCD frame    3.0 100.0 Group0     0.003552   0.000000   0.000000   0.034793   0.005347   0.000000 zern      0.00  -4.04  0.97 -1.84  0.14  0.04 -0.28  0.78 -0.61 -0.43 -0.07  0.14 -0.37 -0.38 -0.91  0.50 -0.01  0.37 -0.03 -0.22  0.02  0.46  0.00
R03_S22    -211750.0  169250.0 10.0  4000  4072 silicon CCD frame    3.0 100.0 Group0     0.029507   0.000000   0.000000   0.015594   0.013459   0.000000 zern      0.00  -4.37 -1.26  0.46  0.01 -0.53  0.08 -0.02  0.80  0.99  0.43  0.51  0.16 -0.02 -0.17 -0.55  0.09  0.01  0.03  0.11  0.12  0.08  0.00
R04_S10    -254000.0  211750.0 10.0  4000  4072 silicon CMOS  frame   0.1 100.0 Group2   -90.000290   0.000000   0.000000  -0.011214  -0.042454   0.000000 zern      0.00   0.75 -1.31  5.80 -0.58 -0.56  0.38 -1.37  0.20 -1.24 -0.27 -0.09  0.12  0.03  0.23 -0.41  0.15 -0.29 -0.08 -0.25  0.26 -0.57  0.00
R04_S20_C0 -211750.0  211750.0 10.0  2000  4072 silicon CCD frame    3.0 100.0 Group1   -89.994904   0.000000   0.000000  -0.046161   9.945830   0.000000 zern  -1000.00  -2.55 -1.02  0.90  0.02 -0.16  0.03 -0.22  0.20 -0.13  0.35 -0.07 -0.07  0.01 -0.01 -0.31  0.01 -0.06  0.05 -0.00  0.11 -0.02  0.00
R04_S20_C1 -211750.0  211750.0 10.0  2000  4072 silicon CCD frame    3.0 100.0 Group1   -89.981606   0.000000   0.000000  -0.050884 -10.044240   0.000000 zern   1000.00  -3.17 -0.17  1.06 -0.02 -0.47 -0.24  0.01  0.20 -0.22 -0.07  0.04  0.13  0.00 -0.27  0.19 -0.02 -0.03 -0.02 -0.01 -0.01 -0.02  0.00
R04_S21    -211750.0  254000.0 10.0  4000  4072 silicon CMOS  frame   0.1 100.0 Group2   -90.016212   0.000000   0.000000  -0.031814   0.031128   0.000000 zern      0.00   3.40 -1.28  5.25 -0.43 -0.92 -0.61 -0.63  0.40 -0.26  0.53  0.03  0.10 -0.53  0.83 -0.32  0.13 -0.28 -0.04 -0.12  0.21 -0.49  0.00
R10_S00    -169250.0 -296250.0 10.0  4000  4072 silicon CCD frame    3.0 100.0 Group0    -0.002922   0.000000   0.000000   0.025069   0.021516   0.000000 zern      0.00  -2.26  3.04 -0.72 -0.15 -1.41 -0.03 -0.02 -0.98 -0.29 -0.29 -0.09 -0.23 -0.46 -0.71  0.05 -0.23  0.08  0.01 -0.13 -0.30  0.11  0.00
R10_S01    -169250.0 -254000.0 10.0  4000  4072 silicon CCD frame    3.0 100.0 Group0    -0.001833   0.000000   0.000000   0.007065   0.029152   0.000000 zern      0.00  -5.87 -1.12 -1.18  0.30 -1.07  0.22  0.19  0.58 -0.12 -0.31 -0.02  0.23 -0.31 -0.55 -0.16  0.08  0.05 -0.04  0.01  0.16  0.10  0.00
R10_S02    -169250.0 -211750.0 10.0  4000  4072 silicon CCD frame    3.0 100.0 Group0     0.005787   0.000000   0.000000  -0.011184   0.024185   0.000000 zern      0.00  -2.64 -1.34 -0.48  0.01  0.69  0.70 -0.00  0.60  0.54  0.17  0.39  0.13 -0.00  0.28 -0.12  0.12 -0.14  0.07  0.19  0.12 -0.12  0.00
R10_S10    -127000.0 -296250.0 10.0  4000  4072 silicon CCD frame    3.0 100.0 Group0     0.000287   0.000000   0.000000  -0.008539   0.045777   0.000000 zern      0.00   2.24 -1.38 -2.49  0.48  1.24  0.68  0.95  0.97 -0.09  0.13 -0.03 -0.03  0.40 -0.64 -0.08  0.21  0.19  0.14 -0.10  0.24  0.24  0.00
R10_S11    -127000.0 -254000.0 10.0  4000  4072 silicon CCD frame    3.0 100.0 Group0    -0.009282   0.000000   0.000000  -0.002539   0.026126   0.000000 zern      0.00  -4.03  0.88 -2.84  0.35  1.76  0.12  0.87 -0.07 -0.46  0.20 -0.22  0.16  0.58 -0.22  0.58  0.09  0.37  0.16 -0.23  0.06  0.46  0.00
R10_S12    -127000.0 -211750.0 10.0  4000  4072 silicon CCD frame    3.0 100.0 Group0    -0.011746   0.000000   0.000000  -0.048950   0.034881   0.000000 zern      0.00  -2.96  1.11  3.40 -0.60 -0.60 -0.41 -1.00 -0.84 -0.46  0.44 -0.02  0.07 -0.09 -0.17  0.42 -0.06 -0.08  0.11 -0.15 -0.09 -0.17  0.00
R10_S20     -84750.0 -296250.0 10.0  4000  4072 silicon CCD frame    3.0 100.0 Group0    -0.012605   0.000000   0.000000  -0.037903   0.010193   0.000000 zern      0.00   2.95  4.82 -1.51 -0.07 -0.87  0.73  0.80 -0.79 -0.13  0.97 -0.19  0.07 -0.44  0.74  0.38 -0.23  0.27  0.14 -0.05 -0.44  0.37  0.00
R10_S21     -84750.0 -254000.0 10.0  4000  4072 silicon CCD frame    3.0 100.0 Group0    -0.024236   0.000000   0.000000   0.014114  -0.043457   0.000000 zern      0.00   2.04 -0.91  1.12  0.02  0.23  0.17 -0.60 -0.00 -0.49 -0.58  0.11  0.24 -0.09 -0.71 -0.27 -0.13  0.04 -0.05 -0.02 -0.16  0.05  0.00
R10_S22     -84750.0 -211750.0 10.0  4000  4072 silicon CCD frame    3.0 100.0 Group0     0.005042   0.000000   0.000000  -0.016769  -0.017838   0.000000 zern      0.00  -2.37  1.23  4.10 -0.57 -1.21 -0.11 -0.89 -0.60 -0.42 -1.54 -0.10 -0.22 -0.64  0.36  0.36 -0.15 -0.27 -0.21  0.02 -0.12 -0.40  0.00
R11_S00    -169250.0 -169250.0 10.0  4000  4072 silicon CCD frame    3.0 100.0 Group0     0.003552   0.000000   0.000000   0.054714  -0.025132   0.000000 zern      0.00  -1.69  3.07 -1.03 -0.02 -0.73 -0.15  0.18 -0.94 -0.34  0.39 -0.33  0.08 -0.22  0.41  0.23 -0.30  0.14  0.01  0.03 -0.44  0.24  0.00
R11_S01    -169250.0 -127000.0 10.0  4000  4072 silicon CCD frame    3.0 100.0 Group0    -0.007563   0.000000   0.000000   0.023516  -0.029908   0.000000 zern      0.00  -6.14 -0.31 -5.02  0.40  0.82  0.58  1.32  0.00  0.92  0.92 -0.21 -0.20 -0.02  0.33  0.26  0.13  0.23  0.24  0.26  0.05  0.46  0.00
R11_S02    -169250.0  -84750.0 10.0  4000  4072 silicon CCD frame    3.0 100.0 Group0    -0.005615   0.000000   0.000000  -0.004913   0.045716   0.000000 zern      0.00  -8.75  1.49 -5.42  0.41 -0.37  0.41  0.96 -0.54  1.65 -0.70  0.39  0.02 -0.05 -0.99  0.13 -0.24  0.35 -0.12  0.58 -0.33  0.77  0.00
R11_S10    -127000.0 -169250.0 10.0  4000  4072 silicon CCD frame    3.0 100.0 Group0     0.003724   0.000000   0.000000   0.056802   0.008454   0.000000 zern      0.00  -1.49  1.50 -2.33 -0.01  0.51 -0.27  0.96 -0.20 -0.04 -0.05  0.19  0.21  0.33  0.37  0.68 -0.23  0.26 -0.19 -0.01 -0.26  0.36  0.00
R11_S11    -127000.0 -127000.0 10.0  4000  4072 silicon CCD frame    3.0 100.0 Group0     0.004240   0.000000   0.000000   0.011947   0.035286   0.000000 zern      0.00  -6.77  0.87 -1.31  0.12 -0.83  0.08  0.40  0.17  0.03 -0.35 -0.40 -0.35 -0.30  0.52  0.50 -0.18  0.23 -0.10  0.01 -0.27  0.32  0.00
R11_S12    -127000.0  -84750.0 10.0  4000  4072 silicon CCD frame    3.0 100.0 Group0    -0.019481   0.000000   0.000000   0.012635  -0.055045   0.000000 zern      0.00  -6.24  0.24  1.04 -0.19 -0.26 -0.33  0.04 -0.01 -0.58  0.39  0.32  0.19 -0.12  0.01 -0.45  0.14  0.03 -0.01 -0.03  0.22  0.01  0.00
R11_S20     -84750.0 -169250.0 10.0  4000  4072 silicon CCD frame    3.0 100.0 Group0    -0.011459   0.000000   0.000000   0.038658  -0.049087   0.000000 zern      0.00  -3.92  0.53  0.72 -0.19 -0.71 -0.02 -0.21  0.04 -0.22 -0.68  0.40  0.16 -0.30 -0.67  0.15 -0.04  0.05 -0.05  0.03 -0.04  0.09  0.00
R11_S21     -84750.0 -127000.0 10.0  4000  4072 silicon CCD frame    3.0 100.0 Group0     0.000630   0.000000   0.000000   0.031250   0.003021   0.000000 zern      0.00  -7.51 -1.64 -1.37  0.27 -0.00  0.53  0.40  0.18  0.35 -0.67  0.07  0.06 -0.22 -0.66 -0.01  0.21  0.19  0.01 -0.05  0.31  0.25  0.00
R11_S22     -84750.0  -84750.0 10.0  4000  4072 silicon CCD frame    3.0 100.0 Group0     0.004183   0.000000   0.000000   0.009277  -0.010826   0.000000 zern      0.00  -1.45  1.58  1.08 -0.24 -0.39  0.25 -0.20 -0.36 -0.47  0.11 -0.51 -0.02 -0.04  0.52  0.24 -0.05  0.02 -0.03  0.03 -0.07  0.03  0.00
R12_S00    -169250.0  -42250.0 10.0  4000  4072 silicon CCD frame    3.0 100.0 Group0     0.008709   0.000000   0.000000   0.036039   0.006401   0.000000 zern      0.00   8.13 -1.55  1.61 -0.08  0.02  0.28 -0.59  1.02  0.83 -0.07  0.00  0.11  0.02  0.82 -0.38  0.11 -0.29  0.06  0.09  0.11 -0.38  0.00
R12_S01    -169250.0       0.0 10.0  4000  4072 silicon CCD frame    3.0 100.0 Group0    -0.015928   0.000000   0.000000   0.088242  -0.019448   0.000000 zern      0.00   3.24 -1.20 -1.34  0.27 -0.62  0.80  0.11  0.60  0.96  0.08  0.13  0.04  0.09 -0.23 -0.15  0.02  0.02  0.10  0.03 -0.00  0.08  0.00
R12_S02    -169250.0   42250.0 10.0  4000  4072 silicon CCD frame    3.0 100.0 Group0     0.002750   0.000000   0.000000   0.012298  -0.005935   0.000000 zern      0.00   7.05  0.60 -4.30  0.75 -0.88  0.08  0.96  0.11  0.77 -0.84 -0.20  0.03 -0.26  0.41  0.45 -0.05  0.14 -0.14  0.30 -0.05  0.33  0.00
R12_S10    -127000.0  -42250.0 10.0  4000  4072 silicon CCD frame    3.0 100.0 Group0     0.010542   0.000000   0.000000   0.006997   0.016445   0.000000 zern      0.00   6.89 -2.26 -0.57  0.12  0.21  0.49  0.03  1.00  0.52  0.80  0.09  0.43  0.34  1.42 -0.66  0.37 -0.18  0.03  0.15  0.50 -0.23  0.00
R12_S11    -127000.0       0.0 10.0  4000  4072 silicon CCD frame    3.0 100.0 Group0    -0.000000   0.000000   0.000000   0.034000   0.022974   0.000000 zern      0.00   8.37 -0.61 -1.74  0.35  0.86  0.29  0.79 -0.03 -0.57 -0.41  0.12 -0.18  0.17 -0.72 -0.29  0.13  0.18  0.02 -0.06  0.19  0.24  0.00
R12_S12    -127000.0   42250.0 10.0  4000  4072 silicon CCD frame    3.0 100.0 Group0     0.007162   0.000000   0.000000  -0.005010   0.047893   0.000000 zern      0.00   5.94 -1.53  1.20  0.03  0.78  0.00  0.01  0.32  0.47  0.11  0.03  0.12  0.14 -0.24 -0.47  0.06 -0.13  0.03  0.01  0.10 -0.18  0.00
R12_S20     -84750.0  -42250.0 10.0  4000  4072 silicon CCD frame    3.0 100.0 Group0     0.015012   0.000000   0.000000   0.020188   0.047063   0.000000 zern      0.00   5.59  0.56  2.34 -0.11 -0.16  0.59 -0.95 -0.26 -0.29  0.28 -0.12  0.27 -0.35 -1.30 -0.52  0.16 -0.19  0.11 -0.07  0.23 -0.27  0.00
R12_S21     -84750.0       0.0 10.0  4000  4072 silicon CCD frame    3.0 100.0 Group0    -0.009969   0.000000   0.000000   0.031608   0.036997   0.000000 zern      0.00   6.78  1.71 -1.90  0.02  0.84 -0.49  0.92 -1.00 -0.86 -0.17 -0.14  0.19  0.12 -0.02  0.28 -0.26  0.37 -0.05 -0.15 -0.34  0.49  0.00
R12_S22     -84750.0   42250.0 10.0  4000  4072 silicon CCD frame    3.0 100.0 Group0     0.011344   0.000000   0.000000   0.001450  -0.032979   0.000000 zern      0.00   4.58  0.86  1.78 -0.17 -0.07  0.28 -0.81 -0.02  0.20  0.61 -0.27  0.17  0.35 -0.47 -0.72  0.17 -0.30  0.08  0.09  0.24 -0.37  0.00
R13_S00    -169250.0   84750.0 10.0  4000  4072 silicon CCD frame    3.0 100.0 Group0    -0.015413   0.000000   0.000000  -0.095595  -0.033256   0.000000 zern      0.00   0.71 -1.14  1.76 -0.05  0.27  0.61 -0.40  0.60 -0.37 -0.18 -0.31 -0.05  0.17  0.53 -0.03  0.08 -0.21  0.05  0.07  0.08 -0.28  0.00
R13_S01    -169250.0  127000.0 10.0  4000  4072 silicon CCD frame    3.0 100.0 Group0    -0.006360   0.000000   0.000000  -0.043396  -0.041985   0.000000 zern      0.00  -0.12  0.37 -0.38 -0.01  0.22 -0.84  0.02  0.20  0.92 -1.16  0.57  0.11 -0.03 -0.41 -0.64 -0.02 -0.15 -0.18  0.17  0.04 -0.16  0.00
R13_S02    -169250.0  169250.0 10.0  4000  4072 silicon CCD frame    3.0 100.0 Group0    -0.020225   0.000000   0.000000  -0.012939  -0.017319   0.000000 zern      0.00  -4.84  2.65 -4.04  0.07  0.29 -0.07  0.93 -1.01  0.41 -0.39  0.03 -0.13  0.03 -0.90  0.44 -0.14  0.33  0.00 -0.10 -0.19  0.46  0.00
R13_S10    -127000.0   84750.0 10.0  4000  4072 silicon CCD frame    3.0 100.0 Group0    -0.018564   0.000000   0.000000  -0.100465   0.044974   0.000000 zern      0.00   3.71  0.99  0.39  0.00  0.15 -0.87  0.07 -0.20 -0.28  0.25 -0.53 -0.17 -0.23 -0.27 -0.19  0.12 -0.14 -0.03 -0.06  0.19 -0.23  0.00
R13_S11    -127000.0  127000.0 10.0  4000  4072 silicon CCD frame    3.0 100.0 Group0    -0.008480   0.000000   0.000000  -0.051354   0.002875   0.000000 zern      0.00  -2.23  0.83 -1.50  0.24  0.23 -0.45  0.99  0.11  0.52  0.22 -0.31 -0.52 -0.14 -0.19  0.12 -0.07  0.10 -0.06  0.04 -0.08  0.18  0.00
R13_S12    -127000.0  169250.0 10.0  4000  4072 silicon CCD frame    3.0 100.0 Group0    -0.004354   0.000000   0.000000  -0.084229  -0.014313   0.000000 zern      0.00  -5.42  4.44  1.09 -0.56 -0.70  0.80  0.01 -0.89  0.11  0.06 -0.11  0.40 -0.47  1.16  0.44 -0.42  0.07 -0.07  0.05 -0.61  0.10  0.00
R13_S20     -84750.0   84750.0 10.0  4000  4072 silicon CCD frame    3.0 100.0 Group0    -0.005329   0.000000   0.000000  -0.043419   0.010047   0.000000 zern      0.00  -1.88 -1.48  3.19 -0.24  0.05 -0.39 -1.00 -0.08 -0.82  0.59 -0.13 -0.13 -0.03 -0.89 -0.47  0.19 -0.29  0.21 -0.10  0.23 -0.43  0.00
R13_S21     -84750.0  127000.0 10.0  4000  4072 silicon CCD frame    3.0 100.0 Group0    -0.000287   0.000000   0.000000  -0.005654   0.037964   0.000000 zern      0.00   2.21  0.12  0.96 -0.22 -0.15  0.82 -0.60  0.01  0.57  0.38  0.32  0.08  0.19 -0.16  0.37 -0.18 -0.12  0.00  0.03 -0.26 -0.16  0.00
R13_S22     -84750.0  169250.0 10.0  4000  4072 silicon CCD frame    3.0 100.0 Group0     0.002521   0.000000   0.000000  -0.064384  -0.019775   0.000000 zern      0.00  -1.94  1.75  2.71 -0.36  0.28  0.50 -0.99 -0.99  0.09  0.02  0.36 -0.20 -0.09  0.15  0.31 -0.33 -0.40 -0.07  0.14 -0.44 -0.51  0.00
R14_S00    -169250.0  211750.0 10.0  4000  4072 silicon CCD frame    3.0 100.0 Group0     0.009969   0.000000   0.000000   0.038574   0.002762   0.000000 zern      0.00  11.21 -0.79  1.74 -0.07 -0.30  0.74 -0.55  0.40  0.62  0.40 -0.23  0.26 -0.02 -0.02 -0.12 -0.08 -0.16 -0.07  0.05 -0.09 -0.22  0.00
R14_S01    -169250.0  254000.0 10.0  4000  4072 silicon CCD frame    3.0 100.0 Group0     0.022632   0.000000   0.000000   0.026277   0.003076   0.000000 zern      0.00   3.81 -0.88 -0.74  0.20 -0.12  0.58  0.00 -0.03  0.03  0.32 -0.31  0.12  0.24 -0.26  0.06 -0.08 -0.19 -0.01 -0.02 -0.08 -0.27  0.00
R14_S02    -169250.0  296250.0 10.0  4000  4072 silicon CCD frame    3.0 100.0 Group0     0.006016   0.000000   0.000000  -0.012192   0.030150   0.000000 zern      0.00   7.54 -1.22  1.53  0.02  0.76  0.41 -0.60  0.50  0.27 -0.02 -0.27  0.50  0.38 -0.44 -0.33  0.06 -0.21  0.18  0.01  0.04 -0.28  0.00
R14_S10    -127000.0  211750.0 10.0  4000  4072 silicon CCD frame    3.0 100.0 Group0     0.022861   0.000000   0.000000  -0.057588  -0.027329   0.000000 zern      0.00  12.19 -0.06 -3.23  0.19  0.82  0.31  0.94  0.01 -0.30  0.32  0.11 -0.06  0.49  0.27 -0.13 -0.05  0.34 -0.05 -0.06 -0.08  0.46  0.00
R14_S11    -127000.0  254000.0 10.0  4000  4072 silicon CCD frame    3.0 100.0 Group0    -0.000115   0.000000   0.000000  -0.015440   0.041213   0.000000 zern      0.00   4.37 -1.10 -1.52  0.18 -0.05  0.07  0.34  0.60  0.55 -0.05  0.55 -0.17  0.32 -0.16  0.01  0.03 -0.01  0.01  0.14  0.03  0.07  0.00
R14_S12    -127000.0  296250.0 10.0  4000  4072 silicon CCD frame    3.0 100.0 Group0     0.006016   0.000000   0.000000  -0.015488   0.031922   0.000000 zern      0.00   8.13  0.82  1.12 -0.15  0.27 -0.10 -0.25 -0.06  0.52 -0.13 -0.00 -0.05  0.45 -0.21 -0.57  0.09 -0.16  0.12 -0.00  0.12 -0.19  0.00
R14_S20     -84750.0  211750.0 10.0  4000  4072 silicon CCD frame    3.0 100.0 Group0     0.024236   0.000000   0.000000  -0.050004   0.007812   0.000000 zern      0.00   8.43  1.66  0.89 -0.35 -0.12 -1.20 -0.00 -0.99 -0.81  0.23 -0.35 -0.47  0.17  0.09  0.03 -0.24 -0.05  0.00 -0.13 -0.33 -0.12  0.00
R14_S21     -84750.0  254000.0 10.0  4000  4072 silicon CCD frame    3.0 100.0 Group0     0.020856   0.000000   0.000000  -0.027794   0.008892   0.000000 zern      0.00   6.88  0.37 -1.32  0.24  0.24  0.19  0.60 -0.03 -0.56 -0.30  0.22 -0.13  0.06 -0.72 -0.47 -0.02  0.01 -0.01 -0.03  0.01  0.02  0.00
R14_S22     -84750.0  296250.0 10.0  4000  4072 silicon CCD frame    3.0 100.0 Group0     0.000516   0.000000   0.000000  -0.022445  -0.030730   0.000000 zern      0.00   0.96 -2.86 -1.35  0.50  0.10  0.05  0.99  0.95  0.17  0.15  0.14  0.09 -0.19 -0.56  0.09  0.41  0.16  0.09 -0.05  0.56  0.22  0.00
R20_S00     -42250.0 -296250.0 10.0  4000  4072 silicon CCD frame    3.0 100.0 Group0     0.010256   0.000000   0.000000   0.069809   0.014221   0.000000 zern      0.00  -3.55 -1.08  4.76 -0.75 -0.50 -0.51 -0.88 -0.00 -0.63 -0.07 -0.11 -0.24 -0.35  0.80  0.16  0.16 -0.23  0.01 -0.16  0.23 -0.43  0.00
R20_S01     -42250.0 -254000.0 10.0  4000  4072 silicon CCD frame    3.0 100.0 Group0     0.021085   0.000000   0.000000   0.031913  -0.000732   0.000000 zern      0.00  -4.12 -0.43 -2.08  0.26  1.49 -0.25  0.77 -0.06 -0.24 -0.34  0.46  0.16  0.38 -0.04 -0.40  0.06  0.34  0.09 -0.14  0.07  0.43  0.00
R20_S02     -42250.0 -211750.0 10.0  4000  4072 silicon CCD frame    3.0 100.0 Group0     0.006073   0.000000   0.000000  -0.009189   0.002318   0.000000 zern      0.00  -5.98 -2.56 -1.25  0.25  0.61  0.34  0.19  0.98  0.23  0.19  0.38 -0.02  0.10 -0.52 -0.18  0.18 -0.05 -0.07  0.16  0.29  0.00  0.00
R20_S10          0.0 -296250.0 10.0  4000  4072 silicon CCD frame    3.0 100.0 Group0     0.005844   0.000000   0.000000   0.063765   0.032836   0.000000 zern      0.00  -2.35 -1.90 -1.51  0.37 -0.61  0.61  1.04  1.00  0.89 -0.40 -0.14  0.15 -0.18 -0.04  0.01  0.22  0.10 -0.18  0.18  0.37  0.17  0.00
R20_S11          0.0 -254000.0 10.0  4000  4072 silicon CCD frame    3.0 100.0 Group0    -0.000115   0.000000   0.000000   0.043454   0.028016   0.000000 zern      0.00  -0.95  1.95  1.11 -0.40 -0.51 -0.43  0.09 -0.98 -0.40 -1.46  0.36 -0.03 -0.57  0.25 -0.41 -0.37 -0.06 -0.26  0.06 -0.41 -0.07  0.00
R20_S12          0.0 -211750.0 10.0  4000  4072 silicon CCD frame    3.0 100.0 Group0     0.011402   0.000000   0.000000   0.048418   0.015746   0.000000 zern      0.00  -6.48  1.93  0.58 -0.17  1.33 -0.07 -0.24 -1.03 -0.82 -0.66  0.28 -0.19  0.36 -0.75  0.34 -0.17  0.10  0.02 -0.11 -0.23  0.11  0.00
R20_S20      42250.0 -296250.0 10.0  4000  4072 silicon CCD frame    3.0 100.0 Group0     0.002808   0.000000   0.000000   0.058373  -0.013549   0.000000 zern      0.00   0.01  1.05 -1.66 -0.01 -0.36  0.50  0.00  0.09 -0.41  0.20  0.34 -0.14 -0.44  0.42 -0.21  0.02  0.17 -0.02  0.02  0.00  0.23  0.00
R20_S21      42250.0 -254000.0 10.0  4000  4072 silicon CCD frame    3.0 100.0 Group0     0.013808   0.000000   0.000000   0.045002  -0.031460   0.000000 zern      0.00  -5.62 -0.27 -5.15  0.20  0.37  0.38  1.30  0.01  1.33  0.14  0.49 -0.07 -0.11  0.09  0.32  0.06  0.21  0.12  0.33 -0.01  0.45  0.00
R20_S22      42250.0 -211750.0 10.0  4000  4072 silicon CCD frame    3.0 100.0 Group0    -0.001089   0.000000   0.000000   0.060108   0.027252   0.000000 zern      0.00  -9.86 -0.69 -0.20  0.08  0.29 -0.18 -0.14  0.00 -0.26  0.43  0.12 -0.20  0.00 -0.76 -0.10 -0.03  0.05  0.05  0.02 -0.06  0.12  0.00
R21_S00     -42250.0 -169250.0 10.0  4000  4072 silicon CCD frame    3.0 100.0 Group0     0.010600   0.000000   0.000000   0.025231   0.018371   0.000000 zern      0.00  -8.22  3.97 -1.69  0.01 -0.19  0.27  0.53 -0.98 -0.83  0.73  0.05  0.12  0.26 -0.44  0.22 -0.12  0.26  0.15 -0.15 -0.23  0.34  0.00
R21_S01     -42250.0 -127000.0 10.0  4000  4072 silicon CCD frame    3.0 100.0 Group0     0.003667   0.000000   0.000000  -0.060589   0.001312   0.000000 zern      0.00  -6.68  2.17  2.79 -0.89 -0.41  0.03 -0.92 -1.00 -0.27 -0.55  0.18  0.15 -0.34  0.55  0.14 -0.41 -0.34 -0.13  0.06 -0.51 -0.46  0.00
R21_S02     -42250.0  -84750.0 10.0  4000  4072 silicon CCD frame    3.0 100.0 Group0     0.015756   0.000000   0.000000  -0.023713  -0.006477   0.000000 zern      0.00  -7.27 -1.24  0.83 -0.17  0.58  0.47  0.00  0.20  0.85 -0.26  0.50  0.11 -0.03 -0.78 -0.33  0.01  0.01 -0.02  0.12  0.03  0.06  0.00
R21_S10          0.0 -169250.0 10.0  4000  4072 silicon CCD frame    3.0 100.0 Group0    -0.005558   0.000000   0.000000  -0.029695  -0.024490   0.000000 zern      0.00  -5.23  6.04 -1.23 -0.50 -1.53  0.46  0.17 -0.71  1.13  0.23  0.39  0.27 -0.49 -0.91  0.57 -0.04 -0.02  0.19  0.30 -0.15  0.13  0.00
R21_S11          0.0 -127000.0 10.0  4000  4072 silicon CCD frame    3.0 100.0 Group0    -0.000859   0.000000   0.000000  -0.066851   0.035735   0.000000 zern      0.00  -3.37 -0.97 -1.58  0.19 -0.16 -0.34  0.37  0.40 -0.04  0.14 -0.28 -0.04  0.28  0.89  0.07  0.10  0.26  0.07 -0.10  0.09  0.32  0.00
R21_S12          0.0  -84750.0 10.0  4000  4072 silicon CCD frame    3.0 100.0 Group0    -0.000057   0.000000   0.000000  -0.051981   0.052392   0.000000 zern      0.00 -10.01  1.68  0.73 -0.24 -0.75  0.26 -0.20 -0.52  0.22 -0.28 -0.14 -0.26 -0.40 -0.19 -0.48 -0.14  0.04  0.08 -0.09 -0.23  0.03  0.00
R21_S20      42250.0 -169250.0 10.0  4000  4072 silicon CCD frame    3.0 100.0 Group0     0.002120   0.000000   0.000000  -0.035228  -0.031021   0.000000 zern      0.00   0.23  0.61  0.40 -0.36 -0.05 -0.25  0.00 -0.05  0.25 -0.23  0.21  0.10  0.19 -0.52  0.38 -0.13 -0.19 -0.01  0.00 -0.15 -0.26  0.00
R21_S21      42250.0 -127000.0 10.0  4000  4072 silicon CCD frame    3.0 100.0 Group0    -0.000344   0.000000   0.000000  -0.011997  -0.014137   0.000000 zern      0.00  -2.04 -0.66  1.76 -0.09 -0.75  0.28 -0.75  0.81  1.30  0.28 -0.11  0.06 -0.56  0.62 -0.36 -0.02 -0.19 -0.00  0.21 -0.08 -0.20  0.00
R21_S22      42250.0  -84750.0 10.0  4000  4072 silicon CCD frame    3.0 100.0 Group0     0.019309   0.000000   0.000000  -0.042767   0.040886   0.000000 zern      0.00  -0.46  1.87 -1.49  0.04 -0.02 -0.32  0.99 -0.99  0.52 -0.26 -0.09 -0.42 -0.21 -0.20  0.65 -0.14  0.20 -0.10 -0.03 -0.15  0.30  0.00
R22_S00     -42250.0  -42250.0 10.0  4000  4072 silicon CCD frame    3.0 100.0 Group0    -0.001891   0.000000   0.000000  -0.062328   0.032688   0.000000 zern      0.00  -4.08 -2.89 -1.10  0.45 -0.19  0.07  0.21  0.99  0.01 -0.36 -0.21 -0.12 -0.02 -0.33 -0.15  0.18  0.07  0.01 -0.03  0.26  0.08  0.00
R22_S01     -42250.0       0.0 10.0  4000  4072 silicon CCD frame    3.0 100.0 Group0     0.003552   0.000000   0.000000  -0.035370   0.006168   0.000000 zern      0.00  -1.33  1.54  0.64 -0.13  0.16  0.06 -0.05 -0.60 -0.95 -0.31 -0.16 -0.27  0.23 -0.20 -0.24 -0.24  0.20 -0.04 -0.19 -0.32  0.23  0.00
R22_S02     -42250.0   42250.0 10.0  4000  4072 silicon CCD frame    3.0 100.0 Group0    -0.012032   0.000000   0.000000   0.010300  -0.042164   0.000000 zern      0.00  -0.98  0.82 -1.43  0.07  0.65 -0.53  0.19 -0.84  0.22 -0.08  0.31 -0.08  0.22 -0.35  0.48 -0.04  0.09 -0.02 -0.11 -0.02  0.10  0.00
R22_S10          0.0  -42250.0 10.0  4000  4072 silicon CCD frame    3.0 100.0 Group0    -0.017074   0.000000   0.000000  -0.058174  -0.042794   0.000000 zern      0.00  -1.65 -1.41  2.73  0.03 -0.21 -0.03 -1.00  0.38  0.50  0.01 -0.15 -0.40 -0.26 -0.44 -0.36  0.23 -0.25  0.14 -0.09  0.30 -0.38  0.00
R22_S11          0.0       0.0 10.0  4000  4072 silicon CCD frame    3.0 100.0 Group0     0.005672   0.000000   0.000000  -0.047120   0.028991   0.000000 zern      0.00  -0.86 -1.23 -1.28  0.25 -0.20 -0.52  0.40  0.59  0.12 -0.48  0.37  0.10 -0.09  0.04 -0.35  0.07  0.11 -0.21  0.13  0.20  0.20  0.00
R22_S12          0.0   42250.0 10.0  4000  4072 silicon CCD frame    3.0 100.0 Group0    -0.000000   0.000000   0.000000   0.007855  -0.021583   0.000000 zern      0.00  -0.01  0.80 -0.65  0.12 -0.48 -0.24 -0.01 -0.02 -0.60 -0.43  0.01  0.06 -0.27 -1.50 -0.10  0.10  0.21  0.10 -0.18  0.13  0.25  0.00
R22_S20      42250.0  -42250.0 10.0  4000  4072 silicon CCD frame    3.0 100.0 Group0     0.010084   0.000000   0.000000  -0.015728  -0.030259   0.000000 zern      0.00  -1.64 -1.63 -1.91  0.47  0.04  0.17  0.58  0.99  0.19  0.38  0.46  0.20 -0.13 -0.57 -0.26  0.23  0.26  0.01  0.06  0.32  0.41  0.00
R22_S21      42250.0       0.0 10.0  4000  4072 silicon CCD frame    3.0 100.0 Group0     0.001833   0.000000   0.000000  -0.064106   0.038390   0.000000 zern      0.00  -1.83 -0.31  2.71 -0.22 -0.60 -0.05 -0.97 -0.01  0.79  0.06  0.13 -0.16 -0.28 -0.65  0.20  0.12 -0.33  0.03 -0.01  0.18 -0.47  0.00
R22_S22      42250.0   42250.0 10.0  4000  4072 silicon CCD frame    3.0 100.0 Group0    -0.014439   0.000000   0.000000  -0.007160  -0.015000   0.000000 zern      0.00  -3.05  1.88 -1.94  0.06  0.14 -0.62  0.73 -0.58 -0.54 -0.40 -0.27 -0.65  0.04  0.08 -0.01 -0.30  0.37  0.09 -0.11 -0.46  0.52  0.00
R23_S00     -42250.0   84750.0 10.0  4000  4072 silicon CCD frame    3.0 100.0 Group0     0.018507   0.000000   0.000000  -0.022995  -0.007941   0.000000 zern      0.00  -8.92  3.21  1.07 -0.33  0.14  0.77 -0.02 -1.05  0.23  0.73  0.06  0.32  0.21 -0.79 -0.03 -0.23 -0.06  0.10 -0.04 -0.31 -0.07  0.00
R23_S01     -42250.0  127000.0 10.0  4000  4072 silicon CCD frame    3.0 100.0 Group0     0.010485   0.000000   0.000000  -0.022808  -0.032646   0.000000 zern      0.00 -10.04  2.17 -1.62  0.07 -0.07 -0.14  0.17 -1.00 -0.33 -0.39  0.19 -0.23 -0.28 -1.17 -0.16 -0.11  0.20 -0.04 -0.04 -0.13  0.29  0.00
R23_S02     -42250.0  169250.0 10.0  4000  4072 silicon CCD frame    3.0 100.0 Group0     0.006933   0.000000   0.000000  -0.014248  -0.047547   0.000000 zern      0.00 -13.92  0.69  0.87 -0.21 -0.49  0.24 -0.01  0.16  0.71 -0.61 -0.10 -0.21 -0.43  0.50  0.06 -0.13  0.11 -0.06  0.05 -0.19  0.19  0.00
R23_S10          0.0   84750.0 10.0  4000  4072 silicon CCD frame    3.0 100.0 Group0     0.020111   0.000000   0.000000   0.043318   0.013549   0.000000 zern      0.00   0.14  2.36 -2.72 -0.06 -0.59 -0.11  1.00 -0.91  0.30 -0.28 -0.18 -0.03 -0.17  0.15  0.65 -0.33  0.13  0.01  0.29 -0.53  0.30  0.00
R23_S11          0.0  127000.0 10.0  4000  4072 silicon CCD frame    3.0 100.0 Group0     0.017418   0.000000   0.000000  -0.057453   0.029899   0.000000 zern      0.00  -4.34 -0.58 -0.79  0.19 -0.15 -0.28 -0.02 -0.00  0.80 -0.14  0.05 -0.06  0.17 -0.63 -0.30 -0.16 -0.10 -0.01  0.03 -0.20 -0.10  0.00
R23_S12          0.0  169250.0 10.0  4000  4072 silicon CCD frame    3.0 100.0 Group0     0.020111   0.000000   0.000000  -0.044361  -0.055969   0.000000 zern      0.00  -7.55  1.98  1.94 -0.28 -0.33 -0.58 -0.79 -0.53  1.01  0.21 -0.52 -0.06 -0.28 -0.15  0.19 -0.33 -0.36 -0.09  0.17 -0.45 -0.44  0.00
R23_S20      42250.0   84750.0 10.0  4000  4072 silicon CCD frame    3.0 100.0 Group0     0.009225   0.000000   0.000000  -0.038665   0.013123   0.000000 zern      0.00   4.55 -1.42 -2.94  0.41  0.38  0.34  0.99  0.60  0.46 -0.00 -0.04 -0.29 -0.27  0.47 -0.59  0.27  0.11  0.09  0.02  0.33  0.18  0.00
R23_S21      42250.0  127000.0 10.0  4000  4072 silicon CCD frame    3.0 100.0 Group0     0.017361   0.000000   0.000000   0.009548  -0.022636   0.000000 zern      0.00   5.71  1.18  0.70 -0.05 -0.14  0.10  0.00 -0.42 -0.22 -0.38 -0.23  0.16 -0.13 -0.80  0.31 -0.14 -0.13  0.07 -0.13 -0.19 -0.21  0.00
R23_S22      42250.0  169250.0 10.0  4000  4072 silicon CCD frame    3.0 100.0 Group0    -0.000802   0.000000   0.000000  -0.021980  -0.042847   0.000000 zern      0.00   0.67  4.93 -1.48 -0.19 -0.63 -0.26  0.76 -0.93  0.41  0.87 -0.47 -0.19 -0.31  0.57  0.92 -0.30  0.24  0.16 -0.01 -0.52  0.38  0.00
R24_S00     -42250.0  211750.0 10.0  4000  4072 silicon CCD frame    3.0 100.0 Group0    -0.021830   0.000000   0.000000   0.084194   0.018997   0.000000 zern      0.00   0.57 -1.00 -2.03  0.23  0.89 -1.05  0.70  0.40  0.10 -0.72  0.07 -0.38  0.28  0.29  0.19 -0.02  0.26 -0.03 -0.09 -0.03  0.36  0.00
R24_S01     -42250.0  254000.0 10.0  4000  4072 silicon CCD frame    3.0 100.0 Group0    -0.000115   0.000000   0.000000   0.048996  -0.003068   0.000000 zern      0.00   8.54  0.02 -0.85  0.01 -0.45 -0.29 -0.00 -0.00  0.38 -0.87 -0.01  0.01  0.01 -0.17 -0.33 -0.14 -0.13 -0.03  0.02 -0.16 -0.17  0.00
R24_S02     -42250.0  296250.0 10.0  4000  4072 silicon CCD frame    3.0 100.0 Group0     0.002979   0.000000   0.000000   0.042149   0.041596   0.000000 zern      0.00  -0.34 -2.57  2.35 -0.03 -0.40  0.31 -0.84  1.00 -0.26 -0.45 -0.21  0.31 -0.42 -0.06 -0.51  0.11 -0.13 -0.04  0.05  0.17 -0.20  0.00
R24_S10          0.0  211750.0 10.0  4000  4072 silicon CCD frame    3.0 100.0 Group0     0.001203   0.000000   0.000000   0.067249   0.017793   0.000000 zern      0.00   3.03 -1.25 -0.98 -0.09  0.56  0.02  0.00 -0.06 -0.15 -0.91  0.41  0.07  0.27  0.37  0.37 -0.03  0.05 -0.08 -0.12  0.01  0.02  0.00
R24_S11          0.0  254000.0 10.0  4000  4072 silicon CCD frame    3.0 100.0 Group0    -0.002636   0.000000   0.000000   0.067594  -0.034043   0.000000 zern      0.00   1.69 -1.97 -1.67  0.26  0.35  0.56  0.59  0.95  0.48 -0.27  0.54  0.04  0.17 -0.37 -0.38  0.28  0.15 -0.01 -0.01  0.40  0.20  0.00
R24_S12          0.0  296250.0 10.0  4000  4072 silicon CCD frame    3.0 100.0 Group0     0.005157   0.000000   0.000000   0.070535   0.009920   0.000000 zern      0.00  -3.19  1.77 -1.62  0.02  0.33 -0.87  0.06 -0.59  0.44  0.12 -0.09 -0.19  0.45 -0.01  0.32 -0.33  0.21 -0.03 -0.06 -0.45  0.32  0.00
R24_S20      42250.0  211750.0 10.0  4000  4072 silicon CCD frame    3.0 100.0 Group0    -0.019194   0.000000   0.000000   0.020882  -0.018432   0.000000 zern      0.00   0.24 -1.35  1.96  0.00 -0.51  0.23 -0.96  0.80  0.85 -0.45 -0.30  0.16 -0.35 -0.42  0.14  0.25 -0.28  0.01  0.08  0.34 -0.37  0.00
R24_S21      42250.0  254000.0 10.0  4000  4072 silicon CCD frame    3.0 100.0 Group0     0.007105   0.000000   0.000000  -0.002953   0.006667   0.000000 zern      0.00  -4.01 -3.64 -0.31  0.19  1.29 -0.82 -0.06  0.96 -0.95  0.27  0.14 -0.34  0.39  0.56 -0.43  0.41  0.07  0.06 -0.08  0.54  0.05  0.00
R24_S22      42250.0  296250.0 10.0  4000  4072 silicon CCD frame    3.0 100.0 Group0    -0.014610   0.000000   0.000000   0.073386  -0.056427   0.000000 zern      0.00  -1.64 -0.47  1.64 -0.05 -0.69  0.47 -0.60  0.23  0.21  0.63 -0.13  0.10 -0.05 -0.05 -0.32 -0.12 -0.17  0.16  0.05 -0.25 -0.21  0.00
R30_S00      84750.0 -296250.0 10.0  4000  4072 silicon CCD frame    3.0 100.0 Group0     0.013464   0.000000   0.000000   0.019187   0.018125   0.000000 zern      0.00  12.18  1.16  1.42 -0.25 -0.15  0.15  0.02 -0.63  0.14 -0.38 -0.16  0.04  0.41  0.12  0.03 -0.10 -0.11 -0.03 -0.05 -0.11 -0.19  0.00
R30_S01      84750.0 -254000.0 10.0  4000  4072 silicon CCD frame    3.0 100.0 Group0     0.009053   0.000000   0.000000   0.052627   0.015460   0.000000 zern      0.00   2.60 -1.16  0.93 -0.01 -0.32 -0.63  0.07 -0.00  0.64 -0.53  0.30  0.22 -0.39 -0.30  0.24  0.16 -0.09  0.00  0.02  0.23 -0.15  0.00
R30_S02      84750.0 -211750.0 10.0  4000  4072 silicon CCD frame    3.0 100.0 Group0    -0.004354   0.000000   0.000000   0.000924   0.046387   0.000000 zern      0.00   4.95 -1.48 -1.88  0.25  0.30  0.83  0.51  0.60  0.29  1.18 -0.03 -0.13  0.42  0.77 -0.55  0.28  0.18  0.24 -0.09  0.29  0.23  0.00
R30_S10     127000.0 -296250.0 10.0  4000  4072 silicon CCD frame    3.0 100.0 Group0     0.012490   0.000000   0.000000  -0.016624  -0.041412   0.000000 zern      0.00  12.53  0.30 -0.96 -0.15  0.05 -0.44  0.41  0.02 -0.24 -0.76 -0.06 -0.27  0.24  0.42  0.29 -0.10 -0.08 -0.13  0.03 -0.12 -0.13  0.00
R30_S11     127000.0 -254000.0 10.0  4000  4072 silicon CCD frame    3.0 100.0 Group0    -0.000229   0.000000   0.000000   0.030727   0.010941   0.000000 zern      0.00   0.44 -1.12  1.76 -0.07 -1.00  0.48  0.08  0.41  0.20 -0.19 -0.43  0.01 -0.21  0.61  0.07  0.03 -0.18 -0.05  0.11  0.06 -0.23  0.00
R30_S12     127000.0 -211750.0 10.0  4000  4072 silicon CCD frame    3.0 100.0 Group0     0.007735   0.000000   0.000000   0.005983  -0.009827   0.000000 zern      0.00   9.03  1.14 -2.97  0.20 -0.35 -0.68  0.96 -0.14  0.10  0.16 -0.08 -0.24 -0.06  0.23 -0.14 -0.04  0.42 -0.01 -0.07 -0.07  0.59  0.00
R30_S20     169250.0 -296250.0 10.0  4000  4072 silicon CCD frame    3.0 100.0 Group0    -0.000458   0.000000   0.000000  -0.016890   0.017092   0.000000 zern      0.00   5.64  1.47  1.34 -0.38 -0.60 -0.20 -0.60 -0.53  0.45 -0.32  0.07 -0.11 -0.51 -0.13  0.70 -0.28 -0.08 -0.13  0.14 -0.34 -0.03  0.00
R30_S21     169250.0 -254000.0 10.0  4000  4072 silicon CCD frame    3.0 100.0 Group0     0.017819   0.000000   0.000000   0.042556   0.025788   0.000000 zern      0.00   9.01 -0.58 -3.44  0.38 -0.07 -0.65  0.99  0.51  0.28 -0.21 -0.16 -0.16 -0.20  0.77  0.63 -0.04  0.42 -0.17  0.25 -0.05  0.68  0.00
R30_S22     169250.0 -211750.0 10.0  4000  4072 silicon CCD frame    3.0 100.0 Group0     0.021142   0.000000   0.000000   0.041078  -0.007035   0.000000 zern      0.00   2.67 -3.18 -0.02  0.39 -0.20 -0.06  0.02  0.96 -0.33 -0.32 -0.01  0.33 -0.01 -0.78  0.14  0.22 -0.04  0.01  0.01  0.34 -0.04  0.00
R31_S00      84750.0 -169250.0 10.0  4000  4072 silicon CCD frame    3.0 100.0 Group0    -0.028533   0.000000   0.000000  -0.024430   0.057755   0.000000 zern      0.00  -2.40  2.09 -0.82 -0.23 -1.14 -0.07  0.01 -0.92  1.00 -0.49  0.01 -0.41 -0.43  0.04  0.08 -0.15 -0.18 -0.08  0.12 -0.19 -0.21  0.00
R31_S01      84750.0 -127000.0 10.0  4000  4072 silicon CCD frame    3.0 100.0 Group0    -0.004469   0.000000   0.000000  -0.007355   0.050203   0.000000 zern      0.00   2.16  1.45 -1.48 -0.03 -0.12 -0.96  0.40 -0.54 -0.67  0.42  0.02 -0.50 -0.04  0.09 -0.19 -0.07  0.21 -0.03 -0.03 -0.12  0.27  0.00
R31_S02      84750.0  -84750.0 10.0  4000  4072 silicon CCD frame    3.0 100.0 Group0    -0.015928   0.000000   0.000000  -0.010246  -0.028793   0.000000 zern      0.00  -0.43  0.04 -1.24  0.16 -1.14 -0.36  0.82  0.26  0.04 -0.46 -0.15  0.07 -0.31  0.84 -0.52 -0.09  0.06 -0.11  0.11 -0.09  0.11  0.00
R31_S10     127000.0 -169250.0 10.0  4000  4072 silicon CCD frame    3.0 100.0 Group0    -0.025668   0.000000   0.000000   0.038916   0.037690   0.000000 zern      0.00  -8.25 -0.80  0.85 -0.03 -0.20 -0.05  0.00 -0.02 -0.26  1.20 -0.41  0.11  0.22  1.04 -0.27  0.09  0.12  0.18 -0.13  0.05  0.10  0.00
R31_S11     127000.0 -127000.0 10.0  4000  4072 silicon CCD frame    3.0 100.0 Group0    -0.011803   0.000000   0.000000   0.010520   0.047370   0.000000 zern      0.00  -2.11 -3.48  1.81  0.19  0.10 -0.25  0.10  0.99  0.15 -0.49 -0.11  0.36 -0.19  0.17 -0.62  0.26 -0.12  0.02  0.05  0.35 -0.18  0.00
R31_S12     127000.0  -84750.0 10.0  4000  4072 silicon CCD frame    3.0 100.0 Group0    -0.029393   0.000000   0.000000  -0.005426   0.005752   0.000000 zern      0.00   0.41  1.64  0.44 -0.21 -0.21 -0.60 -0.00 -0.95  0.10  0.27 -0.47 -0.43 -0.31  0.70  0.54 -0.15  0.17  0.05 -0.13 -0.26  0.18  0.00
R31_S20     169250.0 -169250.0 10.0  4000  4072 silicon CCD frame    3.0 100.0 Group0     0.000057   0.000000   0.000000   0.030360  -0.024612   0.000000 zern      0.00  -1.75  3.10  0.39 -0.23 -0.70 -0.11 -0.00 -0.98 -0.69  0.28 -0.58  0.20 -0.22 -0.30 -0.44 -0.21  0.11  0.01 -0.12 -0.29  0.11  0.00
R31_S21     169250.0 -127000.0 10.0  4000  4072 silicon CCD frame    3.0 100.0 Group0    -0.027101   0.000000   0.000000   0.020386   0.027527   0.000000 zern      0.00  -3.22 -1.68 -0.15  0.00  0.14 -0.66 -0.18 -0.03 -0.11  0.55  0.41  0.19 -0.19 -0.45  0.01  0.18  0.03 -0.01 -0.02  0.27  0.02  0.00
R31_S22     169250.0  -84750.0 10.0  4000  4072 silicon CCD frame    3.0 100.0 Group0    -0.003094   0.000000   0.000000   0.019226   0.023178   0.000000 zern      0.00  -1.87  0.59  2.95 -0.41 -0.41 -0.35 -0.98 -0.42  0.07 -0.50  0.29 -0.31 -0.11 -0.47  0.35  0.05 -0.18  0.01  0.04  0.06 -0.26  0.00
R32_S00      84750.0  -42250.0 10.0  4000  4072 silicon CCD frame    3.0 100.0 Group0     0.002120   0.000000   0.000000  -0.016236   0.004768   0.000000 zern      0.00   0.71  1.56 -0.17 -0.18  0.39 -0.47 -0.02 -1.00  0.34  0.04  0.13 -0.43  0.11 -0.41 -0.49 -0.30 -0.10 -0.05  0.01 -0.38 -0.12  0.00
R32_S01      84750.0       0.0 10.0  4000  4072 silicon CCD frame    3.0 100.0 Group0     0.004927   0.000000   0.000000   0.036568  -0.007028   0.000000 zern      0.00  -4.82  3.16 -2.00  0.02 -0.44 -0.27  0.89 -0.89 -0.08 -0.14 -0.11 -0.32 -0.36 -0.12  0.87 -0.44  0.26  0.13 -0.02 -0.70  0.42  0.00
R32_S02      84750.0   42250.0 10.0  4000  4072 silicon CCD frame    3.0 100.0 Group0     0.003037   0.000000   0.000000   0.028687  -0.028312   0.000000 zern      0.00  -7.90 -3.62 -0.55  0.52  0.01 -0.03  0.51  1.00 -0.76 -0.53 -0.07 -0.06 -0.24  1.34 -0.03  0.12  0.01 -0.15 -0.01  0.21 -0.05  0.00
R32_S10     127000.0  -42250.0 10.0  4000  4072 silicon CCD frame    3.0 100.0 Group0    -0.007735   0.000000   0.000000  -0.032732  -0.017803   0.000000 zern      0.00  -5.78  1.69  0.60 -0.41  0.55 -0.08 -0.16 -1.00 -0.83 -0.18 -0.23  0.14  0.16  1.06 -0.25 -0.12 -0.11 -0.05 -0.02 -0.15 -0.20  0.00
R32_S11     127000.0       0.0 10.0  4000  4072 silicon CCD frame    3.0 100.0 Group0     0.003839   0.000000   0.000000  -0.011337  -0.015682   0.000000 zern      0.00  -3.65  3.49 -4.50 -0.01 -1.50 -0.06  0.81 -0.83  1.14 -0.44  0.32  0.18 -0.44  0.69 -0.24 -0.41  0.14 -0.20  0.20 -0.53  0.30  0.00
R32_S12     127000.0   42250.0 10.0  4000  4072 silicon CCD frame    3.0 100.0 Group0     0.005271   0.000000   0.000000  -0.040153  -0.004944   0.000000 zern      0.00  -6.16  2.77 -4.18  0.01 -0.69 -0.01  0.97 -0.93  1.05 -0.08  0.43  0.20 -0.14  0.28  0.74 -0.22  0.35 -0.09  0.11 -0.30  0.56  0.00
R32_S20     169250.0  -42250.0 10.0  4000  4072 silicon CCD frame    3.0 100.0 Group0    -0.000630   0.000000   0.000000  -0.000395  -0.004421   0.000000 zern      0.00   1.98  3.21 -2.91 -0.08  0.16 -0.34  0.91 -0.95  0.45  0.23 -0.15 -0.04 -0.08 -0.77 -0.14 -0.29  0.29  0.04  0.10 -0.44  0.50  0.00
R32_S21     169250.0       0.0 10.0  4000  4072 silicon CCD frame    3.0 100.0 Group0     0.006818   0.000000   0.000000  -0.041307   0.030015   0.000000 zern      0.00  -2.20  0.24 -0.66  0.17  1.16 -0.33  0.63 -0.03 -0.76 -0.06 -0.55 -0.01  0.30  0.27 -0.59  0.12 -0.02 -0.00 -0.03  0.17 -0.07  0.00
R32_S22     169250.0   42250.0 10.0  4000  4072 silicon CCD frame    3.0 100.0 Group0    -0.009053   0.000000   0.000000  -0.041853   0.022449   0.000000 zern      0.00  -3.21 -1.96 -1.22  0.32 -0.76  0.37 -0.02  1.00  0.99 -0.10  0.40  0.07 -0.17  0.00 -0.10  0.28  0.02 -0.09  0.22  0.42  0.13  0.00
R33_S00      84750.0   84750.0 10.0  4000  4072 silicon CCD frame    3.0 100.0 Group0     0.019710   0.000000   0.000000   0.015060  -0.056023   0.000000 zern      0.00   8.09  1.23 -3.82  0.20  0.07  0.60  1.00 -0.56  1.05  0.07  0.07  0.43 -0.42  0.22  0.33 -0.11  0.10  0.07  0.25 -0.21  0.27  0.00
R33_S01      84750.0  127000.0 10.0  4000  4072 silicon CCD frame    3.0 100.0 Group0     0.018048   0.000000   0.000000  -0.010368  -0.013603   0.000000 zern      0.00  13.81  0.31  1.03 -0.29 -1.26 -0.91  0.06  0.08 -0.30 -0.25 -0.11  0.06 -0.40  0.93  0.10 -0.06  0.06 -0.08 -0.01 -0.08  0.04  0.00
R33_S02      84750.0  169250.0 10.0  4000  4072 silicon CCD frame    3.0 100.0 Group0     0.026528   0.000000   0.000000  -0.003556  -0.038177   0.000000 zern      0.00   9.21  3.53  1.54 -0.53 -0.16  0.40 -0.99 -1.00 -0.51  0.37  0.27  0.06  0.05  0.43  0.24 -0.38 -0.35  0.04  0.03 -0.53 -0.47  0.00
R33_S10     127000.0   84750.0 10.0  4000  4072 silicon CCD frame    3.0 100.0 Group0     0.004813   0.000000   0.000000  -0.022262  -0.035813   0.000000 zern      0.00   4.76 -0.30 -4.20  0.48  0.32  0.60  0.92  0.00  0.79  0.61 -0.03  0.09 -0.03 -0.00 -0.25  0.16  0.35  0.10  0.04  0.16  0.53  0.00
R33_S11     127000.0  127000.0 10.0  4000  4072 silicon CCD frame    3.0 100.0 Group0    -0.000344   0.000000   0.000000  -0.029916   0.038788   0.000000 zern      0.00   5.66  0.47  5.64 -0.55 -0.64 -0.21 -0.92 -0.05 -1.07 -0.90 -0.09 -0.07 -0.08 -0.66 -0.49  0.12 -0.40 -0.15 -0.40  0.30 -0.75  0.00
R33_S12     127000.0  169250.0 10.0  4000  4072 silicon CCD frame    3.0 100.0 Group0     0.024351   0.000000   0.000000   0.024354  -0.045517   0.000000 zern      0.00   4.82 -5.11  0.50  0.63  0.15 -0.63 -0.00  0.82 -0.01 -1.02  0.18 -0.05  0.15 -0.30 -0.35  0.49  0.06 -0.16 -0.07  0.81  0.05  0.00
R33_S20     169250.0   84750.0 10.0  4000  4072 silicon CCD frame    3.0 100.0 Group0     0.003724   0.000000   0.000000   0.059050   0.027635   0.000000 zern      0.00   4.44  1.85  0.81 -0.38  0.20 -0.68 -0.04 -1.00 -0.66 -0.46  0.31 -0.24  0.16 -1.03  0.65 -0.42  0.02 -0.05 -0.18 -0.56 -0.01  0.00
R33_S21     169250.0  127000.0 10.0  4000  4072 silicon CCD frame    3.0 100.0 Group0     0.016902   0.000000   0.000000  -0.003220   0.000733   0.000000 zern      0.00   6.09 -0.30  3.98 -0.50 -0.92 -0.26 -0.80  0.00 -0.45 -0.81 -0.04  0.00 -0.65  0.85  0.22 -0.02 -0.39 -0.14  0.07  0.02 -0.58  0.00
R33_S22     169250.0  169250.0 10.0  4000  4072 silicon CCD frame    3.0 100.0 Group0     0.000115   0.000000   0.000000  -0.002157   0.045273   0.000000 zern      0.00  10.36 -1.27  2.14 -0.26 -0.38  0.73 -0.91  0.58  0.59  0.24 -0.27  0.55  0.02  0.59 -0.06  0.19 -0.40  0.04  0.08  0.26 -0.56  0.00
R34_S00      84750.0  211750.0 10.0  4000  4072 silicon CCD frame    3.0 100.0 Group0    -0.003209   0.000000   0.000000  -0.051911  -0.042480   0.000000 zern      0.00   2.41  0.06 -1.17  0.22 -0.31 -1.21  0.38 -0.00 -0.21  0.10 -0.36 -0.25  0.00 -0.20  0.32 -0.01  0.19  0.00 -0.19 -0.02  0.21  0.00
R34_S01      84750.0  254000.0 10.0  4000  4072 silicon CCD frame    3.0 100.0 Group0     0.004469   0.000000   0.000000  -0.072708   0.043595   0.000000 zern      0.00   3.61  1.21 -3.55  0.23  0.53  0.51  0.96 -0.20  0.53  0.30  0.11 -0.02  0.18 -0.62 -0.38  0.00  0.40 -0.00  0.01 -0.01  0.58  0.00
R34_S02      84750.0  296250.0 10.0  4000  4072 silicon CCD frame    3.0 100.0 Group0     0.006073   0.000000   0.000000  -0.053292   0.019531   0.000000 zern      0.00  -3.32  0.04 -1.19  0.23 -0.58  0.81  0.19  0.00  0.61 -0.78 -0.07 -0.04 -0.39 -0.42  0.19  0.05  0.17 -0.06  0.04  0.09  0.26  0.00
R34_S10     127000.0  211750.0 10.0  4000  4072 silicon CCD frame    3.0 100.0 Group0    -0.007506   0.000000   0.000000   0.015340  -0.000611   0.000000 zern      0.00   3.38  3.44 -2.30  0.03  0.23  0.02  0.94 -0.87  0.17  0.62 -0.23  0.19 -0.22 -0.91  0.75 -0.21  0.30  0.08 -0.03 -0.34  0.45  0.00
R34_S11     127000.0  254000.0 10.0  4000  4072 silicon CCD frame    3.0 100.0 Group0    -0.006646   0.000000   0.000000  -0.028763  -0.034613   0.000000 zern      0.00   5.07 -1.88 -1.37  0.16  0.78 -0.87  0.82  0.59  0.80 -0.44  0.38 -0.13  0.07 -0.07 -0.71  0.32  0.05 -0.08  0.12  0.47  0.09  0.00
R34_S12     127000.0  296250.0 10.0  4000  4072 silicon CCD frame    3.0 100.0 Group0     0.019882   0.000000   0.000000  -0.040512   0.032623   0.000000 zern      0.00   7.14 -0.97  2.74 -0.24 -0.05  0.40 -0.98  0.20  0.30  1.33 -0.30  0.03  0.14  0.73 -0.35 -0.00 -0.31  0.19 -0.07 -0.07 -0.47  0.00
R34_S20     169250.0  211750.0 10.0  4000  4072 silicon CCD frame    3.0 100.0 Group0     0.019538   0.000000   0.000000   0.004989  -0.017823   0.000000 zern      0.00   1.42  1.31  1.28 -0.41 -0.20 -1.04 -0.20 -0.58  0.71  0.07  0.41 -0.23 -0.27 -0.89 -0.11 -0.22 -0.17 -0.08  0.10 -0.27 -0.20  0.00
R34_S21     169250.0  254000.0 10.0  4000  4072 silicon CCD frame    3.0 100.0 Group0     0.017590   0.000000   0.000000  -0.050523  -0.003176   0.000000 zern      0.00   7.78  0.67 -1.28  0.16  0.26 -0.01  0.13 -0.57 -1.31 -0.06 -0.03 -0.11  0.40 -0.91 -0.26  0.07  0.06  0.09 -0.27  0.13  0.01  0.00
R34_S22     169250.0  296250.0 10.0  4000  4072 silicon CCD frame    3.0 100.0 Group0     0.015756   0.000000   0.000000  -0.015791   0.025543   0.000000 zern      0.00   7.53  0.98  2.08 -0.17 -1.09  0.14 -0.99 -0.01  0.36  0.58 -0.34  0.47 -0.14 -0.59 -0.24  0.03 -0.10  0.08 -0.09  0.05 -0.15  0.00
R40_S01     211750.0 -254000.0 10.0  4000  4072 silicon CMOS  frame   0.1 100.0 Group2    90.012665   0.000000   0.000000   0.064347   0.002061   0.000000 zern      0.00  -7.63 -3.58  1.56  0.03  0.71 -0.11 -0.80  0.86  0.30 -0.51  0.58  0.31  0.58 -0.70  0.20  0.22 -0.20  0.02  0.11  0.32 -0.25  0.00
R40_S02_C0  211750.0 -211750.0 10.0  2000  4072 silicon CCD frame    3.0 100.0 Group1    89.992668   0.000000   0.000000  -0.021283 -10.033578   0.000000 zern  -1000.00  -4.02  0.54  1.11 -0.14 -0.05 -0.87 -0.40  0.02  0.46  0.31 -0.33 -0.14  0.00 -0.30 -0.19  0.16 -0.08  0.20  0.07  0.31  0.04  0.00
R40_S02_C1  211750.0 -211750.0 10.0  2000  4072 silicon CCD frame    3.0 100.0 Group1    90.004585   0.000000   0.000000  -0.047049   9.929946   0.000000 zern   1000.00  -2.70  0.69  1.08 -0.17 -0.62 -0.11 -0.42 -0.00 -0.11  0.64 -0.09 -0.03 -0.21  0.25 -0.36  0.10 -0.04  0.17  0.01  0.26 -0.18  0.00
R40_S12     254000.0 -211750.0 10.0  4000  4072 silicon CMOS  frame   0.1 100.0 Group2    90.009102   0.000000   0.000000  -0.019259  -0.022447   0.000000 zern      0.00  -2.73  1.73  1.46 -0.08 -0.56 -0.87 -0.01 -0.55  0.05  0.19 -0.25 -0.26 -0.44 -0.10 -0.16 -0.14 -0.13 -0.01  0.15 -0.19 -0.11  0.00
R41_S00     211750.0 -169250.0 10.0  4000  4072 silicon CCD frame    3.0 100.0 Group0     0.021944   0.000000   0.000000   0.048766   0.026276   0.000000 zern      0.00   2.01  1.70 -1.43  0.03  0.47 -0.44  0.37 -0.40 -0.28 -0.32  0.07 -0.40  0.17 -0.97  0.01 -0.25  0.02 -0.04 -0.02 -0.32  0.04  0.00
R41_S01     211750.0 -127000.0 10.0  4000  4072 silicon CCD frame    3.0 100.0 Group0     0.021314   0.000000   0.000000   0.009996  -0.041734   0.000000 zern      0.00   2.97  1.43 -0.40 -0.21 -0.65 -0.48 -0.00 -0.52 -0.25  0.31  0.10 -0.28 -0.40  0.63  0.10 -0.19  0.03 -0.07  0.02 -0.26  0.06  0.00
R41_S02     211750.0  -84750.0 10.0  4000  4072 silicon CCD frame    3.0 100.0 Group0    -0.007678   0.000000   0.000000   0.063550  -0.013894   0.000000 zern      0.00   0.35  1.28  0.51 -0.17 -0.53 -0.60 -0.21 -0.17 -0.01 -0.21 -0.12 -0.02 -0.24 -0.48  0.36 -0.16  0.10 -0.08  0.01 -0.19  0.17  0.00
R41_S10     254000.0 -169250.0 10.0  4000  4072 silicon CCD frame    3.0 100.0 Group0    -0.002922   0.000000   0.000000   0.070604  -0.033508   0.000000 zern      0.00  -3.54 -0.90  2.42 -0.33 -0.42  0.16 -0.95  0.01  0.22 -0.20 -0.33  0.42 -0.19  0.71 -0.23 -0.04 -0.30  0.06  0.11 -0.09 -0.41  0.00
R41_S11     254000.0 -127000.0 10.0  4000  4072 silicon CCD frame    3.0 100.0 Group0    -0.006016   0.000000   0.000000   0.058500   0.024873   0.000000 zern      0.00  -0.15 -1.79  1.29  0.03 -0.30  0.33 -0.22  1.00  0.82 -0.04  0.16  0.07 -0.00 -0.53  0.43  0.10 -0.14  0.05  0.09  0.12 -0.14  0.00
R41_S12     254000.0  -84750.0 10.0  4000  4072 silicon CCD frame    3.0 100.0 Group0     0.021658   0.000000   0.000000   0.018036   0.017899   0.000000 zern      0.00   7.50  2.57 -0.02 -0.01  0.25 -0.32 -0.00 -0.97 -0.34 -0.08 -0.60 -0.39 -0.18  0.13  0.60 -0.26  0.14  0.05 -0.19 -0.41  0.13  0.00
R41_S20     296250.0 -169250.0 10.0  4000  4072 silicon CCD frame    3.0 100.0 Group0     0.004011   0.000000   0.000000   0.074584   0.046707   0.000000 zern      0.00   6.44  1.44 -0.54  0.09 -0.54 -0.93  0.46 -0.39 -0.38 -0.14 -0.44 -0.16 -0.44 -0.29 -0.36 -0.05 -0.02 -0.13  0.03 -0.02 -0.03  0.00
R41_S21     296250.0 -127000.0 10.0  4000  4072 silicon CCD frame    3.0 100.0 Group0     0.007219   0.000000   0.000000   0.071571   0.038002   0.000000 zern      0.00   7.30  0.80 -2.13  0.30  0.77 -0.64  0.82 -0.22 -0.28  0.21  0.22 -0.05  0.43 -0.71  0.33  0.04  0.34  0.13 -0.18  0.02  0.45  0.00
R41_S22     296250.0  -84750.0 10.0  4000  4072 silicon CCD frame    3.0 100.0 Group0     0.015928   0.000000   0.000000   0.077274  -0.047318   0.000000 zern      0.00   1.11 -0.96  1.63 -0.01 -1.47  1.11 -0.94  0.40 -0.25 -0.35 -0.25  0.26 -0.56 -0.23  0.23  0.01 -0.16  0.06  0.09 -0.01 -0.20  0.00
R42_S00     211750.0  -42250.0 10.0  4000  4072 silicon CCD frame    3.0 100.0 Group0    -0.004011   0.000000   0.000000  -0.084596   0.015424   0.000000 zern      0.00  -6.83  1.67  0.93 -0.20 -1.51 -0.04 -0.20 -0.95  0.13  0.12 -0.49 -0.25 -0.40  0.01  0.41 -0.16  0.07  0.07 -0.11 -0.26  0.07  0.00
R42_S01     211750.0       0.0 10.0  4000  4072 silicon CCD frame    3.0 100.0 Group0     0.011115   0.000000   0.000000  -0.061293   0.042905   0.000000 zern      0.00  -1.78 -0.74  1.16 -0.34  0.72  0.84 -0.81 -0.21  0.03  0.57  0.40  0.17  0.03 -0.84  0.21  0.11 -0.13  0.05  0.03  0.15 -0.16  0.00
R42_S02     211750.0   42250.0 10.0  4000  4072 silicon CCD frame    3.0 100.0 Group0     0.006474   0.000000   0.000000  -0.069291   0.031538   0.000000 zern      0.00  -4.40 -0.93 -2.84  0.44  0.86 -0.04  0.88  0.19  0.64  0.54  0.10 -0.15  0.41 -0.77 -0.17  0.05  0.12  0.15 -0.03  0.01  0.20  0.00
R42_S10     254000.0  -42250.0 10.0  4000  4072 silicon CCD frame    3.0 100.0 Group0     0.003839   0.000000   0.000000  -0.013260   0.019958   0.000000 zern      0.00   2.07  1.54 -1.66 -0.03 -0.46 -1.22  0.56 -0.37  0.01 -0.47 -0.32 -0.43  0.09  0.51  0.03 -0.23  0.25 -0.03 -0.07 -0.34  0.33  0.00
R42_S11     254000.0       0.0 10.0  4000  4072 silicon CCD frame    3.0 100.0 Group0    -0.012376   0.000000   0.000000  -0.039783   0.010320   0.000000 zern      0.00   2.32 -0.22  1.08 -0.00 -0.44 -0.18  0.05 -0.00  0.33  0.32 -0.58  0.03 -0.26 -0.31 -0.12  0.17 -0.05 -0.01 -0.07  0.25 -0.11  0.00
R42_S12     254000.0   42250.0 10.0  4000  4072 silicon CCD frame    3.0 100.0 Group0     0.010657   0.000000   0.000000  -0.025330   0.027543   0.000000 zern      0.00  -0.88  5.72 -1.61  0.01 -0.75  0.49  0.77 -1.09  0.21  1.33 -0.15  0.60 -0.23 -0.28  0.02 -0.39  0.30  0.26  0.08 -0.69  0.50  0.00
R42_S20     296250.0  -42250.0 10.0  4000  4072 silicon CCD frame    3.0 100.0 Group0    -0.005157   0.000000   0.000000  -0.065764   0.009048   0.000000 zern      0.00  -0.85  1.91  0.78 -0.13 -0.36 -0.51 -0.44 -1.00 -0.87 -0.03 -0.18  0.21 -0.17 -0.71  0.20 -0.32  0.12  0.08 -0.19 -0.46  0.14  0.00
R42_S21     296250.0       0.0 10.0  4000  4072 silicon CCD frame    3.0 100.0 Group0     0.010944   0.000000   0.000000  -0.085416   0.035761   0.000000 zern      0.00   0.99  0.42 -0.48 -0.08 -0.08  0.74  0.05  0.04  0.16 -0.15 -0.27  0.00 -0.02  0.29 -0.17 -0.07 -0.05 -0.04  0.03 -0.10 -0.10  0.00
R42_S22     296250.0   42250.0 10.0  4000  4072 silicon CCD frame    3.0 100.0 Group0     0.015871   0.000000   0.000000  -0.069670  -0.032543   0.000000 zern      0.00   9.24  0.70 -0.69 -0.01  0.53 -0.18  0.01 -0.51  0.22 -0.30 -0.06 -0.07  0.39  0.40  0.23  0.02 -0.06  0.05 -0.07  0.03 -0.13  0.00
R43_S00     211750.0   84750.0 10.0  4000  4072 silicon CCD frame    3.0 100.0 Group0    -0.002177   0.000000   0.000000  -0.037368  -0.017166   0.000000 zern      0.00   5.56 -3.05 -0.20  0.35  0.17 -0.22  0.05  1.01  0.29  0.30 -0.25  0.18 -0.09  0.27 -0.22  0.17 -0.13  0.04  0.06  0.21 -0.18  0.00
R43_S01     211750.0  127000.0 10.0  4000  4072 silicon CCD frame    3.0 100.0 Group0    -0.011402   0.000000   0.000000  -0.010910   0.015641   0.000000 zern      0.00   1.09  1.64 -0.30 -0.27 -0.19 -0.56 -0.14 -0.33  0.13  0.13 -0.11  0.06 -0.49  0.63 -0.32 -0.18  0.05 -0.15  0.00 -0.22  0.04  0.00
R43_S02     211750.0  169250.0 10.0  4000  4072 silicon CCD frame    3.0 100.0 Group0    -0.016444   0.000000   0.000000   0.040511   0.001053   0.000000 zern      0.00  -0.64 -2.64 -0.46  0.21 -0.62  0.49  0.21  0.98  0.90 -0.99  0.28 -0.16 -0.10 -0.05  0.21  0.31 -0.10 -0.12  0.21  0.49 -0.07  0.00
R43_S10     254000.0   84750.0 10.0  4000  4072 silicon CCD frame    3.0 100.0 Group0    -0.010943   0.000000   0.000000   0.010206  -0.046128   0.000000 zern      0.00   5.20 -1.27 -1.63  0.46  0.42  0.24  0.77  0.40 -0.06 -0.04 -0.06 -0.28  0.03 -0.35 -0.14  0.20  0.31  0.03 -0.06  0.27  0.43  0.00
R43_S11     254000.0  127000.0 10.0  4000  4072 silicon CCD frame    3.0 100.0 Group0    -0.010428   0.000000   0.000000   0.060744   0.018944   0.000000 zern      0.00  -1.47 -1.70  0.75  0.08 -0.31  0.64  0.19  0.31  0.23 -0.35  0.23  0.12  0.06 -0.26  0.30  0.24  0.05  0.07 -0.09  0.36  0.05  0.00
R43_S12     254000.0  169250.0 10.0  4000  4072 silicon CCD frame    3.0 100.0 Group0     0.000000   0.000000   0.000000   0.040469  -0.015152   0.000000 zern      0.00   0.70  1.14 -1.90  0.23 -0.35 -0.32  1.01  0.01 -0.82 -0.01 -0.10 -0.34 -0.22  0.14 -0.00  0.11  0.26 -0.03 -0.05  0.16  0.35  0.00
R43_S20     296250.0   84750.0 10.0  4000  4072 silicon CCD frame    3.0 100.0 Group0     0.002063   0.000000   0.000000  -0.035737  -0.031418   0.000000 zern      0.00  12.18 -1.25 -0.87  0.20  0.46  0.68 -0.03  0.60  0.42  0.30  0.32  0.01  0.02  0.56 -0.20  0.06  0.11  0.09 -0.01  0.03  0.17  0.00
R43_S21     296250.0  127000.0 10.0  4000  4072 silicon CCD frame    3.0 100.0 Group0    -0.022116   0.000000   0.000000   0.026211  -0.007278   0.000000 zern      0.00   2.38  3.73 -0.95 -0.00 -0.97  0.28  0.19 -0.94  0.13  0.28 -0.43 -0.10 -0.29 -0.56 -0.27 -0.23 -0.00  0.18 -0.04 -0.40  0.01  0.00
R43_S22     296250.0  169250.0 10.0  4000  4072 silicon CCD frame    3.0 100.0 Group0    -0.003552   0.000000   0.000000   0.055143   0.005035   0.000000 zern      0.00  -2.38 -1.44 -2.24  0.43  0.35 -0.38  1.00  0.62 -0.07 -0.50  0.15 -0.02 -0.01  0.94  0.03  0.19  0.34 -0.10  0.03  0.27  0.47  0.00
R44_S00_C0  211750.0  211750.0 10.0  2000  4072 silicon CCD frame    3.0 100.0 Group1  -179.991562   0.000000   0.000000  10.000594  -0.027798   0.000000 zern  -1000.00  -5.35  1.02  0.73 -0.22  0.11  0.28  0.03 -0.20  0.19 -0.13  0.07  0.04  0.01 -0.11  0.39 -0.01  0.06 -0.03  0.01 -0.10  0.11  0.00
R44_S00_C1  211750.0  211750.0 10.0  2000  4072 silicon CCD frame    3.0 100.0 Group1  -179.981201   0.000000   0.000000 -10.014680  -0.038025   0.000000 zern   1000.00  -3.84  0.58  0.33 -0.20 -0.77  0.32  0.15  0.00  0.27 -0.20  0.10 -0.09  0.02  0.28  0.09 -0.03  0.14  0.03  0.12  0.05  0.34  0.00
R44_S01     211750.0  254000.0 10.0  4000  4072 silicon CMOS  frame   0.1 100.0 Group2   179.992722   0.000000   0.000000   0.040719  -0.031170   0.000000 zern      0.00  -2.62  2.30 -1.14 -0.17 -0.48 -0.13 -0.04 -1.01  0.29 -0.54  0.33  0.23 -0.05 -0.80 -0.38 -0.19  0.13 -0.03 -0.08 -0.23  0.17  0.00
R44_S10     254000.0  211750.0 10.0  4000  4072 silicon CMOS  frame   0.1 100.0 Group2   179.992722   0.000000   0.000000   0.050473   0.001236   0.000000 zern      0.00  -1.92 -1.18 -1.70  0.47  0.80  0.44  0.26  0.98 -0.07  0.97  0.03  0.04  0.36 -0.55  0.33  0.15  0.19  0.12 -0.07  0.18  0.28  0.00
