#
# Column 0: Name
# Column 1: Type
# Column 2: Curvature R (mm)
# Column 3: Thickness dz (mm)
# Column 4: Outer Radius (mm)
# Column 5: Inner Radius (mm)
# Column 6: Conic Constant Kappa
# Column 7 - 14: Aspheric Coefficient a_3 - a_10 (a_n r^n in meters)
# Column 15: Coating file
# Column 16: Medium file
#
# (0)   (1)      (2)            (3)             (4)      (5)      (6)   (7)     (8)     (9)    (10)            (11)    (12)            (13) (14)    (15)                (16)                                                         
M1	mirror	19835.0		0.0		4180.0	2558.0	-1.215	0.0	0.0	0.0	1.381e-27	0.0	0.0		0.0 0.0	m1_protAl_Ideal.txt      air
M2	mirror	6788.0		6156.2006       1710.0	900.0	-0.222	0.0	0.0	0.0	-1.274e-23	0.0	-9.68e-31	0.0 0.0	m2_protAl_Ideal.txt	air
M3	mirror	8344.5		-6390.0006      2508.0	550.0	0.155	0.0	0.0	0.0	-4.5e-25	0.0	-8.15e-33	0.0 0.0	m3_protAl_Ideal.txt	air
none	none	0.0		3630.5		0.0	0.0	0.0	0.0	0.0	0.0	0.0		0.0	0.0		0.0 0.0	none		air
L1	lens	2824.0		0.7725882045598	775.0	0.0	0.0	0.0	0.0	0.0	0.0		0.0	0.0		0.0 0.0	lenses.txt      silica_dispersion.txt
L1E	lens	5021.0		82.23		775.0	0.0	0.0	0.0	0.0	0.0	0.0		0.0	0.0		0.0 0.0	lenses.txt      air
L2	lens	0.0		412.64202	551.0	0.0	0.0	0.0	0.0	0.0	0.0		0.0	0.0		0.0 0.0	lenses.txt      silica_dispersion.txt
L2E	lens	2529.0		30.0		551.0	0.0	-1.57	0.0	0.0	0.0	1.656e-21	0.0	0.0		0.0 0.0	lenses.txt	air
F	filter	5632.0		349.58		375.0	0.0	0.0	0.0	0.0	0.0	0.0		0.0	0.0		0.0 0.0	filter_2.txt	silica_dispersion.txt
FE	filter	5606.0		17.90		375.0	0.0	0.0	0.0	0.0	0.0	0.0		0.0	0.0		0.0 0.0	none            air
L3	lens	3169.0		51.10		361.0	0.0	-0.962	0.0	0.0	0.0	0.0		0.0	0.0		0.0 0.0	lenses.txt      silica_dispersion.txt
L3E	lens	-13360.0	60.0		361.0	0.0	0.0	0.0	0.0	0.0	0.0		0.0	0.0		0.0 0.0	lenses.txt      air
D	det	0.0		28.5		400.0	0.0	0.0	0.0	0.0	0.0	0.0		0.0	0.0		0.0 0.0	detectorar.txt  air
